{
  "name": "+5 Shield Special Abilities",
  "permission": {
    "default": 0
  },
  "flags": {},
  "description": "",
  "results": [
    {
      "_id": "NCgP0ZpSBFPH5yWG",
      "flags": {},
      "type": 0,
      "text": "Determination",
      "img": "icons/svg/d20-black.svg",
      "resultId": "",
      "weight": 11,
      "range": [1, 11],
      "drawn": false
    },
    {
      "_id": "AmjJrfxvRzUuWXdR",
      "flags": {},
      "type": 0,
      "text": "Improved Energy Resistance",
      "img": "icons/svg/d20-black.svg",
      "resultId": "",
      "weight": 16,
      "range": [12, 27],
      "drawn": false
    },
    {
      "_id": "k35v0f8YyL556UCZ",
      "flags": {},
      "type": 0,
      "text": "Undead controlling",
      "img": "icons/svg/d20-black.svg",
      "resultId": "",
      "weight": 11,
      "range": [28, 38],
      "drawn": false
    },
    {
      "_id": "592O3Xg8kMQOna1v",
      "flags": {},
      "type": 0,
      "text": "Greater Energy Resistance",
      "img": "icons/svg/d20-black.svg",
      "resultId": "",
      "weight": 17,
      "range": [39, 55],
      "drawn": false
    },
    {
      "_id": "YznHaMCZvrBCVZso",
      "flags": {},
      "type": 0,
      "text": "Heavy Fortification",
      "img": "icons/svg/d20-black.svg",
      "resultId": "",
      "weight": 15,
      "range": [56, 70],
      "drawn": false
    },
    {
      "_id": "TlZDEWGrgMg86hWc",
      "flags": {},
      "type": 0,
      "text": "Reflecting",
      "img": "icons/svg/d20-black.svg",
      "resultId": "",
      "weight": 15,
      "range": [71, 85],
      "drawn": false
    },
    {
      "_id": "S9UsqtSnFo8mgd3h",
      "flags": {},
      "type": 0,
      "text": "Spell Resistance (19)",
      "img": "icons/svg/d20-black.svg",
      "resultId": "",
      "weight": 15,
      "range": [86, 100],
      "drawn": false
    }
  ],
  "formula": "1d100",
  "replacement": true,
  "displayRoll": true,
  "_id": "IgFtgWsDBRwsJV0N"
}
