{
  "name": "Common Level 0 Arcane Scrolls",
  "permission": {
    "default": 0
  },
  "flags": {},
  "description": "",
  "results": [
    {
      "_id": "zaeBCN4BElMaPPtn",
      "flags": {},
      "type": 0,
      "text": "Scroll of Acid Splash",
      "img": "icons/svg/d20-black.svg",
      "resultId": "",
      "weight": 9,
      "range": [1, 9],
      "drawn": false
    },
    {
      "_id": "WFjCdqQ2C66oYxAp",
      "flags": {},
      "type": 0,
      "text": "Scroll of Daze",
      "img": "icons/svg/d20-black.svg",
      "resultId": "",
      "weight": 8,
      "range": [10, 17],
      "drawn": false
    },
    {
      "_id": "PLoLWXQ7urRHiF4a",
      "flags": {},
      "type": 0,
      "text": "Scroll of Detect Magic",
      "img": "icons/svg/d20-black.svg",
      "resultId": "",
      "weight": 10,
      "range": [18, 27],
      "drawn": false
    },
    {
      "_id": "uzRsZq7rWyfKQon4",
      "flags": {},
      "type": 0,
      "text": "Scroll of Flare",
      "img": "icons/svg/d20-black.svg",
      "resultId": "",
      "weight": 8,
      "range": [28, 35],
      "drawn": false
    },
    {
      "_id": "6SCAHwEb3UVJv6PE",
      "flags": {},
      "type": 0,
      "text": "Scroll of Light",
      "img": "icons/svg/d20-black.svg",
      "resultId": "",
      "weight": 10,
      "range": [36, 45],
      "drawn": false
    },
    {
      "_id": "LvstfhJOP85OANsX",
      "flags": {},
      "type": 0,
      "text": "Scroll of Mage Hand",
      "img": "icons/svg/d20-black.svg",
      "resultId": "",
      "weight": 10,
      "range": [46, 55],
      "drawn": false
    },
    {
      "_id": "jrP4CXrr1JPOeZun",
      "flags": {},
      "type": 0,
      "text": "Scroll of Mending",
      "img": "icons/svg/d20-black.svg",
      "resultId": "",
      "weight": 8,
      "range": [56, 63],
      "drawn": false
    },
    {
      "_id": "DNRxLjfNK3mb2pl6",
      "flags": {},
      "type": 0,
      "text": "Scroll of Prestidigitation",
      "img": "icons/svg/d20-black.svg",
      "resultId": "",
      "weight": 9,
      "range": [64, 72],
      "drawn": false
    },
    {
      "_id": "KvJtUm3JOCiqwuFG",
      "flags": {},
      "type": 0,
      "text": "Scroll of Ray of Frost",
      "img": "icons/svg/d20-black.svg",
      "resultId": "",
      "weight": 9,
      "range": [73, 81],
      "drawn": false
    },
    {
      "_id": "pd8KdcVT51geE145",
      "flags": {},
      "type": 0,
      "text": "Scroll of Read Magic",
      "img": "icons/svg/d20-black.svg",
      "resultId": "",
      "weight": 10,
      "range": [82, 91],
      "drawn": false
    },
    {
      "_id": "c5fdP5zbYKqMfMgl",
      "flags": {},
      "type": 0,
      "text": "Scroll of Touch of Fatigue",
      "img": "icons/svg/d20-black.svg",
      "resultId": "",
      "weight": 9,
      "range": [92, 100],
      "drawn": false
    }
  ],
  "formula": "1d201",
  "replacement": true,
  "displayRoll": true,
  "_id": "yWjYqpNCc3ERlHOU"
}
