{
  "name": "Common Level 1 Divine Scrolls",
  "permission": {
    "default": 0
  },
  "flags": {},
  "description": "",
  "results": [
    {
      "_id": "JQhSywiMrzdHtJyC",
      "flags": {},
      "type": 0,
      "text": "Scroll of Bane",
      "img": "icons/svg/d20-black.svg",
      "resultId": "",
      "weight": 4,
      "range": [1, 4],
      "drawn": false
    },
    {
      "_id": "lVfdA4T8nI7SCkwX",
      "flags": {},
      "type": 0,
      "text": "Scroll of Bless",
      "img": "icons/svg/d20-black.svg",
      "resultId": "",
      "weight": 6,
      "range": [5, 10],
      "drawn": false
    },
    {
      "_id": "soD93Oj8h0a7XCBu",
      "flags": {},
      "type": 0,
      "text": "Scroll of Cause Fear",
      "img": "icons/svg/d20-black.svg",
      "resultId": "",
      "weight": 5,
      "range": [11, 15],
      "drawn": false
    },
    {
      "_id": "vy5ZXe4dZujcJJBS",
      "flags": {},
      "type": 0,
      "text": "Scroll of Command",
      "img": "icons/svg/d20-black.svg",
      "resultId": "",
      "weight": 4,
      "range": [16, 19],
      "drawn": false
    },
    {
      "_id": "Bn6udSLBoGtiOLt2",
      "flags": {},
      "type": 0,
      "text": "Scroll of Comprehend Languages",
      "img": "icons/svg/d20-black.svg",
      "resultId": "",
      "weight": 3,
      "range": [20, 22],
      "drawn": false
    },
    {
      "_id": "dDMiTeT22Z9bGCUZ",
      "flags": {},
      "type": 0,
      "text": "Scroll of Cure Light Wounds",
      "img": "icons/svg/d20-black.svg",
      "resultId": "",
      "weight": 6,
      "range": [23, 28],
      "drawn": false
    },
    {
      "_id": "vx6rWHMhdWdmC9bL",
      "flags": {},
      "type": 0,
      "text": "Scroll of Detect Chaos",
      "img": "icons/svg/d20-black.svg",
      "resultId": "",
      "weight": 2,
      "range": [29, 30],
      "drawn": false
    },
    {
      "_id": "ZbndzjvnymFSTBtW",
      "flags": {},
      "type": 0,
      "text": "Scroll of Detect Evil",
      "img": "icons/svg/d20-black.svg",
      "resultId": "",
      "weight": 2,
      "range": [31, 32],
      "drawn": false
    },
    {
      "_id": "JBeOI8aDzVKKuY9U",
      "flags": {},
      "type": 0,
      "text": "Scroll of Detect Good",
      "img": "icons/svg/d20-black.svg",
      "resultId": "",
      "weight": 2,
      "range": [33, 34],
      "drawn": false
    },
    {
      "_id": "ShGtwX6RLcZ1ky7J",
      "flags": {},
      "type": 0,
      "text": "Scroll of Detect Law",
      "img": "icons/svg/d20-black.svg",
      "resultId": "",
      "weight": 2,
      "range": [35, 36],
      "drawn": false
    },
    {
      "_id": "A5DhM4yJBbkx8xif",
      "flags": {},
      "type": 0,
      "text": "Scroll of Detect Undead",
      "img": "icons/svg/d20-black.svg",
      "resultId": "",
      "weight": 3,
      "range": [37, 39],
      "drawn": false
    },
    {
      "_id": "miDc1iSovZK0IeSX",
      "flags": {},
      "type": 0,
      "text": "Scroll of Divine Favor",
      "img": "icons/svg/d20-black.svg",
      "resultId": "",
      "weight": 6,
      "range": [40, 45],
      "drawn": false
    },
    {
      "_id": "qrXZbOqaZLklnKPb",
      "flags": {},
      "type": 0,
      "text": "Scroll of Doom",
      "img": "icons/svg/d20-black.svg",
      "resultId": "",
      "weight": 3,
      "range": [46, 48],
      "drawn": false
    },
    {
      "_id": "Z5n88cDErNrEMGa6",
      "flags": {},
      "type": 0,
      "text": "Scroll of Entangle",
      "img": "icons/svg/d20-black.svg",
      "resultId": "",
      "weight": 4,
      "range": [49, 52],
      "drawn": false
    },
    {
      "_id": "eOuRTYGgZOX6hNJS",
      "flags": {},
      "type": 0,
      "text": "Scroll of Inflict Light Wounds",
      "img": "icons/svg/d20-black.svg",
      "resultId": "",
      "weight": 5,
      "range": [53, 57],
      "drawn": false
    },
    {
      "_id": "vJpeaKfcwLdyx7Aj",
      "flags": {},
      "type": 0,
      "text": "Scroll of Magic Fang",
      "img": "icons/svg/d20-black.svg",
      "resultId": "",
      "weight": 4,
      "range": [58, 61],
      "drawn": false
    },
    {
      "_id": "AVVcZGJa795bz1In",
      "flags": {},
      "type": 0,
      "text": "Scroll of Obscuring Mist",
      "img": "icons/svg/d20-black.svg",
      "resultId": "",
      "weight": 4,
      "range": [62, 65],
      "drawn": false
    },
    {
      "_id": "41DQ1Ju4jAKAwjzi",
      "flags": {},
      "type": 0,
      "text": "Scroll of Produce Flame",
      "img": "icons/svg/d20-black.svg",
      "resultId": "",
      "weight": 3,
      "range": [66, 68],
      "drawn": false
    },
    {
      "_id": "smFyz7hwSYF8QTIB",
      "flags": {},
      "type": 0,
      "text": "Scroll of Protection From Chaos",
      "img": "icons/svg/d20-black.svg",
      "resultId": "",
      "weight": 3,
      "range": [69, 71],
      "drawn": false
    },
    {
      "_id": "s9oBsusXEgc5Xn6C",
      "flags": {},
      "type": 0,
      "text": "Scroll of Protection From Evil",
      "img": "icons/svg/d20-black.svg",
      "resultId": "",
      "weight": 3,
      "range": [72, 74],
      "drawn": false
    },
    {
      "_id": "XYSAZPIwTq9cs0yb",
      "flags": {},
      "type": 0,
      "text": "Scroll of Protection From Good",
      "img": "icons/svg/d20-black.svg",
      "resultId": "",
      "weight": 3,
      "range": [75, 77],
      "drawn": false
    },
    {
      "_id": "dLHHG32iTksvc9rt",
      "flags": {},
      "type": 0,
      "text": "Scroll of Protection From Law",
      "img": "icons/svg/d20-black.svg",
      "resultId": "",
      "weight": 3,
      "range": [78, 80],
      "drawn": false
    },
    {
      "_id": "EwtKvCrSiq9FSN2Q",
      "flags": {},
      "type": 0,
      "text": "Scroll of Remove Fear",
      "img": "icons/svg/d20-black.svg",
      "resultId": "",
      "weight": 4,
      "range": [81, 84],
      "drawn": false
    },
    {
      "_id": "qYyDFldTe52XaR7N",
      "flags": {},
      "type": 0,
      "text": "Scroll of Sanctuary",
      "img": "icons/svg/d20-black.svg",
      "resultId": "",
      "weight": 4,
      "range": [85, 88],
      "drawn": false
    },
    {
      "_id": "WYZHtBd5bZHKLPKf",
      "flags": {},
      "type": 0,
      "text": "Scroll of Shield of Faith",
      "img": "icons/svg/d20-black.svg",
      "resultId": "",
      "weight": 6,
      "range": [89, 94],
      "drawn": false
    },
    {
      "_id": "CovmDvhvc65vzuDw",
      "flags": {},
      "type": 0,
      "text": "Scroll of Summon Monster I",
      "img": "icons/svg/d20-black.svg",
      "resultId": "",
      "weight": 3,
      "range": [95, 97],
      "drawn": false
    },
    {
      "_id": "32bxQTzbZ3YVFv1A",
      "flags": {},
      "type": 0,
      "text": "Scroll of Summon Nature's Ally I",
      "img": "icons/svg/d20-black.svg",
      "resultId": "",
      "weight": 3,
      "range": [98, 100],
      "drawn": false
    }
  ],
  "formula": "1d100",
  "replacement": true,
  "displayRoll": true,
  "_id": "ChuzetMXj6gRKCaI"
}
