{
  "name": "Common Level 2 Divine Scrolls",
  "permission": {
    "default": 0
  },
  "flags": {},
  "description": "",
  "results": [
    {
      "_id": "0RhL0MsRhkIAEl6r",
      "flags": {},
      "type": 0,
      "text": "Scroll of Aid",
      "img": "icons/svg/d20-black.svg",
      "resultId": "",
      "weight": 4,
      "range": [1, 4],
      "drawn": false
    },
    {
      "_id": "R9yNR7YtqC0P3l0l",
      "flags": {},
      "type": 0,
      "text": "Scroll of Align Weapon",
      "img": "icons/svg/d20-black.svg",
      "resultId": "",
      "weight": 2,
      "range": [5, 6],
      "drawn": false
    },
    {
      "_id": "xRnltIPkH7JIvCQw",
      "flags": {},
      "type": 0,
      "text": "Scroll of Animal Messenger",
      "img": "icons/svg/d20-black.svg",
      "resultId": "",
      "weight": 2,
      "range": [7, 8],
      "drawn": false
    },
    {
      "_id": "iXX7e6QWQbKNSVOr",
      "flags": {},
      "type": 0,
      "text": "Scroll of Barkskin",
      "img": "icons/svg/d20-black.svg",
      "resultId": "",
      "weight": 5,
      "range": [9, 13],
      "drawn": false
    },
    {
      "_id": "uIaM4x03ojX0Br3Q",
      "flags": {},
      "type": 0,
      "text": "Scroll of Bear's Endurance",
      "img": "icons/svg/d20-black.svg",
      "resultId": "",
      "weight": 3,
      "range": [14, 16],
      "drawn": false
    },
    {
      "_id": "ussGlJPBKpOXUS3z",
      "flags": {},
      "type": 0,
      "text": "Scroll of Bull's Strength",
      "img": "icons/svg/d20-black.svg",
      "resultId": "",
      "weight": 3,
      "range": [17, 19],
      "drawn": false
    },
    {
      "_id": "MuiaGPQ3umBgTybe",
      "flags": {},
      "type": 0,
      "text": "Scroll of Cat's Grace",
      "img": "icons/svg/d20-black.svg",
      "resultId": "",
      "weight": 3,
      "range": [20, 22],
      "drawn": false
    },
    {
      "_id": "RcqIrWsWbkdFrxf2",
      "flags": {},
      "type": 0,
      "text": "Scroll of Chill Metal",
      "img": "icons/svg/d20-black.svg",
      "resultId": "",
      "weight": 2,
      "range": [23, 24],
      "drawn": false
    },
    {
      "_id": "kXySzGJoFdnGkg6Q",
      "flags": {},
      "type": 0,
      "text": "Scroll of Cure Moderate Wounds",
      "img": "icons/svg/d20-black.svg",
      "resultId": "",
      "weight": 6,
      "range": [25, 30],
      "drawn": false
    },
    {
      "_id": "e7DzjjNxVSEOSUij",
      "flags": {},
      "type": 0,
      "text": "Scroll of Darkness",
      "img": "icons/svg/d20-black.svg",
      "resultId": "",
      "weight": 3,
      "range": [31, 33],
      "drawn": false
    },
    {
      "_id": "zvdA9XTKr35USYYL",
      "flags": {},
      "type": 0,
      "text": "Scroll of Delay Poison",
      "img": "icons/svg/d20-black.svg",
      "resultId": "",
      "weight": 3,
      "range": [34, 36],
      "drawn": false
    },
    {
      "_id": "rGJeZ1awNdZBalD0",
      "flags": {},
      "type": 0,
      "text": "Scroll of Eagle's Splendor",
      "img": "icons/svg/d20-black.svg",
      "resultId": "",
      "weight": 3,
      "range": [37, 39],
      "drawn": false
    },
    {
      "_id": "tKueoTD3IuAQEYtP",
      "flags": {},
      "type": 0,
      "text": "Scroll of Find Traps",
      "img": "icons/svg/d20-black.svg",
      "resultId": "",
      "weight": 2,
      "range": [40, 41],
      "drawn": false
    },
    {
      "_id": "1ORmibSriFFNUTUw",
      "flags": {},
      "type": 0,
      "text": "Scroll of Flame Blade",
      "img": "icons/svg/d20-black.svg",
      "resultId": "",
      "weight": 3,
      "range": [42, 44],
      "drawn": false
    },
    {
      "_id": "3luZyuuk5rGVDd0m",
      "flags": {},
      "type": 0,
      "text": "Scroll of Fog Cloud",
      "img": "icons/svg/d20-black.svg",
      "resultId": "",
      "weight": 2,
      "range": [45, 46],
      "drawn": false
    },
    {
      "_id": "Sp0dWXabbMjKu8Pe",
      "flags": {},
      "type": 0,
      "text": "Scroll of Heat Metal",
      "img": "icons/svg/d20-black.svg",
      "resultId": "",
      "weight": 4,
      "range": [47, 50],
      "drawn": false
    },
    {
      "_id": "Q1pesrxzxWFFD2MP",
      "flags": {},
      "type": 0,
      "text": "Scroll of Hold Animal",
      "img": "icons/svg/d20-black.svg",
      "resultId": "",
      "weight": 2,
      "range": [51, 52],
      "drawn": false
    },
    {
      "_id": "ajGiBbz6noiLFn5E",
      "flags": {},
      "type": 0,
      "text": "Scroll of Hold Person",
      "img": "icons/svg/d20-black.svg",
      "resultId": "",
      "weight": 4,
      "range": [53, 56],
      "drawn": false
    },
    {
      "_id": "nWhDe3OlyHuS7Fge",
      "flags": {},
      "type": 0,
      "text": "Scroll of Inflict Moderate Wounds",
      "img": "icons/svg/d20-black.svg",
      "resultId": "",
      "weight": 4,
      "range": [57, 60],
      "drawn": false
    },
    {
      "_id": "bVPBGdg5LZ5Il0O5",
      "flags": {},
      "type": 0,
      "text": "Scroll of Owl's Wisdom",
      "img": "icons/svg/d20-black.svg",
      "resultId": "",
      "weight": 3,
      "range": [61, 63],
      "drawn": false
    },
    {
      "_id": "zQVRg0IJs9iOX9Ev",
      "flags": {},
      "type": 0,
      "text": "Scroll of Remove Paralysis",
      "img": "icons/svg/d20-black.svg",
      "resultId": "",
      "weight": 2,
      "range": [64, 65],
      "drawn": false
    },
    {
      "_id": "Wcm0GcShn0bxrNUO",
      "flags": {},
      "type": 0,
      "text": "Scroll of Resist Energy",
      "img": "icons/svg/d20-black.svg",
      "resultId": "",
      "weight": 3,
      "range": [66, 68],
      "drawn": false
    },
    {
      "_id": "6IRicZRDc374aIal",
      "flags": {},
      "type": 0,
      "text": "Scroll of Restoration, Lesser",
      "img": "icons/svg/d20-black.svg",
      "resultId": "",
      "weight": 5,
      "range": [69, 73],
      "drawn": false
    },
    {
      "_id": "ecWgHeGAmzhT97ZK",
      "flags": {},
      "type": 0,
      "text": "Scroll of Shield Other",
      "img": "icons/svg/d20-black.svg",
      "resultId": "",
      "weight": 4,
      "range": [74, 77],
      "drawn": false
    },
    {
      "_id": "2vVi20iGNsD5FaD5",
      "flags": {},
      "type": 0,
      "text": "Scroll of Silence",
      "img": "icons/svg/d20-black.svg",
      "resultId": "",
      "weight": 4,
      "range": [78, 81],
      "drawn": false
    },
    {
      "_id": "z0kkSM5jDeo0Bq7C",
      "flags": {},
      "type": 0,
      "text": "Scroll of Sound Burst",
      "img": "icons/svg/d20-black.svg",
      "resultId": "",
      "weight": 4,
      "range": [82, 85],
      "drawn": false
    },
    {
      "_id": "MDPMwb7oQmRDjfmi",
      "flags": {},
      "type": 0,
      "text": "Scroll of Spiritual Weapon",
      "img": "icons/svg/d20-black.svg",
      "resultId": "",
      "weight": 4,
      "range": [86, 89],
      "drawn": false
    },
    {
      "_id": "QSsjDO9BdnMR0zm0",
      "flags": {},
      "type": 0,
      "text": "Scroll of Summon Monster II",
      "img": "icons/svg/d20-black.svg",
      "resultId": "",
      "weight": 2,
      "range": [90, 91],
      "drawn": false
    },
    {
      "_id": "eXpjurJV95TeAjbD",
      "flags": {},
      "type": 0,
      "text": "Scroll of Summon Nature's Ally II",
      "img": "icons/svg/d20-black.svg",
      "resultId": "",
      "weight": 2,
      "range": [92, 93],
      "drawn": false
    },
    {
      "_id": "JG6Wz1OuVVWtN1CA",
      "flags": {},
      "type": 0,
      "text": "Scroll of Summon Swarm",
      "img": "icons/svg/d20-black.svg",
      "resultId": "",
      "weight": 2,
      "range": [94, 95],
      "drawn": false
    },
    {
      "_id": "w1JV4dJJ17iZkxZJ",
      "flags": {},
      "type": 0,
      "text": "Scroll of Zone of Truth",
      "img": "icons/svg/d20-black.svg",
      "resultId": "",
      "weight": 2,
      "range": [96, 97],
      "drawn": false
    },
    {
      "_id": "g3cn1wluF86glJuK",
      "flags": {},
      "type": 0,
      "text": "Scroll of Augury",
      "img": "icons/svg/d20-black.svg",
      "resultId": "",
      "weight": 3,
      "range": [98, 100],
      "drawn": false
    }
  ],
  "formula": "1d100",
  "replacement": true,
  "displayRoll": true,
  "_id": "4K2GxrliYpHJs3tT"
}
