{
  "name": "Common Level 4 Wands",
  "permission": {
    "default": 0
  },
  "flags": {},
  "description": "",
  "results": [
    {
      "_id": "MxUFM00BMW8uZvwV",
      "flags": {},
      "type": 0,
      "text": "Wand of Air Walk",
      "img": "icons/svg/d20-black.svg",
      "resultId": "",
      "weight": 2,
      "range": [1, 2],
      "drawn": false
    },
    {
      "_id": "igJkiSzOpUwYsoEq",
      "flags": {},
      "type": 0,
      "text": "Wand of Beast Shape II",
      "img": "icons/svg/d20-black.svg",
      "resultId": "",
      "weight": 2,
      "range": [3, 4],
      "drawn": false
    },
    {
      "_id": "rgVKQnc3iG8oZpek",
      "flags": {},
      "type": 0,
      "text": "Wand of Black Tentacles",
      "img": "icons/svg/d20-black.svg",
      "resultId": "",
      "weight": 3,
      "range": [5, 7],
      "drawn": false
    },
    {
      "_id": "N75AE2UzIwqjyAeb",
      "flags": {},
      "type": 0,
      "text": "Wand of Chaos Hammer",
      "img": "icons/svg/d20-black.svg",
      "resultId": "",
      "weight": 1,
      "range": [8, 8],
      "drawn": false
    },
    {
      "_id": "xeeMa8ZvoUhIuXEA",
      "flags": {},
      "type": 0,
      "text": "Wand of Charm Monster",
      "img": "icons/svg/d20-black.svg",
      "resultId": "",
      "weight": 3,
      "range": [9, 11],
      "drawn": false
    },
    {
      "_id": "nPeLUzQY25MgIIa1",
      "flags": {},
      "type": 0,
      "text": "Wand of Confusion",
      "img": "icons/svg/d20-black.svg",
      "resultId": "",
      "weight": 3,
      "range": [12, 14],
      "drawn": false
    },
    {
      "_id": "ksPNJ1F8Mi3uFQ3j",
      "flags": {},
      "type": 0,
      "text": "Wand of Crushing Despair",
      "img": "icons/svg/d20-black.svg",
      "resultId": "",
      "weight": 2,
      "range": [15, 16],
      "drawn": false
    },
    {
      "_id": "LaDdLo51TAxOjfL3",
      "flags": {},
      "type": 0,
      "text": "Wand of Cure Critical Wounds",
      "img": "icons/svg/d20-black.svg",
      "resultId": "",
      "weight": 6,
      "range": [17, 22],
      "drawn": false
    },
    {
      "_id": "k64FY6cbbuURR4ew",
      "flags": {},
      "type": 0,
      "text": "Wand of Death Ward",
      "img": "icons/svg/d20-black.svg",
      "resultId": "",
      "weight": 2,
      "range": [23, 24],
      "drawn": false
    },
    {
      "_id": "ufmNrZRG9DlYeyNV",
      "flags": {},
      "type": 0,
      "text": "Wand of Dimension Door",
      "img": "icons/svg/d20-black.svg",
      "resultId": "",
      "weight": 4,
      "range": [25, 28],
      "drawn": false
    },
    {
      "_id": "ZG49ZmPhFtnBcoy1",
      "flags": {},
      "type": 0,
      "text": "Wand of Dimensional Anchor",
      "img": "icons/svg/d20-black.svg",
      "resultId": "",
      "weight": 1,
      "range": [29, 29],
      "drawn": false
    },
    {
      "_id": "dKo1vJNmg8DGQ3aI",
      "flags": {},
      "type": 0,
      "text": "Wand of Dismissal",
      "img": "icons/svg/d20-black.svg",
      "resultId": "",
      "weight": 1,
      "range": [30, 30],
      "drawn": false
    },
    {
      "_id": "ZisbWHrlk5gbgWz6",
      "flags": {},
      "type": 0,
      "text": "Wand of Divine Power",
      "img": "icons/svg/d20-black.svg",
      "resultId": "",
      "weight": 3,
      "range": [31, 33],
      "drawn": false
    },
    {
      "_id": "6YwKNlIljtfs82D7",
      "flags": {},
      "type": 0,
      "text": "Wand of Elemental Body I",
      "img": "icons/svg/d20-black.svg",
      "resultId": "",
      "weight": 2,
      "range": [34, 35],
      "drawn": false
    },
    {
      "_id": "qEBMAqPtlVRNuf73",
      "flags": {},
      "type": 0,
      "text": "Wand of Enervation",
      "img": "icons/svg/d20-black.svg",
      "resultId": "",
      "weight": 2,
      "range": [36, 37],
      "drawn": false
    },
    {
      "_id": "722wFeIEC0jFMssf",
      "flags": {},
      "type": 0,
      "text": "Wand of Enlarge Person, Mass",
      "img": "icons/svg/d20-black.svg",
      "resultId": "",
      "weight": 2,
      "range": [38, 39],
      "drawn": false
    },
    {
      "_id": "cmm7lHUMPA5ksq0l",
      "flags": {},
      "type": 0,
      "text": "Wand of Fear",
      "img": "icons/svg/d20-black.svg",
      "resultId": "",
      "weight": 3,
      "range": [40, 42],
      "drawn": false
    },
    {
      "_id": "6K7OjVUiIl6DR30H",
      "flags": {},
      "type": 0,
      "text": "Wand of Fire Shield",
      "img": "icons/svg/d20-black.svg",
      "resultId": "",
      "weight": 2,
      "range": [43, 44],
      "drawn": false
    },
    {
      "_id": "HoTb2mDR9VSR7Ws1",
      "flags": {},
      "type": 0,
      "text": "Wand of Flame Strike",
      "img": "icons/svg/d20-black.svg",
      "resultId": "",
      "weight": 4,
      "range": [45, 48],
      "drawn": false
    },
    {
      "_id": "LyTACoXWeq4O1iWg",
      "flags": {},
      "type": 0,
      "text": "Wand of Freedom of Movement",
      "img": "icons/svg/d20-black.svg",
      "resultId": "",
      "weight": 3,
      "range": [49, 51],
      "drawn": false
    },
    {
      "_id": "LaKFT88X8Pl7m5rC",
      "flags": {},
      "type": 0,
      "text": "Wand of Globe of Invulnerability, Lesser",
      "img": "icons/svg/d20-black.svg",
      "resultId": "",
      "weight": 2,
      "range": [52, 53],
      "drawn": false
    },
    {
      "_id": "j9xLrr5wynX3z56V",
      "flags": {},
      "type": 0,
      "text": "Wand of Holy Smite",
      "img": "icons/svg/d20-black.svg",
      "resultId": "",
      "weight": 1,
      "range": [54, 54],
      "drawn": false
    },
    {
      "_id": "tKCYicVYJlaCx9dq",
      "flags": {},
      "type": 0,
      "text": "Wand of Ice Storm",
      "img": "icons/svg/d20-black.svg",
      "resultId": "",
      "weight": 2,
      "range": [55, 56],
      "drawn": false
    },
    {
      "_id": "TVv4yo2XQRlVk1dr",
      "flags": {},
      "type": 0,
      "text": "Wand of Imbue With Spell Ability",
      "img": "icons/svg/d20-black.svg",
      "resultId": "",
      "weight": 2,
      "range": [57, 58],
      "drawn": false
    },
    {
      "_id": "QdoqWIwQd2w90WSa",
      "flags": {},
      "type": 0,
      "text": "Wand of Inflict Critical Wounds",
      "img": "icons/svg/d20-black.svg",
      "resultId": "",
      "weight": 3,
      "range": [59, 61],
      "drawn": false
    },
    {
      "_id": "0CVNDp00XI8A68La",
      "flags": {},
      "type": 0,
      "text": "Wand of Invisibility, Greater",
      "img": "icons/svg/d20-black.svg",
      "resultId": "",
      "weight": 4,
      "range": [62, 65],
      "drawn": false
    },
    {
      "_id": "Bwjxa2kmmTHyqsKg",
      "flags": {},
      "type": 0,
      "text": "Wand of Order's Wrath",
      "img": "icons/svg/d20-black.svg",
      "resultId": "",
      "weight": 1,
      "range": [66, 66],
      "drawn": false
    },
    {
      "_id": "QnfWJddMYgwpqPGI",
      "flags": {},
      "type": 0,
      "text": "Wand of Phantasmal Killer",
      "img": "icons/svg/d20-black.svg",
      "resultId": "",
      "weight": 3,
      "range": [67, 69],
      "drawn": false
    },
    {
      "_id": "LeBDRwbr6In745TZ",
      "flags": {},
      "type": 0,
      "text": "Wand of Resilient Sphere",
      "img": "icons/svg/d20-black.svg",
      "resultId": "",
      "weight": 1,
      "range": [70, 70],
      "drawn": false
    },
    {
      "_id": "EtSHwBkQEstIzogn",
      "flags": {},
      "type": 0,
      "text": "Wand of Scrying",
      "img": "icons/svg/d20-black.svg",
      "resultId": "",
      "weight": 2,
      "range": [71, 72],
      "drawn": false
    },
    {
      "_id": "EE6jJFuwZ2L5grdS",
      "flags": {},
      "type": 0,
      "text": "Wand of Sending",
      "img": "icons/svg/d20-black.svg",
      "resultId": "",
      "weight": 1,
      "range": [73, 73],
      "drawn": false
    },
    {
      "_id": "IucKJm2Shsk4UMcw",
      "flags": {},
      "type": 0,
      "text": "Wand of Shout",
      "img": "icons/svg/d20-black.svg",
      "resultId": "",
      "weight": 1,
      "range": [74, 74],
      "drawn": false
    },
    {
      "_id": "Pd4e82jBceLefOKJ",
      "flags": {},
      "type": 0,
      "text": "Wand of Solid Fog",
      "img": "icons/svg/d20-black.svg",
      "resultId": "",
      "weight": 2,
      "range": [75, 76],
      "drawn": false
    },
    {
      "_id": "o8vjhtLAPml5rKjw",
      "flags": {},
      "type": 0,
      "text": "Wand of Spell Immunity",
      "img": "icons/svg/d20-black.svg",
      "resultId": "",
      "weight": 3,
      "range": [77, 79],
      "drawn": false
    },
    {
      "_id": "NizvqomxKzwH018r",
      "flags": {},
      "type": 0,
      "text": "Wand of Summon Monster IV",
      "img": "icons/svg/d20-black.svg",
      "resultId": "",
      "weight": 1,
      "range": [80, 80],
      "drawn": false
    },
    {
      "_id": "fvVvfVhHdCfVQs6W",
      "flags": {},
      "type": 0,
      "text": "Wand of Summon Nature's Ally IV",
      "img": "icons/svg/d20-black.svg",
      "resultId": "",
      "weight": 1,
      "range": [81, 81],
      "drawn": false
    },
    {
      "_id": "Uy88TCDmnLZ5RH9A",
      "flags": {},
      "type": 0,
      "text": "Wand of Unholy Blight",
      "img": "icons/svg/d20-black.svg",
      "resultId": "",
      "weight": 1,
      "range": [82, 82],
      "drawn": false
    },
    {
      "_id": "JcEQqQvBfj0qjIDq",
      "flags": {},
      "type": 0,
      "text": "Wand of Wall of Fire",
      "img": "icons/svg/d20-black.svg",
      "resultId": "",
      "weight": 5,
      "range": [83, 87],
      "drawn": false
    },
    {
      "_id": "yXmWnpUYMB7G7nn4",
      "flags": {},
      "type": 0,
      "text": "Wand of Wall of Ice",
      "img": "icons/svg/d20-black.svg",
      "resultId": "",
      "weight": 4,
      "range": [88, 91],
      "drawn": false
    },
    {
      "_id": "AjNUpsI0l377ohPa",
      "flags": {},
      "type": 0,
      "text": "Wand of Divination",
      "img": "icons/svg/d20-black.svg",
      "resultId": "",
      "weight": 2,
      "range": [92, 93],
      "drawn": false
    },
    {
      "_id": "iwwbaY9hBTJiOyMp",
      "flags": {},
      "type": 0,
      "text": "Wand of Restoration",
      "img": "icons/svg/d20-black.svg",
      "resultId": "",
      "weight": 2,
      "range": [94, 95],
      "drawn": false
    },
    {
      "_id": "qwAMSbF6IzC9EubU",
      "flags": {},
      "type": 0,
      "text": "Wand of Break Enchantment",
      "img": "icons/svg/d20-black.svg",
      "resultId": "",
      "weight": 1,
      "range": [96, 96],
      "drawn": false
    },
    {
      "_id": "O0Ez4GjRiRl4px04",
      "flags": {},
      "type": 0,
      "text": "Wand of Stoneskin",
      "img": "icons/svg/d20-black.svg",
      "resultId": "",
      "weight": 2,
      "range": [97, 98],
      "drawn": false
    },
    {
      "_id": "lWw9RBBMVX6LTusc",
      "flags": {},
      "type": 0,
      "text": "Wand of Planar Ally, Lesser",
      "img": "icons/svg/d20-black.svg",
      "resultId": "",
      "weight": 1,
      "range": [99, 99],
      "drawn": false
    },
    {
      "_id": "GeEKOZLkhkaQx0ze",
      "flags": {},
      "type": 0,
      "text": "Wand of Restoration",
      "img": "icons/svg/d20-black.svg",
      "resultId": "",
      "weight": 1,
      "range": [100, 100],
      "drawn": false
    }
  ],
  "formula": "1d100",
  "replacement": true,
  "displayRoll": true,
  "_id": "tZRMfjJerg5a9O5N"
}
