{
  "name": "Greater Medium Rods",
  "permission": {
    "default": 0
  },
  "flags": {},
  "description": "",
  "results": [
    {
      "_id": "Xy5HO0rb8Jt4wfep",
      "flags": {},
      "type": 0,
      "text": "Conduit Rod",
      "img": "icons/svg/d20-black.svg",
      "resultId": "",
      "weight": 3,
      "range": [1, 3],
      "drawn": false
    },
    {
      "_id": "qoWcNKBLax2116BH",
      "flags": {},
      "type": 0,
      "text": "Grounding Rod",
      "img": "icons/svg/d20-black.svg",
      "resultId": "",
      "weight": 3,
      "range": [4, 6],
      "drawn": false
    },
    {
      "_id": "7xgLLzoSKz5WlMFV",
      "flags": {},
      "type": 0,
      "text": "Rod of the Wayang",
      "img": "icons/svg/d20-black.svg",
      "resultId": "",
      "weight": 4,
      "range": [7, 10],
      "drawn": false
    },
    {
      "_id": "MS10wcc3h5Xth5k5",
      "flags": {},
      "type": 0,
      "text": "Rod of Wonder",
      "img": "icons/svg/d20-black.svg",
      "resultId": "",
      "weight": 8,
      "range": [11, 18],
      "drawn": false
    },
    {
      "_id": "NvmeJAG3stnbP7Q2",
      "flags": {},
      "type": 0,
      "text": "Rod of Greater Merciful Metamagic",
      "img": "icons/svg/d20-black.svg",
      "resultId": "",
      "weight": 1,
      "range": [19, 19],
      "drawn": false
    },
    {
      "_id": "1i7nFiM9vTzU3gHk",
      "flags": {},
      "type": 0,
      "text": "Rod of the Python",
      "img": "icons/svg/d20-black.svg",
      "resultId": "",
      "weight": 10,
      "range": [20, 29],
      "drawn": false
    },
    {
      "_id": "FSOPETflaailhejh",
      "flags": {},
      "type": 0,
      "text": "Trap-Stealer’S Rod",
      "img": "icons/svg/d20-black.svg",
      "resultId": "",
      "weight": 4,
      "range": [30, 33],
      "drawn": false
    },
    {
      "_id": "IqkgbcZLRs4wS1g5",
      "flags": {},
      "type": 0,
      "text": "Rod of Lesser Dazing Metamagic",
      "img": "icons/svg/d20-black.svg",
      "resultId": "",
      "weight": 22,
      "range": [34, 55],
      "drawn": false
    },
    {
      "_id": "A77u8nJZD63JqWJ6",
      "flags": {},
      "type": 0,
      "text": "Rod of Balance",
      "img": "icons/svg/d20-black.svg",
      "resultId": "",
      "weight": 4,
      "range": [56, 59],
      "drawn": false
    },
    {
      "_id": "xBTZsRxOQVn6uHm8",
      "flags": {},
      "type": 0,
      "text": "Rod of Escape",
      "img": "icons/svg/d20-black.svg",
      "resultId": "",
      "weight": 4,
      "range": [60, 63],
      "drawn": false
    },
    {
      "_id": "rUK0fWE93z6yfQ6T",
      "flags": {},
      "type": 0,
      "text": "Rod of Flame Extinguishing",
      "img": "icons/svg/d20-black.svg",
      "resultId": "",
      "weight": 9,
      "range": [64, 72],
      "drawn": false
    },
    {
      "_id": "4FSigOTBtRyAzaXj",
      "flags": {},
      "type": 0,
      "text": "Rod of Ruin",
      "img": "icons/svg/d20-black.svg",
      "resultId": "",
      "weight": 4,
      "range": [73, 76],
      "drawn": false
    },
    {
      "_id": "irv2dOg21jJl7Q1k",
      "flags": {},
      "type": 0,
      "text": "Sapling Rod",
      "img": "icons/svg/d20-black.svg",
      "resultId": "",
      "weight": 4,
      "range": [77, 80],
      "drawn": false
    },
    {
      "_id": "acYSldDCu6V00VXT",
      "flags": {},
      "type": 0,
      "text": "Rod of Beguiling",
      "img": "icons/svg/d20-black.svg",
      "resultId": "",
      "weight": 6,
      "range": [81, 86],
      "drawn": false
    },
    {
      "_id": "ekzKzwUmu4mSoaeG",
      "flags": {},
      "type": 0,
      "text": "Rod of Nettles",
      "img": "icons/svg/d20-black.svg",
      "resultId": "",
      "weight": 4,
      "range": [87, 90],
      "drawn": false
    },
    {
      "_id": "RmEodLIv25HEDdiF",
      "flags": {},
      "type": 0,
      "text": "Rod of the Viper",
      "img": "icons/svg/d20-black.svg",
      "resultId": "",
      "weight": 10,
      "range": [91, 100],
      "drawn": false
    }
  ],
  "formula": "1d100",
  "replacement": true,
  "displayRoll": true,
  "_id": "zJ3iW30IzIVL55TJ"
}
