{
  "name": "Greater Medium Shoulders",
  "permission": {
    "default": 0
  },
  "flags": {},
  "description": "",
  "results": [
    {
      "_id": "vTT4YE0ilv9ok73r",
      "flags": {},
      "type": 0,
      "text": "\tStole of Justice",
      "weight": 12,
      "range": [1, 12],
      "drawn": false
    },
    {
      "_id": "pXX26eyUWOC7BfiI",
      "flags": {},
      "type": 0,
      "text": "\tJellyfish Cape",
      "weight": 12,
      "range": [13, 24],
      "drawn": false
    },
    {
      "_id": "QsBG64AojkfTe1Yp",
      "flags": {},
      "type": 0,
      "text": "\tCloak of the Diplomat",
      "weight": 8,
      "range": [25, 32],
      "drawn": false
    },
    {
      "_id": "vnkrcovrsPQ4XIBl",
      "flags": {},
      "type": 0,
      "text": "\tSlashing Cloak",
      "weight": 12,
      "range": [33, 44],
      "drawn": false
    },
    {
      "_id": "XAmuDrryIDoPUpTJ",
      "flags": {},
      "type": 0,
      "text": "\tStone Cloak, Major",
      "weight": 12,
      "range": [45, 56],
      "drawn": false
    },
    {
      "_id": "VNqHate9YKvSvhQu",
      "flags": {},
      "type": 0,
      "text": "\tCloak of Displacement, Minor",
      "weight": 12,
      "range": [57, 68],
      "drawn": false
    },
    {
      "_id": "EHvJ6HYR4Fu8bS9y",
      "flags": {},
      "type": 0,
      "text": "\tCloak of Resistance +5",
      "weight": 20,
      "range": [69, 88],
      "drawn": false
    },
    {
      "_id": "4CDQlc81MvhDPmWc",
      "flags": {},
      "type": 0,
      "text": "\tCloak of the Bat",
      "weight": 12,
      "range": [89, 100],
      "drawn": false
    }
  ],
  "formula": "1d100",
  "replacement": true,
  "displayRoll": true,
  "_id": "SR7qzLBqsXrygABO"
}
