{
  "name": "Greater Major Neck",
  "permission": {
    "default": 0
  },
  "flags": {},
  "description": "",
  "results": [
    {
      "_id": "PNbS5yWJlgvUzTNe",
      "flags": {},
      "type": 0,
      "text": "\tAmulet of Natural Armor +5",
      "weight": 35,
      "range": [1, 35],
      "drawn": false
    },
    {
      "_id": "t00isUvFxRobO6zU",
      "flags": {},
      "type": 0,
      "text": "\tAmulet of Mighty Fists +4",
      "weight": 25,
      "range": [36, 60],
      "drawn": false
    },
    {
      "_id": "5aCpD3vC1v1r0UsT",
      "flags": {},
      "type": 0,
      "text": "\tAmulet of the Planes",
      "weight": 25,
      "range": [61, 85],
      "drawn": false
    },
    {
      "_id": "4EwuZ2NMLNhdlLeu",
      "flags": {},
      "type": 0,
      "text": "\tAmulet of Mighty Fists +5",
      "weight": 15,
      "range": [86, 100],
      "drawn": false
    }
  ],
  "formula": "1d100",
  "replacement": true,
  "displayRoll": true,
  "_id": "QyBbQw2NCn4qfaf9"
}
