{
  "name": "Greater Minor Neck",
  "permission": {
    "default": 0
  },
  "flags": {},
  "description": "",
  "results": [
    {
      "_id": "aVACnvZOB5hnF94y",
      "flags": {},
      "type": 0,
      "text": "\tAmulet of Elemental Strife",
      "weight": 8,
      "range": [1, 8],
      "drawn": false
    },
    {
      "_id": "orx8Ys9w91yfxpe8",
      "flags": {},
      "type": 0,
      "text": "\tRighteous Fist Amulet",
      "weight": 7,
      "range": [9, 15],
      "drawn": false
    },
    {
      "_id": "TKo3hzqMVcorYlB1",
      "flags": {},
      "type": 0,
      "text": "\tNecklace of Fireballs (Type III)",
      "weight": 11,
      "range": [16, 26],
      "drawn": false
    },
    {
      "_id": "IFwbxn5Gxuxud7cY",
      "flags": {},
      "type": 0,
      "text": "\tAmulet of Mighty Fists +1",
      "weight": 10,
      "range": [27, 36],
      "drawn": false
    },
    {
      "_id": "eTwgmVxWqmGIX766",
      "flags": {},
      "type": 0,
      "text": "\tNecklace of Fireballs (Type IV)",
      "weight": 11,
      "range": [37, 47],
      "drawn": false
    },
    {
      "_id": "ghAGgms0z6EV0X3w",
      "flags": {},
      "type": 0,
      "text": "\tStormlure",
      "weight": 8,
      "range": [48, 55],
      "drawn": false
    },
    {
      "_id": "lVu3lVWab4UClYaD",
      "flags": {},
      "type": 0,
      "text": "\tNecklace of Fireballs (Type V)",
      "weight": 11,
      "range": [56, 66],
      "drawn": false
    },
    {
      "_id": "Ok7RbTXbLitbqYrA",
      "flags": {},
      "type": 0,
      "text": "\tAmulet of Bullet Protection +2",
      "weight": 7,
      "range": [67, 73],
      "drawn": false
    },
    {
      "_id": "bezp8WRbG1j2awCA",
      "flags": {},
      "type": 0,
      "text": "\tFeychild Necklace",
      "weight": 8,
      "range": [74, 81],
      "drawn": false
    },
    {
      "_id": "OhsMrEqqeaLTFu0M",
      "flags": {},
      "type": 0,
      "text": "\tCarcanet of Detention",
      "weight": 8,
      "range": [82, 89],
      "drawn": false
    },
    {
      "_id": "NTF1UTg6RszwdSK7",
      "flags": {},
      "type": 0,
      "text": "\tPeriapt of Health",
      "weight": 11,
      "range": [90, 100],
      "drawn": false
    }
  ],
  "formula": "1d100",
  "replacement": true,
  "displayRoll": true,
  "_id": "77LDcpaHBugRAt0r"
}
