{
  "name": "Greater Minor Belt",
  "permission": {
    "default": 0
  },
  "flags": {},
  "description": "",
  "results": [
    {
      "_id": "vvGQnSl3l6iMCAxl",
      "flags": {},
      "type": 0,
      "text": "Belt of Giant Strength +2",
      "weight": 18,
      "range": [1, 18],
      "drawn": false
    },
    {
      "_id": "XCkKmzl8R59m95ol",
      "flags": {},
      "type": 0,
      "text": "Belt of Incredible Dexterity +2",
      "weight": 18,
      "range": [19, 36],
      "drawn": false
    },
    {
      "_id": "hZnZ7rFDbEgJKV7t",
      "flags": {},
      "type": 0,
      "text": "Belt of Mighty Constitution +2",
      "weight": 18,
      "range": [37, 54],
      "drawn": false
    },
    {
      "_id": "BQglMvnXWqU9J2AC",
      "flags": {},
      "type": 0,
      "text": "\tBelt of Teeth",
      "weight": 8,
      "range": [55, 62],
      "drawn": false
    },
    {
      "_id": "Q3zpM8ZQXvdDp8Fm",
      "flags": {},
      "type": 0,
      "text": "Blinkback Belt",
      "weight": 12,
      "range": [63, 74],
      "drawn": false
    },
    {
      "_id": "nZAQ2Kn5bVgrsNmF",
      "flags": {},
      "type": 0,
      "text": "Plague Rat Belt",
      "weight": 10,
      "range": [75, 84],
      "drawn": false
    },
    {
      "_id": "jakhCORKWDezOw3S",
      "flags": {},
      "type": 0,
      "text": "Belt of Foraging",
      "weight": 16,
      "range": [85, 100],
      "drawn": false
    }
  ],
  "formula": "1d100",
  "replacement": true,
  "displayRoll": true,
  "_id": "WlZVGmbjLZltKLVO"
}
