{
  "name": "Greater Medium Specific Armours",
  "permission": {
    "default": 0
  },
  "flags": {},
  "description": "",
  "results": [
    {
      "_id": "LjZREKjSmxbNAGDb",
      "flags": {},
      "type": 0,
      "text": "Adamantine Breastplate",
      "weight": 15,
      "range": [1, 15],
      "drawn": false
    },
    {
      "_id": "pMMWBtr9oGggHfVj",
      "flags": {},
      "type": 0,
      "text": "Soothsayer's Raiment",
      "weight": 10,
      "range": [16, 25],
      "drawn": false
    },
    {
      "_id": "8R2RgBqFaBP3vIvG",
      "flags": {},
      "type": 0,
      "text": "Equestrian Plate",
      "weight": 13,
      "range": [26, 38],
      "drawn": false
    },
    {
      "_id": "iKLBhbcOhFFXW7Sg",
      "flags": {},
      "type": 0,
      "text": "Enchanted Eelskin",
      "weight": 12,
      "range": [39, 50],
      "drawn": false
    },
    {
      "_id": "NG0iAcYMspODCjld",
      "flags": {},
      "type": 0,
      "text": "Boneless Leather",
      "weight": 12,
      "range": [51, 62],
      "drawn": false
    },
    {
      "_id": "tU30kDNcwFPJTMis",
      "flags": {},
      "type": 0,
      "text": "Murderer’s Blackcloth",
      "weight": 10,
      "range": [63, 72],
      "drawn": false
    },
    {
      "_id": "APeQUnCvGvtMyMqK",
      "flags": {},
      "type": 0,
      "text": "Folding Plate",
      "weight": 14,
      "range": [73, 86],
      "drawn": false
    },
    {
      "_id": "kNfFsdv0mJO8i6mo",
      "flags": {},
      "type": 0,
      "text": "Breastplate of Vanishing",
      "weight": 14,
      "range": [87, 100],
      "drawn": false
    }
  ],
  "formula": "1d100",
  "replacement": true,
  "displayRoll": true,
  "_id": "E7lid1lSYmiX8SMR"
}
