{
  "name": "Greater Minor Wrists",
  "permission": {
    "default": 0
  },
  "flags": {},
  "description": "",
  "results": [
    {
      "_id": "sNV4Pvb3ZdmLlPUk",
      "flags": {},
      "type": 0,
      "text": "\tBracers of Armor +2",
      "weight": 27,
      "range": [1, 27],
      "drawn": false
    },
    {
      "_id": "C134FqFfXNFi5Nel",
      "flags": {},
      "type": 0,
      "text": "Bracers of Falcon's Aim",
      "weight": 1,
      "range": [28, 28],
      "drawn": false
    },
    {
      "_id": "zkdafCTGBexPACh0",
      "flags": {},
      "type": 0,
      "text": "\tInquisitor's Bastion Vambraces",
      "weight": 10,
      "range": [29, 38],
      "drawn": false
    },
    {
      "_id": "2aO4djwFRXumP8Z7",
      "flags": {},
      "type": 0,
      "text": "\tBracers of Archery, Lesser",
      "weight": 27,
      "range": [39, 65],
      "drawn": false
    },
    {
      "_id": "RCIckO1r63IqKvNc",
      "flags": {},
      "type": 0,
      "text": "\tSpellguard Bracers",
      "weight": 3,
      "range": [66, 68],
      "drawn": false
    },
    {
      "_id": "0MYbrkULLToUNMXB",
      "flags": {},
      "type": 0,
      "text": "\tBonebreaker Gauntlets",
      "weight": 3,
      "range": [69, 71],
      "drawn": false
    },
    {
      "_id": "F0yQ5elRAmV0gbeX",
      "flags": {},
      "type": 0,
      "text": "\tVambraces of Defense",
      "weight": 10,
      "range": [72, 81],
      "drawn": false
    },
    {
      "_id": "EABKsWsqCyqtqiX3",
      "flags": {},
      "type": 0,
      "text": "\tVerdant Vine",
      "weight": 17,
      "range": [82, 98],
      "drawn": false
    },
    {
      "_id": "Gwus3yyTF0AYxOAL",
      "flags": {},
      "type": 0,
      "text": "Longarm Bracers",
      "weight": 1,
      "range": [99, 99],
      "drawn": false
    },
    {
      "_id": "IMqtvsJcoTNZJwPu",
      "flags": {},
      "type": 0,
      "text": "Bracers of the Glib Entertainer",
      "weight": 1,
      "range": [100, 100],
      "drawn": false
    }
  ],
  "formula": "1d100",
  "replacement": true,
  "displayRoll": true,
  "_id": "pWas4Fgsqgm01OIK"
}
