{
  "name": "Greater Major Feet",
  "permission": {
    "default": 0
  },
  "flags": {},
  "description": "",
  "results": [
    {
      "_id": "YRaqqiqLyrBLoEEk",
      "flags": {},
      "type": 0,
      "text": "\tSlippers of the Triton",
      "weight": 40,
      "range": [1, 40],
      "drawn": false
    },
    {
      "_id": "WEklJ25ENT599vZg",
      "flags": {},
      "type": 0,
      "text": "\tHorseshoes of Crushing Blows +4",
      "weight": 30,
      "range": [41, 70],
      "drawn": false
    },
    {
      "_id": "1nLVoe4BFfCjfXyu",
      "flags": {},
      "type": 0,
      "text": "\tHorseshoes of Crushing Blows +5",
      "weight": 30,
      "range": [71, 100],
      "drawn": false
    }
  ],
  "formula": "1d100",
  "replacement": true,
  "displayRoll": true,
  "_id": "RJmlEE2UIfxmUcGQ"
}
