{
  "name": "Lesser Major Neck",
  "permission": {
    "default": 0
  },
  "flags": {},
  "description": "",
  "results": [
    {
      "_id": "7JLPnWOMq3v7kZhm",
      "flags": {},
      "type": 0,
      "text": "\tAmulet of Natural Armor +4",
      "weight": 18,
      "range": [1, 18],
      "drawn": false
    },
    {
      "_id": "BTeLvD7V8Ax4Na9u",
      "flags": {},
      "type": 0,
      "text": "\tAmulet of Proof Against Detection and Location",
      "weight": 17,
      "range": [19, 35],
      "drawn": false
    },
    {
      "_id": "WEHTVVN85DK8ZQ9V",
      "flags": {},
      "type": 0,
      "text": "\tAmulet of Bullet Protection +5",
      "weight": 14,
      "range": [36, 49],
      "drawn": false
    },
    {
      "_id": "c8Ks0SeGBQpnNynb",
      "flags": {},
      "type": 0,
      "text": "\tScarab of Protection",
      "weight": 18,
      "range": [50, 67],
      "drawn": false
    },
    {
      "_id": "KxoZ8IcGQZqKPOrH",
      "flags": {},
      "type": 0,
      "text": "\tNecklace of Netted Stars",
      "weight": 15,
      "range": [68, 82],
      "drawn": false
    },
    {
      "_id": "FPMsfoFeWNncWlgE",
      "flags": {},
      "type": 0,
      "text": "\tAmulet of Mighty Fists +3",
      "weight": 18,
      "range": [83, 100],
      "drawn": false
    }
  ],
  "formula": "1d100",
  "replacement": true,
  "displayRoll": true,
  "_id": "gNu1huVcHqEfaOsj"
}
