{
  "name": "Lesser Medium Eye",
  "permission": {
    "default": 0
  },
  "flags": {},
  "description": "",
  "results": [
    {
      "_id": "y5PD7kb7tySYbLHN",
      "flags": {},
      "type": 0,
      "text": "\tGoggles of Elvenkind",
      "weight": 16,
      "range": [1, 16],
      "drawn": false
    },
    {
      "_id": "pOI4jHIq54rux99F",
      "flags": {},
      "type": 0,
      "text": "Goggles of Brilliant Light",
      "weight": 15,
      "range": [17, 31],
      "drawn": false
    },
    {
      "_id": "ZTGFJ0UrYiDBY9zT",
      "flags": {},
      "type": 0,
      "text": "Blind Man's Fold",
      "weight": 17,
      "range": [32, 48],
      "drawn": false
    },
    {
      "_id": "yW7z5eZrSFLCiLCU",
      "flags": {},
      "type": 0,
      "text": "Goggles of Night",
      "weight": 19,
      "range": [49, 67],
      "drawn": false
    },
    {
      "_id": "5Bab39lQxJAqjvCa",
      "flags": {},
      "type": 0,
      "text": "Lenses of Figment Piercing",
      "weight": 15,
      "range": [68, 82],
      "drawn": false
    },
    {
      "_id": "tRW6qvdvIApIqgIY",
      "flags": {},
      "type": 0,
      "text": "Arachnid Goggles",
      "weight": 18,
      "range": [83, 100],
      "drawn": false
    }
  ],
  "formula": "1d100",
  "replacement": true,
  "displayRoll": true,
  "_id": "nhnZInqU3SoiKGOp"
}
