{
  "name": "Lesser Major Wrists",
  "permission": {
    "default": 0
  },
  "flags": {},
  "description": "",
  "results": [
    {
      "_id": "elUneSHxGZDqleGt",
      "flags": {},
      "type": 0,
      "text": "\tDimensional Shackles",
      "weight": 30,
      "range": [1, 30],
      "drawn": false
    },
    {
      "_id": "NCM5xKN2xYeN6Fqf",
      "flags": {},
      "type": 0,
      "text": "\tGauntlets of Skill At Arms",
      "weight": 15,
      "range": [31, 45],
      "drawn": false
    },
    {
      "_id": "kffaWZND5GhDZ5IA",
      "flags": {},
      "type": 0,
      "text": "\tBracers of Armor +6",
      "weight": 55,
      "range": [46, 100],
      "drawn": false
    }
  ],
  "formula": "1d100",
  "replacement": true,
  "displayRoll": true,
  "_id": "v5dyjmWDFjr71B0s"
}
