{
  "name": "Lesser Minor Specific Armours",
  "permission": {
    "default": 0
  },
  "flags": {},
  "description": "",
  "results": [
    {
      "_id": "TQp5OecQHGOf7k9q",
      "flags": {},
      "type": 0,
      "text": "Mithral Shirt",
      "weight": 50,
      "range": [1, 50],
      "drawn": false
    },
    {
      "_id": "K5YarZ6HZV8Pt9jS",
      "flags": {},
      "type": 0,
      "text": "Masterwork Splint Mail",
      "weight": 50,
      "range": [51, 100],
      "drawn": false
    }
  ],
  "formula": "1d100",
  "replacement": true,
  "displayRoll": true,
  "_id": "IqxfKrOM2LT3gtby"
}
