{
  "name": "Lesser Minor Head",
  "permission": {
    "default": 0
  },
  "flags": {},
  "description": "",
  "results": [
    {
      "_id": "08ikRcMhvDNKMd3q",
      "flags": {},
      "type": 0,
      "text": "\tMask of Stony Demeanor",
      "weight": 10,
      "range": [1, 10],
      "drawn": false
    },
    {
      "_id": "uysOhykbknGJgGn8",
      "flags": {},
      "type": 0,
      "text": "\tCap of Human Guise",
      "weight": 12,
      "range": [11, 22],
      "drawn": false
    },
    {
      "_id": "5Vol9iRbYGco9qLa",
      "flags": {},
      "type": 0,
      "text": "\tCap of Light",
      "weight": 14,
      "range": [23, 36],
      "drawn": false
    },
    {
      "_id": "R57M1YUJw2V336C6",
      "flags": {},
      "type": 0,
      "text": "\tHat of Disguise",
      "weight": 20,
      "range": [37, 56],
      "drawn": false
    },
    {
      "_id": "yh0K95kp8MztkbSd",
      "flags": {},
      "type": 0,
      "text": "\tBuffering Cap",
      "weight": 15,
      "range": [57, 71],
      "drawn": false
    },
    {
      "_id": "BbeVbJ5TZeBlU4Lx",
      "flags": {},
      "type": 0,
      "text": "\tMiser's Mask",
      "weight": 14,
      "range": [72, 85],
      "drawn": false
    },
    {
      "_id": "HxtysMaWghmoSOqW",
      "flags": {},
      "type": 0,
      "text": "\tStalker's Mask",
      "weight": 15,
      "range": [86, 100],
      "drawn": false
    }
  ],
  "formula": "1d100",
  "replacement": true,
  "displayRoll": true,
  "_id": "LvKuz05kWDHLR58s"
}
