{
  "name": "Lesser Medium Head",
  "permission": {
    "default": 0
  },
  "flags": {},
  "description": "",
  "results": [
    {
      "_id": "jQkarL8JyArSXEqo",
      "flags": {},
      "type": 0,
      "text": "\tHelm of the Mammoth Lord",
      "weight": 16,
      "range": [1, 16],
      "drawn": false
    },
    {
      "_id": "NIwKQroyWHcIZUf4",
      "flags": {},
      "type": 0,
      "text": "\tVeil of Fleeting Glances",
      "weight": 14,
      "range": [17, 30],
      "drawn": false
    },
    {
      "_id": "UfuQxAqo9EorRYWu",
      "flags": {},
      "type": 0,
      "text": "\tMask of a Thousand Tomes",
      "weight": 16,
      "range": [31, 46],
      "drawn": false
    },
    {
      "_id": "StuY5Ni2IsiwRtTC",
      "flags": {},
      "type": 0,
      "text": "\tMedusa Mask",
      "weight": 17,
      "range": [47, 63],
      "drawn": false
    },
    {
      "_id": "TorDueo6qSLt0AaN",
      "flags": {},
      "type": 0,
      "text": "\tCap of the Free Thinker",
      "weight": 17,
      "range": [64, 80],
      "drawn": false
    },
    {
      "_id": "V2GFElCfct6vGqgW",
      "flags": {},
      "type": 0,
      "text": "\tHalo of Inner Calm",
      "weight": 20,
      "range": [81, 100],
      "drawn": false
    }
  ],
  "formula": "1d100",
  "replacement": true,
  "displayRoll": true,
  "_id": "ipxIniLVjR6V3baD"
}
