{
  "name": "Uncommon Level 5 Divine Scrolls",
  "permission": {
    "default": 0
  },
  "flags": {},
  "description": "",
  "results": [
    {
      "_id": "EAVHo7kHUWuDRQAt",
      "flags": {},
      "type": 0,
      "text": "Scroll of Air Walk, Communal",
      "img": "icons/svg/d20-black.svg",
      "resultId": "",
      "weight": 3,
      "range": [1, 3],
      "drawn": false
    },
    {
      "_id": "7gMP0qBAMWsLTrPH",
      "flags": {},
      "type": 0,
      "text": "Scroll of Aspect of the Wolf",
      "img": "icons/svg/d20-black.svg",
      "resultId": "",
      "weight": 5,
      "range": [4, 8],
      "drawn": false
    },
    {
      "_id": "4i4YqT0GVCWCTrp9",
      "flags": {},
      "type": 0,
      "text": "Scroll of Blessing of the Salamander",
      "img": "icons/svg/d20-black.svg",
      "resultId": "",
      "weight": 3,
      "range": [9, 11],
      "drawn": false
    },
    {
      "_id": "yat6T40TcUWnbtwU",
      "flags": {},
      "type": 0,
      "text": "Scroll of Cleanse",
      "img": "icons/svg/d20-black.svg",
      "resultId": "",
      "weight": 4,
      "range": [12, 15],
      "drawn": false
    },
    {
      "_id": "GUHtPmyBVgngkvSM",
      "flags": {},
      "type": 0,
      "text": "Scroll of Commune With Nature",
      "img": "icons/svg/d20-black.svg",
      "resultId": "",
      "weight": 6,
      "range": [16, 21],
      "drawn": false
    },
    {
      "_id": "u2Gf0HSxmXBlkZp6",
      "flags": {},
      "type": 0,
      "text": "Scroll of Contagion, Greater",
      "img": "icons/svg/d20-black.svg",
      "resultId": "",
      "weight": 3,
      "range": [22, 24],
      "drawn": false
    },
    {
      "_id": "ixCwKQboW2Hkshlx",
      "flags": {},
      "type": 0,
      "text": "Scroll of Control Winds",
      "img": "icons/svg/d20-black.svg",
      "resultId": "",
      "weight": 4,
      "range": [25, 28],
      "drawn": false
    },
    {
      "_id": "e1VLm0ifJhsKI17s",
      "flags": {},
      "type": 0,
      "text": "Scroll of Dispel Chaos",
      "img": "icons/svg/d20-black.svg",
      "resultId": "",
      "weight": 3,
      "range": [29, 31],
      "drawn": false
    },
    {
      "_id": "4874yVBp4LOmX6cE",
      "flags": {},
      "type": 0,
      "text": "Scroll of Dispel Evil",
      "img": "icons/svg/d20-black.svg",
      "resultId": "",
      "weight": 3,
      "range": [32, 34],
      "drawn": false
    },
    {
      "_id": "44OIApYp9VablCBf",
      "flags": {},
      "type": 0,
      "text": "Scroll of Dispel Good",
      "img": "icons/svg/d20-black.svg",
      "resultId": "",
      "weight": 3,
      "range": [35, 37],
      "drawn": false
    },
    {
      "_id": "I4OdN3aI7OfYfSuD",
      "flags": {},
      "type": 0,
      "text": "Scroll of Dispel Law",
      "img": "icons/svg/d20-black.svg",
      "resultId": "",
      "weight": 3,
      "range": [38, 40],
      "drawn": false
    },
    {
      "_id": "BYkSVGhWqFq2NtV5",
      "flags": {},
      "type": 0,
      "text": "Scroll of Fickle Winds",
      "img": "icons/svg/d20-black.svg",
      "resultId": "",
      "weight": 3,
      "range": [41, 43],
      "drawn": false
    },
    {
      "_id": "uw0bqGqELDSl37KQ",
      "flags": {},
      "type": 0,
      "text": "Scroll of Forbid Action, Greater",
      "img": "icons/svg/d20-black.svg",
      "resultId": "",
      "weight": 3,
      "range": [44, 46],
      "drawn": false
    },
    {
      "_id": "e5OyCcKyzErActK5",
      "flags": {},
      "type": 0,
      "text": "Scroll of Insect Plague",
      "img": "icons/svg/d20-black.svg",
      "resultId": "",
      "weight": 6,
      "range": [47, 52],
      "drawn": false
    },
    {
      "_id": "pkD42Ro2Nx0wcrxz",
      "flags": {},
      "type": 0,
      "text": "Scroll of Life Bubble",
      "img": "icons/svg/d20-black.svg",
      "resultId": "",
      "weight": 3,
      "range": [53, 55],
      "drawn": false
    },
    {
      "_id": "c9emxyXbJsRL2ISZ",
      "flags": {},
      "type": 0,
      "text": "Scroll of Mark of Justice",
      "img": "icons/svg/d20-black.svg",
      "resultId": "",
      "weight": 3,
      "range": [56, 58],
      "drawn": false
    },
    {
      "_id": "xiTXbbGHYO209yJk",
      "flags": {},
      "type": 0,
      "text": "Scroll of Pillar of Life",
      "img": "icons/svg/d20-black.svg",
      "resultId": "",
      "weight": 5,
      "range": [59, 63],
      "drawn": false
    },
    {
      "_id": "U81XwQa0XefMd9N1",
      "flags": {},
      "type": 0,
      "text": "Scroll of Serenity",
      "img": "icons/svg/d20-black.svg",
      "resultId": "",
      "weight": 3,
      "range": [64, 66],
      "drawn": false
    },
    {
      "_id": "e1Lb8XKPsl6KuKUM",
      "flags": {},
      "type": 0,
      "text": "Scroll of Snake Staff",
      "img": "icons/svg/d20-black.svg",
      "resultId": "",
      "weight": 6,
      "range": [67, 72],
      "drawn": false
    },
    {
      "_id": "rNRc24Z8zgL7NhdQ",
      "flags": {},
      "type": 0,
      "text": "Scroll of Spell Immunity, Communal",
      "img": "icons/svg/d20-black.svg",
      "resultId": "",
      "weight": 4,
      "range": [73, 76],
      "drawn": false
    },
    {
      "_id": "59iWwXZkThCuCqwJ",
      "flags": {},
      "type": 0,
      "text": "Scroll of Transmute Mud To Rock",
      "img": "icons/svg/d20-black.svg",
      "resultId": "",
      "weight": 3,
      "range": [77, 79],
      "drawn": false
    },
    {
      "_id": "xL8sInEgbfFlplt1",
      "flags": {},
      "type": 0,
      "text": "Scroll of Transmute Rock To Mud",
      "img": "icons/svg/d20-black.svg",
      "resultId": "",
      "weight": 3,
      "range": [80, 82],
      "drawn": false
    },
    {
      "_id": "ZE3BpuMZBAqLloFv",
      "flags": {},
      "type": 0,
      "text": "Scroll of Wind Blades",
      "img": "icons/svg/d20-black.svg",
      "resultId": "",
      "weight": 4,
      "range": [83, 86],
      "drawn": false
    },
    {
      "_id": "uaHzPANQb58zUj7X",
      "flags": {},
      "type": 0,
      "text": "Scroll of Stoneskin",
      "img": "icons/svg/d20-black.svg",
      "resultId": "",
      "weight": 4,
      "range": [87, 90],
      "drawn": false
    },
    {
      "_id": "csKfSqpl05dAYbXT",
      "flags": {},
      "type": 0,
      "text": "Scroll of Hallow",
      "img": "icons/svg/d20-black.svg",
      "resultId": "",
      "weight": 2,
      "range": [91, 92],
      "drawn": false
    },
    {
      "_id": "8lbIWqCzJsaCss86",
      "flags": {},
      "type": 0,
      "text": "Scroll of Symbol of Pain",
      "img": "icons/svg/d20-black.svg",
      "resultId": "",
      "weight": 2,
      "range": [93, 94],
      "drawn": false
    },
    {
      "_id": "LrAA1jB60RL2fKGg",
      "flags": {},
      "type": 0,
      "text": "Scroll of Symbol of Sleep",
      "img": "icons/svg/d20-black.svg",
      "resultId": "",
      "weight": 2,
      "range": [95, 96],
      "drawn": false
    },
    {
      "_id": "1kL1K4rkYiyJ6HnJ",
      "flags": {},
      "type": 0,
      "text": "Scroll of Unhallow",
      "img": "icons/svg/d20-black.svg",
      "resultId": "",
      "weight": 2,
      "range": [97, 98],
      "drawn": false
    }
  ],
  "formula": "1d98",
  "replacement": true,
  "displayRoll": true,
  "_id": "jqzvXvKFZd5NxAH0"
}
