{
  "name": "Uncommon Level 0 Wands",
  "permission": {
    "default": 0
  },
  "flags": {},
  "description": "",
  "results": [
    {
      "_id": "AvYoR7vQ8EHs8pO0",
      "flags": {},
      "type": 0,
      "text": "Wand of Arcane Mark",
      "img": "icons/svg/d20-black.svg",
      "resultId": "",
      "weight": 6,
      "range": [102, 107],
      "drawn": false
    },
    {
      "_id": "43rKxdmDDz8gYqPt",
      "flags": {},
      "type": 0,
      "text": "Wand of Bleed",
      "img": "icons/svg/d20-black.svg",
      "resultId": "",
      "weight": 9,
      "range": [108, 116],
      "drawn": false
    },
    {
      "_id": "YTdiObwMOGRe3pUU",
      "flags": {},
      "type": 0,
      "text": "Wand of Dancing Lights",
      "img": "icons/svg/d20-black.svg",
      "resultId": "",
      "weight": 7,
      "range": [117, 123],
      "drawn": false
    },
    {
      "_id": "DDoKMgTD2WezrE5U",
      "flags": {},
      "type": 0,
      "text": "Wand of Detect Poison",
      "img": "icons/svg/d20-black.svg",
      "resultId": "",
      "weight": 9,
      "range": [124, 132],
      "drawn": false
    },
    {
      "_id": "0z2eLHiblBZxdUyT",
      "flags": {},
      "type": 0,
      "text": "Wand of Disrupt Undead",
      "img": "icons/svg/d20-black.svg",
      "resultId": "",
      "weight": 9,
      "range": [133, 141],
      "drawn": false
    },
    {
      "_id": "G6RIwpkiVBFv6cM0",
      "flags": {},
      "type": 0,
      "text": "Wand of Flare",
      "img": "icons/svg/d20-black.svg",
      "resultId": "",
      "weight": 8,
      "range": [142, 149],
      "drawn": false
    },
    {
      "_id": "B6LgetmmV5AetP4z",
      "flags": {},
      "type": 0,
      "text": "Wand of Guidance",
      "img": "icons/svg/d20-black.svg",
      "resultId": "",
      "weight": 8,
      "range": [150, 157],
      "drawn": false
    },
    {
      "_id": "jDk2BbJf1fnAFH1j",
      "flags": {},
      "type": 0,
      "text": "Wand of Know Direction",
      "img": "icons/svg/d20-black.svg",
      "resultId": "",
      "weight": 9,
      "range": [158, 166],
      "drawn": false
    },
    {
      "_id": "1sF9iSqy0qTiHRRe",
      "flags": {},
      "type": 0,
      "text": "Wand of Lullaby",
      "img": "icons/svg/d20-black.svg",
      "resultId": "",
      "weight": 8,
      "range": [167, 174],
      "drawn": false
    },
    {
      "_id": "jsGRYsw4PgfHKm6u",
      "flags": {},
      "type": 0,
      "text": "Wand of Open/Close",
      "img": "icons/svg/d20-black.svg",
      "resultId": "",
      "weight": 6,
      "range": [175, 180],
      "drawn": false
    },
    {
      "_id": "FTmgJTLMaV5jmgXC",
      "flags": {},
      "type": 0,
      "text": "Wand of Resistance",
      "img": "icons/svg/d20-black.svg",
      "resultId": "",
      "weight": 7,
      "range": [181, 187],
      "drawn": false
    },
    {
      "_id": "nVKSd19dZLXSqbQ2",
      "flags": {},
      "type": 0,
      "text": "Wand of Spark",
      "img": "icons/svg/d20-black.svg",
      "resultId": "",
      "weight": 8,
      "range": [188, 195],
      "drawn": false
    },
    {
      "_id": "1XrHnokbJuwkvw5H",
      "flags": {},
      "type": 0,
      "text": "Wand of Virtue",
      "img": "icons/svg/d20-black.svg",
      "resultId": "",
      "weight": 6,
      "range": [196, 201],
      "drawn": false
    }
  ],
  "formula": "1d201",
  "replacement": true,
  "displayRoll": true,
  "_id": "VKYvNo9t1wQ3pCEk"
}
