{
  "name": "Uncommon Level 4 Divine Scrolls",
  "permission": {
    "default": 0
  },
  "flags": {},
  "description": "",
  "results": [
    {
      "_id": "z1vPIUitafKa9fqj",
      "flags": {},
      "type": 0,
      "text": "Scroll of Absorb Toxicity",
      "img": "icons/svg/d20-black.svg",
      "resultId": "",
      "weight": 4,
      "range": [1, 4],
      "drawn": false
    },
    {
      "_id": "bteBw5wt9dug80MX",
      "flags": {},
      "type": 0,
      "text": "Scroll of Antiplant Shell",
      "img": "icons/svg/d20-black.svg",
      "resultId": "",
      "weight": 2,
      "range": [5, 6],
      "drawn": false
    },
    {
      "_id": "BSBumS0z0YYOYMrA",
      "flags": {},
      "type": 0,
      "text": "Scroll of Aspect of the Stag",
      "img": "icons/svg/d20-black.svg",
      "resultId": "",
      "weight": 5,
      "range": [7, 11],
      "drawn": false
    },
    {
      "_id": "3gO9NL4Z4BzpkEkF",
      "flags": {},
      "type": 0,
      "text": "Scroll of Aura of Doom",
      "img": "icons/svg/d20-black.svg",
      "resultId": "",
      "weight": 4,
      "range": [12, 15],
      "drawn": false
    },
    {
      "_id": "IzwHPAj0Yg2CQOxX",
      "flags": {},
      "type": 0,
      "text": "Scroll of Ball Lightning",
      "img": "icons/svg/d20-black.svg",
      "resultId": "",
      "weight": 6,
      "range": [16, 21],
      "drawn": false
    },
    {
      "_id": "ntUyCxR3oYeM6cAD",
      "flags": {},
      "type": 0,
      "text": "Scroll of Blessing of Fervor",
      "img": "icons/svg/d20-black.svg",
      "resultId": "",
      "weight": 4,
      "range": [22, 25],
      "drawn": false
    },
    {
      "_id": "tVO7SBZFiO9ZLm5X",
      "flags": {},
      "type": 0,
      "text": "Scroll of Blight",
      "img": "icons/svg/d20-black.svg",
      "resultId": "",
      "weight": 3,
      "range": [26, 28],
      "drawn": false
    },
    {
      "_id": "9osz25cfYr5oBtEi",
      "flags": {},
      "type": 0,
      "text": "Scroll of Command Plants",
      "img": "icons/svg/d20-black.svg",
      "resultId": "",
      "weight": 3,
      "range": [29, 31],
      "drawn": false
    },
    {
      "_id": "RgyuB4GhV2x9fbMU",
      "flags": {},
      "type": 0,
      "text": "Scroll of Control Water",
      "img": "icons/svg/d20-black.svg",
      "resultId": "",
      "weight": 4,
      "range": [32, 35],
      "drawn": false
    },
    {
      "_id": "x0mymFARZxCtstNZ",
      "flags": {},
      "type": 0,
      "text": "Scroll of Debilitating Portent",
      "img": "icons/svg/d20-black.svg",
      "resultId": "",
      "weight": 4,
      "range": [36, 39],
      "drawn": false
    },
    {
      "_id": "d2U1vYPfi9LXnusP",
      "flags": {},
      "type": 0,
      "text": "Scroll of Giant Vermin",
      "img": "icons/svg/d20-black.svg",
      "resultId": "",
      "weight": 4,
      "range": [40, 43],
      "drawn": false
    },
    {
      "_id": "FaXg87mb8Whi2KZo",
      "flags": {},
      "type": 0,
      "text": "Scroll of Ice Storm",
      "img": "icons/svg/d20-black.svg",
      "resultId": "",
      "weight": 6,
      "range": [44, 49],
      "drawn": false
    },
    {
      "_id": "1RazSEA9JV2wYGDw",
      "flags": {},
      "type": 0,
      "text": "Scroll of Imbue With Spell Ability",
      "img": "icons/svg/d20-black.svg",
      "resultId": "",
      "weight": 6,
      "range": [50, 55],
      "drawn": false
    },
    {
      "_id": "zg4xb4W8NjCMG6Mw",
      "flags": {},
      "type": 0,
      "text": "Scroll of Plague Carrier",
      "img": "icons/svg/d20-black.svg",
      "resultId": "",
      "weight": 4,
      "range": [56, 59],
      "drawn": false
    },
    {
      "_id": "3jdKxaHkg5fOZmwG",
      "flags": {},
      "type": 0,
      "text": "Scroll of Planar Adaptation",
      "img": "icons/svg/d20-black.svg",
      "resultId": "",
      "weight": 4,
      "range": [60, 63],
      "drawn": false
    },
    {
      "_id": "xPyG7TvECt9xGkKP",
      "flags": {},
      "type": 0,
      "text": "Scroll of Protection From Energy, Communal",
      "img": "icons/svg/d20-black.svg",
      "resultId": "",
      "weight": 4,
      "range": [64, 67],
      "drawn": false
    },
    {
      "_id": "GSbDFyDZzsgcWDan",
      "flags": {},
      "type": 0,
      "text": "Scroll of Reincarnate",
      "img": "icons/svg/d20-black.svg",
      "resultId": "",
      "weight": 5,
      "range": [68, 72],
      "drawn": false
    },
    {
      "_id": "C7m4SIdqkpnAobEQ",
      "flags": {},
      "type": 0,
      "text": "Scroll of Repel Vermin",
      "img": "icons/svg/d20-black.svg",
      "resultId": "",
      "weight": 3,
      "range": [73, 75],
      "drawn": false
    },
    {
      "_id": "D4ABwRUpJJs77xfm",
      "flags": {},
      "type": 0,
      "text": "Scroll of Rusting Grasp",
      "img": "icons/svg/d20-black.svg",
      "resultId": "",
      "weight": 3,
      "range": [76, 78],
      "drawn": false
    },
    {
      "_id": "Z8MBSRUpGwDXB9yM",
      "flags": {},
      "type": 0,
      "text": "Scroll of Scrying",
      "img": "icons/svg/d20-black.svg",
      "resultId": "",
      "weight": 5,
      "range": [79, 83],
      "drawn": false
    },
    {
      "_id": "ewXrKAFVK0RUjs15",
      "flags": {},
      "type": 0,
      "text": "Scroll of Sending",
      "img": "icons/svg/d20-black.svg",
      "resultId": "",
      "weight": 4,
      "range": [84, 87],
      "drawn": false
    },
    {
      "_id": "aUEn1d4RFwgj1CqD",
      "flags": {},
      "type": 0,
      "text": "Scroll of Spiritual Ally",
      "img": "icons/svg/d20-black.svg",
      "resultId": "",
      "weight": 3,
      "range": [88, 90],
      "drawn": false
    },
    {
      "_id": "wjTP7IsptgfLljTQ",
      "flags": {},
      "type": 0,
      "text": "Scroll of Thorn Body",
      "img": "icons/svg/d20-black.svg",
      "resultId": "",
      "weight": 3,
      "range": [91, 93],
      "drawn": false
    },
    {
      "_id": "VCXnjmzz4JcbWZIF",
      "flags": {},
      "type": 0,
      "text": "Scroll of Volcanic Storm",
      "img": "icons/svg/d20-black.svg",
      "resultId": "",
      "weight": 5,
      "range": [94, 98],
      "drawn": false
    },
    {
      "_id": "vhrT0XXHqR5PET3M",
      "flags": {},
      "type": 0,
      "text": "Scroll of Symbol of Slowing",
      "img": "icons/svg/d20-black.svg",
      "resultId": "",
      "weight": 2,
      "range": [99, 100],
      "drawn": false
    }
  ],
  "formula": "1d100",
  "replacement": true,
  "displayRoll": true,
  "_id": "hOcoVeSKaGKtL6JQ"
}
