{
  "name": "Uncommon Level 1 Divine Scrolls",
  "permission": {
    "default": 0
  },
  "flags": {},
  "description": "",
  "results": [
    {
      "_id": "sP19GX92Lf7GyYrW",
      "flags": {},
      "type": 0,
      "text": "Scroll of Ant Haul",
      "img": "icons/svg/d20-black.svg",
      "resultId": "",
      "weight": 4,
      "range": [1, 4],
      "drawn": false
    },
    {
      "_id": "tNbTxuAlwszUpgEI",
      "flags": {},
      "type": 0,
      "text": "Scroll of Aspect of the Falcon",
      "img": "icons/svg/d20-black.svg",
      "resultId": "",
      "weight": 3,
      "range": [5, 7],
      "drawn": false
    },
    {
      "_id": "pgE1pPZiZGig758c",
      "flags": {},
      "type": 0,
      "text": "Scroll of Calm Animals",
      "img": "icons/svg/d20-black.svg",
      "resultId": "",
      "weight": 2,
      "range": [8, 9],
      "drawn": false
    },
    {
      "_id": "dfq3wwYQA9J4VENk",
      "flags": {},
      "type": 0,
      "text": "Scroll of Charm Animal",
      "img": "icons/svg/d20-black.svg",
      "resultId": "",
      "weight": 3,
      "range": [10, 12],
      "drawn": false
    },
    {
      "_id": "wNfKa0sMCfRC3SJ7",
      "flags": {},
      "type": 0,
      "text": "Scroll of Compel Hostility",
      "img": "icons/svg/d20-black.svg",
      "resultId": "",
      "weight": 3,
      "range": [13, 15],
      "drawn": false
    },
    {
      "_id": "Bq6YZpor2WHmjGim",
      "flags": {},
      "type": 0,
      "text": "Scroll of Deathwatch",
      "img": "icons/svg/d20-black.svg",
      "resultId": "",
      "weight": 2,
      "range": [16, 17],
      "drawn": false
    },
    {
      "_id": "3GFJwgnaBPA6jXXz",
      "flags": {},
      "type": 0,
      "text": "Scroll of Detect Animals Or Plants",
      "img": "icons/svg/d20-black.svg",
      "resultId": "",
      "weight": 1,
      "range": [18, 18],
      "drawn": false
    },
    {
      "_id": "ZREKzUQ8R9MtO4hA",
      "flags": {},
      "type": 0,
      "text": "Scroll of Detect Snares and Pits",
      "img": "icons/svg/d20-black.svg",
      "resultId": "",
      "weight": 2,
      "range": [19, 20],
      "drawn": false
    },
    {
      "_id": "GmDAysq9d379EU10",
      "flags": {},
      "type": 0,
      "text": "Scroll of Diagnose Disease",
      "img": "icons/svg/d20-black.svg",
      "resultId": "",
      "weight": 3,
      "range": [21, 23],
      "drawn": false
    },
    {
      "_id": "SEAnClM0YGxR0C9i",
      "flags": {},
      "type": 0,
      "text": "Scroll of Endure Elements",
      "img": "icons/svg/d20-black.svg",
      "resultId": "",
      "weight": 4,
      "range": [24, 27],
      "drawn": false
    },
    {
      "_id": "SdhW89mJXgtmFB7W",
      "flags": {},
      "type": 0,
      "text": "Scroll of Entropic Shield",
      "img": "icons/svg/d20-black.svg",
      "resultId": "",
      "weight": 3,
      "range": [28, 30],
      "drawn": false
    },
    {
      "_id": "9sF8q1QNYsrWHzt3",
      "flags": {},
      "type": 0,
      "text": "Scroll of Faerie Fire",
      "img": "icons/svg/d20-black.svg",
      "resultId": "",
      "weight": 3,
      "range": [31, 33],
      "drawn": false
    },
    {
      "_id": "WtPPWQt8X1yKcpi0",
      "flags": {},
      "type": 0,
      "text": "Scroll of Feather Step",
      "img": "icons/svg/d20-black.svg",
      "resultId": "",
      "weight": 3,
      "range": [34, 36],
      "drawn": false
    },
    {
      "_id": "HiYeJM7GNgC11crL",
      "flags": {},
      "type": 0,
      "text": "Scroll of Forbid Action",
      "img": "icons/svg/d20-black.svg",
      "resultId": "",
      "weight": 3,
      "range": [37, 39],
      "drawn": false
    },
    {
      "_id": "ViWV3Gq5Lvk93S0C",
      "flags": {},
      "type": 0,
      "text": "Scroll of Frostbite",
      "img": "icons/svg/d20-black.svg",
      "resultId": "",
      "weight": 3,
      "range": [40, 42],
      "drawn": false
    },
    {
      "_id": "jEMUn7HuxIxfP6Ze",
      "flags": {},
      "type": 0,
      "text": "Scroll of Goodberry",
      "img": "icons/svg/d20-black.svg",
      "resultId": "",
      "weight": 4,
      "range": [43, 46],
      "drawn": false
    },
    {
      "_id": "akyrYCfySZtvZI0Z",
      "flags": {},
      "type": 0,
      "text": "Scroll of Hide From Animals",
      "img": "icons/svg/d20-black.svg",
      "resultId": "",
      "weight": 1,
      "range": [47, 47],
      "drawn": false
    },
    {
      "_id": "VxmYzBBHMwDRJ4W4",
      "flags": {},
      "type": 0,
      "text": "Scroll of Hide From Undead",
      "img": "icons/svg/d20-black.svg",
      "resultId": "",
      "weight": 2,
      "range": [48, 49],
      "drawn": false
    },
    {
      "_id": "a3kzgT90oe0HSAWW",
      "flags": {},
      "type": 0,
      "text": "Scroll of Hydraulic Push",
      "img": "icons/svg/d20-black.svg",
      "resultId": "",
      "weight": 3,
      "range": [50, 52],
      "drawn": false
    },
    {
      "_id": "6f3ZkzFzeN8vZfnI",
      "flags": {},
      "type": 0,
      "text": "Scroll of Jump",
      "img": "icons/svg/d20-black.svg",
      "resultId": "",
      "weight": 3,
      "range": [53, 55],
      "drawn": false
    },
    {
      "_id": "RblDDpaSf99dOJa4",
      "flags": {},
      "type": 0,
      "text": "Scroll of Keen Senses",
      "img": "icons/svg/d20-black.svg",
      "resultId": "",
      "weight": 4,
      "range": [56, 59],
      "drawn": false
    },
    {
      "_id": "fUVk5lsVqi351XCB",
      "flags": {},
      "type": 0,
      "text": "Scroll of Liberating Command",
      "img": "icons/svg/d20-black.svg",
      "resultId": "",
      "weight": 3,
      "range": [60, 62],
      "drawn": false
    },
    {
      "_id": "MAHW4NLZspPQ3vs1",
      "flags": {},
      "type": 0,
      "text": "Scroll of Longstrider",
      "img": "icons/svg/d20-black.svg",
      "resultId": "",
      "weight": 3,
      "range": [63, 65],
      "drawn": false
    },
    {
      "_id": "iQSFwuhKbB1vDvX0",
      "flags": {},
      "type": 0,
      "text": "Scroll of Magic Stone",
      "img": "icons/svg/d20-black.svg",
      "resultId": "",
      "weight": 3,
      "range": [66, 68],
      "drawn": false
    },
    {
      "_id": "htKG1ThTJMLgTxjp",
      "flags": {},
      "type": 0,
      "text": "Scroll of Pass Without Trace",
      "img": "icons/svg/d20-black.svg",
      "resultId": "",
      "weight": 4,
      "range": [69, 72],
      "drawn": false
    },
    {
      "_id": "ytGWs7VuYZHR4K87",
      "flags": {},
      "type": 0,
      "text": "Scroll of Remove Sickness",
      "img": "icons/svg/d20-black.svg",
      "resultId": "",
      "weight": 2,
      "range": [73, 74],
      "drawn": false
    },
    {
      "_id": "TxetC8oawBixOSds",
      "flags": {},
      "type": 0,
      "text": "Scroll of Sanctify Corpse",
      "img": "icons/svg/d20-black.svg",
      "resultId": "",
      "weight": 1,
      "range": [75, 75],
      "drawn": false
    },
    {
      "_id": "wBgscFJLYd3d8T0a",
      "flags": {},
      "type": 0,
      "text": "Scroll of Shillelagh",
      "img": "icons/svg/d20-black.svg",
      "resultId": "",
      "weight": 3,
      "range": [76, 78],
      "drawn": false
    },
    {
      "_id": "4uyvb1qpftWeC8Ld",
      "flags": {},
      "type": 0,
      "text": "Scroll of Speak With Animals",
      "img": "icons/svg/d20-black.svg",
      "resultId": "",
      "weight": 3,
      "range": [79, 81],
      "drawn": false
    },
    {
      "_id": "4AjgYB6U9EZyn15n",
      "flags": {},
      "type": 0,
      "text": "Scroll of Stone Fist",
      "img": "icons/svg/d20-black.svg",
      "resultId": "",
      "weight": 4,
      "range": [82, 85],
      "drawn": false
    },
    {
      "_id": "SxxcJ9NeNcE1Ji4j",
      "flags": {},
      "type": 0,
      "text": "Scroll of Stone Shield",
      "img": "icons/svg/d20-black.svg",
      "resultId": "",
      "weight": 3,
      "range": [86, 88],
      "drawn": false
    },
    {
      "_id": "B8lGfrYNP74er3jp",
      "flags": {},
      "type": 0,
      "text": "Scroll of Sun Metal",
      "img": "icons/svg/d20-black.svg",
      "resultId": "",
      "weight": 3,
      "range": [89, 91],
      "drawn": false
    },
    {
      "_id": "w2p6ZLW73HUremOe",
      "flags": {},
      "type": 0,
      "text": "Scroll of Touch of the Sea",
      "img": "icons/svg/d20-black.svg",
      "resultId": "",
      "weight": 4,
      "range": [92, 95],
      "drawn": false
    },
    {
      "_id": "usGXsczfNNFBY9og",
      "flags": {},
      "type": 0,
      "text": "Scroll of Bless Water",
      "img": "icons/svg/d20-black.svg",
      "resultId": "",
      "weight": 3,
      "range": [96, 98],
      "drawn": false
    },
    {
      "_id": "plkEUaZ76ZuSOWtT",
      "flags": {},
      "type": 0,
      "text": "Scroll of Curse Water",
      "img": "icons/svg/d20-black.svg",
      "resultId": "",
      "weight": 2,
      "range": [99, 100],
      "drawn": false
    }
  ],
  "formula": "1d100",
  "replacement": true,
  "displayRoll": true,
  "_id": "zIJtxIrGRyvg0sap"
}
