{
  "name": "Uncommon Level 2 Divine Scrolls",
  "permission": {
    "default": 0
  },
  "flags": {},
  "description": "",
  "results": [
    {
      "_id": "Q7R98xEtV9onOi09",
      "flags": {},
      "type": 0,
      "text": "Scroll of Animal Aspect",
      "img": "icons/svg/d20-black.svg",
      "resultId": "",
      "weight": 4,
      "range": [1, 4],
      "drawn": false
    },
    {
      "_id": "CqD9a7MlBSnBta6C",
      "flags": {},
      "type": 0,
      "text": "Scroll of Animal Trance",
      "img": "icons/svg/d20-black.svg",
      "resultId": "",
      "weight": 2,
      "range": [5, 6],
      "drawn": false
    },
    {
      "_id": "U6fsfP40Wg42Yyht",
      "flags": {},
      "type": 0,
      "text": "Scroll of Animate Dead, Lesser",
      "img": "icons/svg/d20-black.svg",
      "resultId": "",
      "weight": 4,
      "range": [7, 10],
      "drawn": false
    },
    {
      "_id": "iTOv0Ft6AoU95ZRF",
      "flags": {},
      "type": 0,
      "text": "Scroll of Arrow of Law",
      "img": "icons/svg/d20-black.svg",
      "resultId": "",
      "weight": 3,
      "range": [11, 13],
      "drawn": false
    },
    {
      "_id": "urzN4bQV2SljqALe",
      "flags": {},
      "type": 0,
      "text": "Scroll of Aspect of the Bear",
      "img": "icons/svg/d20-black.svg",
      "resultId": "",
      "weight": 4,
      "range": [14, 17],
      "drawn": false
    },
    {
      "_id": "PmPoR5enXwtwRa9M",
      "flags": {},
      "type": 0,
      "text": "Scroll of Blessing of Courage and Life",
      "img": "icons/svg/d20-black.svg",
      "resultId": "",
      "weight": 3,
      "range": [18, 20],
      "drawn": false
    },
    {
      "_id": "J6IJ4PiF1TZL8NvI",
      "flags": {},
      "type": 0,
      "text": "Scroll of Calm Emotions",
      "img": "icons/svg/d20-black.svg",
      "resultId": "",
      "weight": 4,
      "range": [21, 24],
      "drawn": false
    },
    {
      "_id": "XhHDTnkwG1ezFhsh",
      "flags": {},
      "type": 0,
      "text": "Scroll of Death Knell",
      "img": "icons/svg/d20-black.svg",
      "resultId": "",
      "weight": 3,
      "range": [25, 27],
      "drawn": false
    },
    {
      "_id": "5tn0py4YqfC6BEX8",
      "flags": {},
      "type": 0,
      "text": "Scroll of Dread Bolt",
      "img": "icons/svg/d20-black.svg",
      "resultId": "",
      "weight": 3,
      "range": [28, 30],
      "drawn": false
    },
    {
      "_id": "8phdmZKMsaIBYpNS",
      "flags": {},
      "type": 0,
      "text": "Scroll of Effortless Armor",
      "img": "icons/svg/d20-black.svg",
      "resultId": "",
      "weight": 4,
      "range": [31, 34],
      "drawn": false
    },
    {
      "_id": "uXQij256cHVuT0Mv",
      "flags": {},
      "type": 0,
      "text": "Scroll of Enthrall",
      "img": "icons/svg/d20-black.svg",
      "resultId": "",
      "weight": 3,
      "range": [35, 37],
      "drawn": false
    },
    {
      "_id": "is4EBhVCVi1NsHkK",
      "flags": {},
      "type": 0,
      "text": "Scroll of Flaming Sphere",
      "img": "icons/svg/d20-black.svg",
      "resultId": "",
      "weight": 4,
      "range": [38, 41],
      "drawn": false
    },
    {
      "_id": "SPQBaOukrdNF8Psv",
      "flags": {},
      "type": 0,
      "text": "Scroll of Gentle Repose",
      "img": "icons/svg/d20-black.svg",
      "resultId": "",
      "weight": 2,
      "range": [42, 43],
      "drawn": false
    },
    {
      "_id": "CBJMkhn4eYHARzE1",
      "flags": {},
      "type": 0,
      "text": "Scroll of Grace",
      "img": "icons/svg/d20-black.svg",
      "resultId": "",
      "weight": 3,
      "range": [44, 46],
      "drawn": false
    },
    {
      "_id": "O6ypdPfSEuPpPLqK",
      "flags": {},
      "type": 0,
      "text": "Scroll of Groundswell",
      "img": "icons/svg/d20-black.svg",
      "resultId": "",
      "weight": 2,
      "range": [47, 48],
      "drawn": false
    },
    {
      "_id": "hz41x1HFOoSqqEHD",
      "flags": {},
      "type": 0,
      "text": "Scroll of Gust of Wind",
      "img": "icons/svg/d20-black.svg",
      "resultId": "",
      "weight": 3,
      "range": [49, 51],
      "drawn": false
    },
    {
      "_id": "qmhOUxLhp4iZTnpt",
      "flags": {},
      "type": 0,
      "text": "Scroll of Instant Armor",
      "img": "icons/svg/d20-black.svg",
      "resultId": "",
      "weight": 2,
      "range": [52, 53],
      "drawn": false
    },
    {
      "_id": "q5rUMrKCVc18gitS",
      "flags": {},
      "type": 0,
      "text": "Scroll of Instrument of Agony",
      "img": "icons/svg/d20-black.svg",
      "resultId": "",
      "weight": 2,
      "range": [54, 55],
      "drawn": false
    },
    {
      "_id": "AKxBUVqlMfVe6nLs",
      "flags": {},
      "type": 0,
      "text": "Scroll of Make Whole",
      "img": "icons/svg/d20-black.svg",
      "resultId": "",
      "weight": 3,
      "range": [56, 58],
      "drawn": false
    },
    {
      "_id": "NPxwreckBftGgS5O",
      "flags": {},
      "type": 0,
      "text": "Scroll of Reduce Animal",
      "img": "icons/svg/d20-black.svg",
      "resultId": "",
      "weight": 2,
      "range": [59, 60],
      "drawn": false
    },
    {
      "_id": "fxOuLMkwG3y6WYiB",
      "flags": {},
      "type": 0,
      "text": "Scroll of Scent Trail",
      "img": "icons/svg/d20-black.svg",
      "resultId": "",
      "weight": 2,
      "range": [61, 62],
      "drawn": false
    },
    {
      "_id": "gZGPk2uLCPHcGNnT",
      "flags": {},
      "type": 0,
      "text": "Scroll of Shard of Chaos",
      "img": "icons/svg/d20-black.svg",
      "resultId": "",
      "weight": 3,
      "range": [63, 65],
      "drawn": false
    },
    {
      "_id": "swpVY3e0xTkZkVth",
      "flags": {},
      "type": 0,
      "text": "Scroll of Share Language",
      "img": "icons/svg/d20-black.svg",
      "resultId": "",
      "weight": 3,
      "range": [66, 68],
      "drawn": false
    },
    {
      "_id": "zQaa2H0JTZCUOVr2",
      "flags": {},
      "type": 0,
      "text": "Scroll of Shatter",
      "img": "icons/svg/d20-black.svg",
      "resultId": "",
      "weight": 2,
      "range": [69, 70],
      "drawn": false
    },
    {
      "_id": "81GglwLU0YLPdUV1",
      "flags": {},
      "type": 0,
      "text": "Scroll of Soften Earth and Stone",
      "img": "icons/svg/d20-black.svg",
      "resultId": "",
      "weight": 3,
      "range": [71, 73],
      "drawn": false
    },
    {
      "_id": "2yBRjIGG6E8nWymh",
      "flags": {},
      "type": 0,
      "text": "Scroll of Spear of Purity",
      "img": "icons/svg/d20-black.svg",
      "resultId": "",
      "weight": 3,
      "range": [74, 76],
      "drawn": false
    },
    {
      "_id": "vuvV3Ej15aUP8R4K",
      "flags": {},
      "type": 0,
      "text": "Scroll of Spider Climb",
      "img": "icons/svg/d20-black.svg",
      "resultId": "",
      "weight": 3,
      "range": [77, 79],
      "drawn": false
    },
    {
      "_id": "5cBH4M2YZ9ehH3x9",
      "flags": {},
      "type": 0,
      "text": "Scroll of Status",
      "img": "icons/svg/d20-black.svg",
      "resultId": "",
      "weight": 3,
      "range": [80, 82],
      "drawn": false
    },
    {
      "_id": "QBSYKwvRsRMfoXMk",
      "flags": {},
      "type": 0,
      "text": "Scroll of Tree Shape",
      "img": "icons/svg/d20-black.svg",
      "resultId": "",
      "weight": 2,
      "range": [83, 84],
      "drawn": false
    },
    {
      "_id": "BYF9XRb37BMpZvMi",
      "flags": {},
      "type": 0,
      "text": "Scroll of Undetectable Alignment",
      "img": "icons/svg/d20-black.svg",
      "resultId": "",
      "weight": 1,
      "range": [85, 85],
      "drawn": false
    },
    {
      "_id": "pCcFka8eDe5uY42O",
      "flags": {},
      "type": 0,
      "text": "Scroll of Warp Wood",
      "img": "icons/svg/d20-black.svg",
      "resultId": "",
      "weight": 3,
      "range": [86, 88],
      "drawn": false
    },
    {
      "_id": "jlZw8uBXzecvsLyp",
      "flags": {},
      "type": 0,
      "text": "Scroll of Weapon of Awe",
      "img": "icons/svg/d20-black.svg",
      "resultId": "",
      "weight": 3,
      "range": [89, 91],
      "drawn": false
    },
    {
      "_id": "aXhQWMiKA3CDNww2",
      "flags": {},
      "type": 0,
      "text": "Scroll of Wood Shape",
      "img": "icons/svg/d20-black.svg",
      "resultId": "",
      "weight": 2,
      "range": [92, 93],
      "drawn": false
    },
    {
      "_id": "e0s9DL593CPJqvMk",
      "flags": {},
      "type": 0,
      "text": "Scroll of Consecrate",
      "img": "icons/svg/d20-black.svg",
      "resultId": "",
      "weight": 2,
      "range": [94, 95],
      "drawn": false
    },
    {
      "_id": "iiGCUmaPenTxyRs9",
      "flags": {},
      "type": 0,
      "text": "Scroll of Desecrate",
      "img": "icons/svg/d20-black.svg",
      "resultId": "",
      "weight": 2,
      "range": [96, 97],
      "drawn": false
    },
    {
      "_id": "ekhIMcTuaZoM2bVF",
      "flags": {},
      "type": 0,
      "text": "Scroll of Fire Trap",
      "img": "icons/svg/d20-black.svg",
      "resultId": "",
      "weight": 2,
      "range": [98, 99],
      "drawn": false
    },
    {
      "_id": "MDFLBrVaVMm2JsLp",
      "flags": {},
      "type": 0,
      "text": "Scroll of Masterwork Transformation",
      "img": "icons/svg/d20-black.svg",
      "resultId": "",
      "weight": 1,
      "range": [100, 100],
      "drawn": false
    }
  ],
  "formula": "1d100",
  "replacement": true,
  "displayRoll": true,
  "_id": "SZ74R8m0aFSxrp26"
}
