{
  "_id": "5TzaS38RPAx1oj9p",
  "name": "Breastplate",
  "type": "equipment",
  "img": "systems/pf1/icons/items/armor/breastplate.PNG",
  "data": {
    "description": {
      "value": "<p>A breastplate protects a wearer’s torso with a single piece of sculpted metal, similar to the core piece of a suit of full plate. Despite its sturdiness, its inflexibility and open back make it inferior to complete suits of metal armor, but still an improvement over most non-metal armors.</p>"
    },
    "tags": [],
    "weight": 30,
    "price": 200,
    "hp": {
      "max": 30,
      "value": 30
    },
    "hardness": 10,
    "changes": [],
    "contextNotes": [],
    "actions": [],
    "attackNotes": [],
    "effectNotes": [],
    "links": {
      "children": [],
      "charges": []
    },
    "flags": {
      "boolean": [],
      "dictionary": []
    },
    "scriptCalls": [],
    "equipmentSubtype": "mediumArmor",
    "armor": {
      "value": 6,
      "dex": 3,
      "acp": 4
    },
    "spellFailure": 25,
    "slot": "armor"
  },
  "effects": [],
  "folder": null,
  "sort": 0,
  "permission": {
    "default": 0
  },
  "flags": {}
}
