{
  "_id": "WHTn1ouMVlmsEL1l",
  "name": "Fortress Plate",
  "type": "equipment",
  "img": "systems/pf1/icons/items/armor/fortress-plate.PNG",
  "data": {
    "description": {
      "value": "<p>This dwarf-forged armor features layers of overlapping plates molded to deflect projectiles—especially those from firearms. Whenever you are the target of a ranged weapon attack that would ignore your armor bonus to AC, you add half the fortress plate’s armor bonus (including enhancement bonuses) to your AC against that attack. This benefit does not apply to energy attacks or magical touch attacks such as rays. Because the armor is designed with dwarves in mind, If you have the dwarf’s weapon familiarity racial trait, you increase this projectile-only bonus by 1. Fortress plate is incredibly bulky, and its armor category can’t be reduced by any effect (including by special materials, such as mithral). Fortress plate includes gauntlets and a helm.</p>"
    },
    "tags": [],
    "weight": 75,
    "price": 2100,
    "hp": {
      "max": 40,
      "value": 40
    },
    "hardness": 10,
    "changes": [],
    "contextNotes": [],
    "actions": [],
    "attackNotes": [],
    "effectNotes": [],
    "links": {
      "children": [],
      "charges": []
    },
    "flags": {
      "boolean": [],
      "dictionary": []
    },
    "scriptCalls": [],
    "equipmentSubtype": "heavyArmor",
    "armor": {
      "value": 8,
      "dex": 0,
      "acp": 7
    },
    "spellFailure": 40,
    "slot": "armor"
  },
  "effects": [],
  "folder": null,
  "sort": 0,
  "permission": {
    "default": 0
  },
  "flags": {}
}
