{
  "_id": "Lq7YjIXW1SfV4EKr",
  "name": "Steel Snarlshield",
  "type": "equipment",
  "img": "systems/pf1/icons/items/armor/shield-heavy-metal.png",
  "data": {
    "description": {
      "value": "<p><span id=\"ctl00_MainContent_DataListTypes_ctl00_LabelName\" style=\"margin-top: 0px;\">The snarlshield is a heavy shield that features a dozen rods protruding from its surface. When used as a weapon to bash an opponent, a snarlshield has the disarm quality.</span></p>"
    },
    "tags": [],
    "weight": 20,
    "price": 50,
    "hp": {
      "max": 20,
      "value": 20
    },
    "hardness": 10,
    "changes": [],
    "contextNotes": [],
    "actions": [],
    "attackNotes": [],
    "effectNotes": [],
    "links": {
      "children": [],
      "charges": []
    },
    "flags": {
      "boolean": [],
      "dictionary": []
    },
    "scriptCalls": [],
    "equipmentType": "shield",
    "equipmentSubtype": "heavyShield",
    "armor": {
      "value": 2,
      "acp": 3
    },
    "spellFailure": 15,
    "slot": "shield"
  },
  "effects": [],
  "folder": null,
  "sort": 0,
  "permission": {
    "default": 0
  },
  "flags": {}
}
