{
  "_id": "Zeq6RWYv5otvg8q7",
  "name": "Cleave",
  "type": "feat",
  "img": "systems/pf1/icons/feats/cleave.jpg",
  "data": {
    "description": {
      "value": "<em>You can strike two adjacent foes with a single swing.</em><br/><br/><b>Prerequisites</b><br/>Str 13, Power Attack, base attack bonus +1.<br/><br/><b>Benefits</b><br/>As a standard action, you can make a single attack at your full base attack bonus against a foe within reach. If you hit, you deal damage normally and can make an additional attack (using your full base attack bonus) against a foe that is adjacent to the first and also within reach. You can only make one additional attack per round with this feat. When you use this feat, you take a -2 penalty to your Armor Class until your next turn.<br/><br/><b>Combat Trick</b><br/>When using the Cleave or Great Cleave feat, you can spend 4 stamina points to negate the -2 penalty to Armor Class until your next turn."
    },
    "tags": [["PFS"], ["Combat"]],
    "actions": [],
    "attackNotes": [],
    "effectNotes": [],
    "changes": [],
    "contextNotes": [
      {
        "subTarget": "attack",
        "text": "Cleave: if you hit, you deal damage normally and can make an additional attack (using your full base attack bonus) against a foe that is adjacent to the first and also within reach."
      },
      {
        "subTarget": "ac",
        "text": "Cleave: [[-2]] penalty until your next turn."
      }
    ],
    "links": {
      "children": [],
      "charges": []
    },
    "tag": "feat_cleave",
    "useCustomTag": true,
    "armorProf": {
      "value": []
    },
    "weaponProf": {
      "value": []
    },
    "languages": {
      "value": []
    },
    "scriptCalls": [],
    "associations": {
      "classes": []
    }
  },
  "effects": [],
  "folder": null,
  "sort": 0,
  "permission": {
    "default": 0
  },
  "flags": {}
}
