{
  "_id": "V6du9lXESc2spA7B",
  "name": "Craft Wand",
  "type": "feat",
  "img": "systems/pf1/icons/feats/craft-wand.jpg",
  "data": {
    "description": {
      "value": "\n                <i>You can create magic wands.</i>\n                <br />\n                <br />\n                \n                <p><b>Prerequisites</b></p>\n                <p> Caster level 5th.</p>\n                \n            <br />\n                <p><b>Benefits</b></p>\n                <p><p class=\"stat-block-1\"> You can create a wand of any 4th-level or lower spell that you know. Crafting a wand takes 1 day for each 1,000 gp in its base price. To craft a wand, you must use up raw materials costing half of this base price. A newly created wand has 50 charges. See the magic item creation rules in Magic Items for more information.</p></p>\n                \n            \n            "
    },
    "tags": [["General"], ["Item Creation"]],
    "actions": [],
    "attackNotes": [],
    "effectNotes": [],
    "changes": [],
    "contextNotes": [],
    "links": {
      "children": [],
      "charges": []
    },
    "tag": "feat_craftWand",
    "useCustomTag": true,
    "armorProf": {
      "value": []
    },
    "weaponProf": {
      "value": []
    },
    "languages": {
      "value": []
    },
    "scriptCalls": [],
    "associations": {
      "classes": []
    }
  },
  "effects": [],
  "folder": null,
  "sort": 0,
  "permission": {
    "default": 0
  },
  "flags": {}
}
