{
  "_id": "RE14LhYMDTcjAyHd",
  "name": "Deafening Critical",
  "type": "feat",
  "img": "systems/pf1/icons/feats/extra-rage.jpg",
  "data": {
    "description": {
      "value": "<em>Your critical hits cause enemies to lose their hearing.</em><br/><br/><b>Prerequisites</b><br/>Critical Focus, base attack bonus +13.<br/><br/><b>Benefits</b><br/>Whenever you score a critical hit against an opponent, the victim is permanently deafened. A successful Fortitude save reduces the deafness to 1 round. The DC of this Fortitude save is equal to 10 + your base attack bonus. This feat has no effect on deaf creatures. This deafness can be cured by heal, regeneration, remove deafness, or a similar ability.<br/><br/><b>Special</b><br/>You can only apply the effects of one critical feat to a given critical hit unless you possess Critical Mastery.<br/><br/><b>Combat Trick</b><br/>When you confirm a critical hit and attempt to deafen an opponent with this feat, you can spend up to 5 stamina points to increase the DC of this feat's saving throw by an amount equal to the number of stamina points you spent."
    },
    "tags": [["PFS"], ["Combat"], ["Critical"]],
    "actions": [],
    "attackNotes": [],
    "effectNotes": [],
    "changes": [],
    "contextNotes": [
      {
        "subTarget": "effect",
        "text": "Deafening Critical: permanently @Compendium[pf1.conditions.ZTA39rR8AnZcydiu]{Deafened}. A successful Fortitude save DC [[10 + @attributes.bab.total]] reduces the deafness to [[1]] round."
      }
    ],
    "links": {
      "children": [],
      "charges": []
    },
    "tag": "feat_deafeningCritical",
    "useCustomTag": true,
    "armorProf": {
      "value": []
    },
    "weaponProf": {
      "value": []
    },
    "languages": {
      "value": []
    },
    "scriptCalls": [],
    "associations": {
      "classes": []
    }
  },
  "effects": [],
  "folder": null,
  "sort": 0,
  "permission": {
    "default": 0
  },
  "flags": {}
}
