{
  "_id": "PGTjF7uoFx7wP1WO",
  "name": "Extra Ki",
  "type": "feat",
  "img": "systems/pf1/icons/feats/extra-ki.jpg",
  "data": {
    "description": {
      "value": "<p><em>You can use your ki pool more times per day than most.</em><br /><br /><strong>Prerequisites</strong><br />Ki pool class feature.<br /><br /><strong>Benefits</strong><br />Your ki pool increases by 2.<br /><br /><strong>Special</strong><br />You can gain Extra Ki multiple times. Its effects stack.</p>\n<p>&nbsp;</p>\n<p><strong>Usage</strong>: add additional charges to Ki Pool feature Maximum Usage Formula manually.</p>"
    },
    "tags": [["PFS"], ["General"]],
    "actions": [],
    "attackNotes": [],
    "effectNotes": [],
    "changes": [],
    "contextNotes": [],
    "links": {
      "children": [],
      "charges": []
    },
    "tag": "feat_extraKi",
    "useCustomTag": true,
    "armorProf": {
      "value": []
    },
    "weaponProf": {
      "value": []
    },
    "languages": {
      "value": []
    },
    "scriptCalls": [],
    "associations": {
      "classes": []
    }
  },
  "effects": [],
  "folder": null,
  "sort": 0,
  "permission": {
    "default": 0
  },
  "flags": {}
}
