{
  "_id": "HVu9JzllWoLzKKqH",
  "name": "Forge Ring",
  "type": "feat",
  "img": "systems/pf1/icons/feats/forge-ring.jpg",
  "data": {
    "description": {
      "value": "\n                <i>You can create magic rings.</i>\n                <br />\n                <br />\n                \n                <p><b>Prerequisites</b></p>\n                <p> Caster level 7th.</p>\n                \n            <br />\n                <p><b>Benefits</b></p>\n                <p><p class=\"stat-block-1\"> You can create magic rings. Crafting a ring takes 1 day for each 1,000 gp in its base price. To craft a ring, you must use up raw materials costing half of the base price. See the magic item creation rules in Magic Items for more information.</p><p class=\"stat-block-2\">You can also mend a broken ring if it is one that you could make. Doing so costs half the raw materials and half the time it would take to forge that ring in the first place.</p></p>\n                \n            \n            "
    },
    "tags": [["General"], ["Item Creation"]],
    "actions": [],
    "attackNotes": [],
    "effectNotes": [],
    "changes": [],
    "contextNotes": [],
    "links": {
      "children": [],
      "charges": []
    },
    "tag": "feat_forgeRing",
    "useCustomTag": true,
    "armorProf": {
      "value": []
    },
    "weaponProf": {
      "value": []
    },
    "languages": {
      "value": []
    },
    "scriptCalls": [],
    "associations": {
      "classes": []
    }
  },
  "effects": [],
  "folder": null,
  "sort": 0,
  "permission": {
    "default": 0
  },
  "flags": {}
}
