{
  "_id": "IER2MzJrjSvxMlNS",
  "name": "Greater Weapon Focus",
  "type": "feat",
  "img": "systems/pf1/icons/feats/greater-weapon-focus.jpg",
  "data": {
    "description": {
      "value": "\n                <i>Choose one type of weapon (including unarmed strike or grapple) for which you have already selected Weapon Focus. You are a master at your chosen weapon.</i>\n                <br />\n                <br />\n                \n                <p><b>Prerequisites</b></p>\n                <p>Proficiency with selected weapon, Weapon Focus with selected weapon, base attack bonus +1, 8th-level fighter.</p>\n                \n            <br />\n                <p><b>Benefits</b></p>\n                <p><p class=\"stat-block-1\"> You gain a +1 bonus on attack rolls you make using the selected weapon. This bonus stacks with other bonuses on attack rolls, including those from Weapon Focus.</p></p>\n                \n            <br />\n                <p><b>Special</b></p>\n                <p><p class=\"stat-block-1\"> You can gain Greater Weapon Focus multiple times. Its effects do not stack. Each time you take the feat, it applies to a new type of weapon.</p></p>\n                \n            \n            "
    },
    "tags": [["Combat"], ["Offensive"], ["Weapon"]],
    "actions": [],
    "attackNotes": [],
    "effectNotes": [],
    "changes": [],
    "contextNotes": [],
    "links": {
      "children": [],
      "charges": []
    },
    "tag": "feat_greaterWeaponFocus",
    "useCustomTag": true,
    "armorProf": {
      "value": []
    },
    "weaponProf": {
      "value": []
    },
    "languages": {
      "value": []
    },
    "scriptCalls": [],
    "associations": {
      "classes": []
    }
  },
  "effects": [],
  "folder": null,
  "sort": 0,
  "permission": {
    "default": 0
  },
  "flags": {}
}
