{
  "_id": "J1yi4hFKYdXqZE3h",
  "name": "Maximize Spell",
  "type": "feat",
  "img": "systems/pf1/icons/feats/maximize-spell.jpg",
  "data": {
    "description": {
      "value": "\n                <i>Your spells have the maximum possible effect.</i>\n                <br />\n                <br />\n                \n                <p><b>Benefits</b></p>\n                <p><p class=\"stat-block-1\"> All variable, numeric effects of a spell modified by this feat are maximized. Saving throws and opposed rolls are not affected, nor are spells without random variables. A maximized spell uses up a spell slot three levels higher than the spell's actual level.</p><p class=\"stat-block-2\">An empowered, maximized spell gains the separate benefits of each feat: the maximum result plus half the normally rolled result.</p></p>\n                \n            \n            "
    },
    "tags": [["Metamagic"], ["Magic"]],
    "actions": [],
    "attackNotes": [],
    "effectNotes": [],
    "changes": [],
    "contextNotes": [],
    "links": {
      "children": [],
      "charges": []
    },
    "tag": "feat_maximizeSpell",
    "useCustomTag": true,
    "armorProf": {
      "value": []
    },
    "weaponProf": {
      "value": []
    },
    "languages": {
      "value": []
    },
    "scriptCalls": [],
    "associations": {
      "classes": []
    }
  },
  "effects": [],
  "folder": null,
  "sort": 0,
  "permission": {
    "default": 0
  },
  "flags": {}
}
