{
  "_id": "ztV5oURW9cFsLdXT",
  "name": "Pinpoint Targeting",
  "type": "feat",
  "img": "systems/pf1/icons/feats/pinpoint-targeting.jpg",
  "data": {
    "description": {
      "value": "\n                <i>You can target the weak points in your opponent's armor.</i>\n                <br />\n                <br />\n                \n                <p><b>Prerequisites</b></p>\n                <p> Dex 19, Improved Precise Shot, Point-Blank Shot, Precise Shot, base attack bonus +16.</p>\n                \n            <br />\n                <p><b>Benefits</b></p>\n                <p><p class=\"stat-block-1\"> As a standard action, make a single ranged attack. The target does not gain any armor, natural armor, or shield bonuses to its Armor Class. You do not gain the benefit of this feat if you move this round.</p></p>\n                \n            \n            "
    },
    "tags": [["Combat"], ["Ranged"], ["Offensive"], ["Weapon"]],
    "actions": [],
    "attackNotes": [],
    "effectNotes": [],
    "changes": [],
    "contextNotes": [],
    "links": {
      "children": [],
      "charges": []
    },
    "tag": "feat_pinpointTargeting",
    "useCustomTag": true,
    "armorProf": {
      "value": []
    },
    "weaponProf": {
      "value": []
    },
    "languages": {
      "value": []
    },
    "scriptCalls": [],
    "associations": {
      "classes": []
    }
  },
  "effects": [],
  "folder": null,
  "sort": 0,
  "permission": {
    "default": 0
  },
  "flags": {}
}
