{
  "_id": "WnWRcte0jppClLpz",
  "name": "Selective Channeling",
  "type": "feat",
  "img": "systems/pf1/icons/feats/selective-channeling.jpg",
  "data": {
    "description": {
      "value": "\n                <i>You can choose whom to affect when you channel energy.</i>\n                <br />\n                <br />\n                \n                <p><b>Prerequisites</b></p>\n                <p> Cha 13, channel energy class feature.</p>\n                \n            <br />\n                <p><b>Benefits</b></p>\n                <p><p class=\"stat-block-1\"> When you channel energy, you can choose a number of targets in the area up to your Charisma modifier. These targets are not affected by your channeled energy.</p></p>\n                \n            <br />\n                <p><b>Normal</b></p>\n                <p><p class=\"stat-block-1\"> All targets in a 30-foot burst are affected when you channel energy. You can only choose whether or not you are affected.</p></p>\n                \n            \n            "
    },
    "tags": [["Channeling"]],
    "actions": [],
    "attackNotes": [],
    "effectNotes": [],
    "changes": [],
    "contextNotes": [],
    "links": {
      "children": [],
      "charges": []
    },
    "tag": "feat_selectiveChanneling",
    "useCustomTag": true,
    "armorProf": {
      "value": []
    },
    "weaponProf": {
      "value": []
    },
    "languages": {
      "value": []
    },
    "scriptCalls": [],
    "associations": {
      "classes": []
    }
  },
  "effects": [],
  "folder": null,
  "sort": 0,
  "permission": {
    "default": 0
  },
  "flags": {}
}
