{
  "_id": "ymtj17MI4MdwB0v2",
  "name": "Shot on the Run",
  "type": "feat",
  "img": "systems/pf1/icons/feats/shot-on-the-run.jpg",
  "data": {
    "description": {
      "value": "\n                <i>You can move, fire a ranged weapon, and move again before your foes can react.</i>\n                <br />\n                <br />\n                \n                <p><b>Prerequisites</b></p>\n                <p> Dex 13, Dodge, Mobility, Point-Blank Shot, base attack bonus +4.</p>\n                \n            <br />\n                <p><b>Benefits</b></p>\n                <p><p class=\"stat-block-1\"> As a full-round action, you can move up to your speed and make a single ranged attack at any point during your movement.</p></p>\n                \n            <br />\n                <p><b>Normal</b></p>\n                <p><p class=\"stat-block-1\"> You cannot move before and after an attack with a ranged weapon.</p></p>\n                \n            \n            "
    },
    "tags": [["Combat"], ["Ranged"], ["Weapon"], ["Offensive"]],
    "actions": [],
    "attackNotes": [],
    "effectNotes": [],
    "changes": [],
    "contextNotes": [],
    "links": {
      "children": [],
      "charges": []
    },
    "tag": "feat_shotOnTheRun",
    "useCustomTag": true,
    "armorProf": {
      "value": []
    },
    "weaponProf": {
      "value": []
    },
    "languages": {
      "value": []
    },
    "scriptCalls": [],
    "associations": {
      "classes": []
    }
  },
  "effects": [],
  "folder": null,
  "sort": 0,
  "permission": {
    "default": 0
  },
  "flags": {}
}
