{
  "_id": "y3GhqdsCdE9IyYQc",
  "name": "Simple Weapon Proficiency",
  "type": "feat",
  "img": "systems/pf1/icons/items/weapons/club.PNG",
  "data": {
    "description": {
      "value": "<em>You are trained in the use of basic weapons.</em><br/><br/><b>Benefits</b><br/>You make attack rolls with simple weapons without penalty.<br/><br/><b>Normal</b><br/>When using a weapon with which you are not proficient, you take a -4 penalty on attack rolls.<br/><br/><b>Special</b><br/>All characters except for druids, monks, and wizards are automatically proficient with all simple weapons. They need not select this feat."
    },
    "tags": [["PFS"], ["Combat"]],
    "actions": [],
    "attackNotes": [],
    "effectNotes": [],
    "changes": [],
    "contextNotes": [],
    "links": {
      "children": [],
      "charges": []
    },
    "tag": "feat_simpleWeaponProficiency",
    "useCustomTag": true,
    "armorProf": {
      "value": []
    },
    "weaponProf": {
      "value": ["sim"]
    },
    "languages": {
      "value": []
    },
    "scriptCalls": [],
    "associations": {
      "classes": []
    }
  },
  "effects": [],
  "folder": null,
  "sort": 0,
  "permission": {
    "default": 0
  },
  "flags": {}
}
