{
  "_id": "nWFr8SNcjcMqsXSH",
  "name": "Spell Penetration",
  "type": "feat",
  "img": "systems/pf1/icons/feats/spell-penetration.jpg",
  "data": {
    "description": {
      "value": "\n                <i>Your spells break through spell resistance more easily than most.</i>\n                <br />\n                <br />\n                \n                <p><b>Benefits</b></p>\n                <p><p class=\"stat-block-1\"> You get a +2 bonus on caster level checks (1d20 + caster level) made to overcome a creature's spell resistance.</p></p>\n                \n            \n            "
    },
    "tags": [["General"], ["Magic"]],
    "actions": [],
    "attackNotes": [],
    "effectNotes": [],
    "changes": [],
    "contextNotes": [
      {
        "text": "+[[2]] spell penetration",
        "subTarget": "cl"
      }
    ],
    "links": {
      "children": [],
      "charges": []
    },
    "tag": "feat_spellPenetration",
    "useCustomTag": true,
    "armorProf": {
      "value": []
    },
    "weaponProf": {
      "value": []
    },
    "languages": {
      "value": []
    },
    "scriptCalls": [],
    "associations": {
      "classes": []
    }
  },
  "effects": [],
  "folder": null,
  "sort": 0,
  "permission": {
    "default": 0
  },
  "flags": {}
}
