{
  "_id": "jVFjMIyQD6TOAsmj",
  "name": "Still Spell",
  "type": "feat",
  "img": "systems/pf1/icons/feats/still-spell.jpg",
  "data": {
    "description": {
      "value": "\n                <i>You can cast spells without moving.</i>\n                <br />\n                <br />\n                \n                <p><b>Benefits</b></p>\n                <p><p class=\"stat-block-1\"> A stilled spell can be cast with no somatic components. Spells without somatic components are not affected. A stilled spell uses up a spell slot one level higher than the spell's actual level.</p></p>\n                \n            \n            "
    },
    "tags": [["Metamagic"], ["Magic"]],
    "actions": [],
    "attackNotes": [],
    "effectNotes": [],
    "changes": [],
    "contextNotes": [],
    "links": {
      "children": [],
      "charges": []
    },
    "tag": "feat_stillSpell",
    "useCustomTag": true,
    "armorProf": {
      "value": []
    },
    "weaponProf": {
      "value": []
    },
    "languages": {
      "value": []
    },
    "scriptCalls": [],
    "associations": {
      "classes": []
    }
  },
  "effects": [],
  "folder": null,
  "sort": 0,
  "permission": {
    "default": 0
  },
  "flags": {}
}
