{
  "compilerOptions": {
    "target": "es2020",
    "lib": ["DOM", "ES2020"],
    "allowJs": true,
    "checkJs": false,
    "moduleResolution": "node",
    "esModuleInterop": true,
    "strict": true,
    "types": ["@league-of-foundry-developers/foundry-vtt-types", "@ethaks/fvtt-quench"]
  },
  "include": ["**/*.js", "global.d.ts"],
  "exclude": ["node_modules", "dist", "foundry"]
}
