{
  "_id": "ITHs6VCRdSQUsoen",
  "name": "Gnoll",
  "type": "race",
  "img": "systems/pf1/icons/races/gnoll.png",
  "data": {
    "description": {
      "value": "<h2>Standard Racial Traits</h2>\n<ul>\n<li><strong>Ability Score Modifiers</strong>: Flexible (+2&nbsp;<a href=\"https://www.d20pfsrd.com/basics-ability-scores/ability-scores#TOC-Strength-Str-\">Str</a>, +2&nbsp;<a href=\"https://www.d20pfsrd.com/basics-ability-scores/ability-scores#TOC-Constitution-Con-\">Con</a>)</li>\n<li><strong>Type:</strong>&nbsp;<a href=\"https://www.d20pfsrd.com/bestiary/rules-for-monsters/creature-types#TOC-Humanoid\">Humanoid</a>&nbsp;(<a href=\"https://www.d20pfsrd.com/bestiary/monster-listings/humanoids/gnoll\">gnoll</a>)</li>\n<li><strong>Size:</strong> Medium</li>\n<li><strong>Base Speed</strong>: Gnolls have a base land speed of 30 ft.</li>\n<li><strong>Languages:</strong> Gnolls start knowing their racial language only.</li>\n<li><strong>Natural Armor</strong>: Gnoll hides are remarkably tough, granting them a +2 natural armor bonus.</li>\n<li><strong>Darkvision:</strong> Gnolls have&nbsp;<a href=\"https://www.d20pfsrd.com/gamemastering/special-abilities#TOC-Darkvision\">darkvision</a>&nbsp;and so can see perfectly in the dark up to 60 feet.</li>\n</ul>"
    },
    "tags": [],
    "changes": [
      {
        "_id": "hfddei6x",
        "formula": "2",
        "operator": "+",
        "subTarget": "str",
        "modifier": "racial",
        "priority": 0,
        "value": 0,
        "target": "ability"
      },
      {
        "_id": "v16opza2",
        "formula": "2",
        "operator": "+",
        "subTarget": "con",
        "modifier": "racial",
        "priority": 0,
        "value": 0,
        "target": "ability"
      },
      {
        "_id": "8kblszif",
        "formula": "2",
        "operator": "+",
        "subTarget": "nac",
        "modifier": "base",
        "priority": 0,
        "value": 0,
        "target": "ac"
      }
    ],
    "contextNotes": [],
    "links": {
      "children": []
    },
    "armorProf": {
      "value": []
    },
    "weaponProf": {
      "value": []
    },
    "languages": {
      "value": ["gnoll"]
    },
    "flags": {
      "boolean": [],
      "dictionary": []
    },
    "scriptCalls": [],
    "subTypes": [["Gnoll"]]
  },
  "effects": [],
  "folder": null,
  "sort": 0,
  "permission": {
    "default": 0
  },
  "flags": {}
}
