{
  "_id": "VYbsatEW3DFCLWtD",
  "name": "Kasatha",
  "type": "race",
  "img": "systems/pf1/icons/races/orc.png",
  "data": {
    "description": {
      "value": "<h2>Standard Racial Traits</h2>\n<ul>\n<li><strong>Ability Score Modifiers:</strong> Kasathas are nimble and perceptive. They gain +2&nbsp;<a href=\"https://www.d20pfsrd.com/basics-ability-scores/ability-scores#TOC-Dexterity-Dex-\">Dexterity</a>&nbsp;and +2&nbsp;<a href=\"https://www.d20pfsrd.com/basics-ability-scores/ability-scores#TOC-Wisdom-Wis-\">Wisdom</a>)&nbsp;</li>\n<li><strong>Type:</strong>&nbsp;<a href=\"https://www.d20pfsrd.com/bestiary/rules-for-monsters/creature-types#TOC-Humanoid\">Humanoid</a>&nbsp;(kasatha)</li>\n<li><strong>Size:</strong> Kasathas are Medium creatures and have no bonuses or penalties due to their size.&nbsp;</li>\n<li><strong>Base Speed:</strong> Kasathas have a base speed of 30 feet.&nbsp;</li>\n<li><strong>Languages:</strong> Kasathas speak Common and Kasatha. A kasatha with a high&nbsp;<a href=\"https://www.d20pfsrd.com/basics-ability-scores/ability-scores#TOC-Intelligence-Int-\">Intelligence</a>&nbsp;score can choose from the following: Dwarven, Draconic,&nbsp;<a href=\"https://www.d20pfsrd.com/bestiary/monster-listings/humanoids/gnoll\">Gnoll</a>,&nbsp;<a href=\"https://www.d20pfsrd.com/races/other-races/featured-races/arg-orc\">Orc</a>, and&nbsp;<a href=\"https://www.d20pfsrd.com/bestiary/monster-listin/magical-beasts/sphinx\">Sphinx</a>.</li>\n<li><strong>Multi-Armed:</strong> A kasatha has four arms. One hand is considered its primary hand; all others are considered off hands. It can use any of its hands for other purposes that require free hands.&nbsp;</li>\n</ul>\n<h4>Defensive Abilities</h4>\n<ul>\n<li><strong>Defensive Training, Greater:</strong> Kasathas have a +2&nbsp;<a href=\"https://www.d20pfsrd.com/basics-ability-scores/glossary#TOC-Dodge-Bonus\">dodge bonus</a>&nbsp;to&nbsp;<a href=\"https://www.d20pfsrd.com/gamemastering/combat#TOC-Armor-Class\">Armor Class</a>.</li>\n<li><strong>Desert Runner: </strong>Kasathas have a +4&nbsp;<a href=\"https://www.d20pfsrd.com/basics-ability-scores/glossary#TOC-Racial-Bonus\">racial bonus</a>&nbsp;on&nbsp;<a href=\"https://www.d20pfsrd.com/basics-ability-scores/ability-scores#TOC-Constitution-Con-\">Constitution</a>&nbsp;checks and&nbsp;<a href=\"https://www.d20pfsrd.com/gamemastering/combat#TOC-Fortitude\">Fortitude</a>&nbsp;saves to avoid&nbsp;<a href=\"https://www.d20pfsrd.com/gamemastering/conditions#TOC-Fatigued\">fatigue</a>,&nbsp;<a href=\"https://www.d20pfsrd.com/gamemastering/conditions#TOC-Exhausted\">exhaustion</a>, and other ill effects from running, forced marches, starvation, thirst, and hot or cold environments.</li>\n</ul>\n<h4>Feat and Skill Abilities</h4>\n<ul>\n<li><strong>Stalker:</strong>&nbsp;<a href=\"https://www.d20pfsrd.com/skills/perception\">Perception</a>&nbsp;and&nbsp;<a href=\"https://www.d20pfsrd.com/skills/stealth\">Stealth</a>&nbsp;are class skills for kasathas.</li>\n<li><strong>Spinal Sword Proficiency:</strong> Kasathas treat kasatha spinal swords as martial weapons.</li>\n</ul>\n<p>Movement Abilities</p>\n<ul>\n<li><strong>Jumper:</strong> Kasathas are always considered to have a running start when attempting&nbsp;<a href=\"https://www.d20pfsrd.com/skills/acrobatics\">Acrobatics</a>&nbsp;checks to jump.</li>\n<li><strong>Desert Stride:</strong> Kasathas move through non-magical difficult terrain in desert environments at normal speed.</li>\n</ul>"
    },
    "tags": [],
    "changes": [
      {
        "_id": "ooq192v4",
        "formula": "2",
        "operator": "+",
        "subTarget": "dex",
        "modifier": "racial",
        "priority": 0,
        "value": 0,
        "target": "ability"
      },
      {
        "_id": "jewt36nh",
        "formula": "2",
        "operator": "+",
        "subTarget": "wis",
        "modifier": "racial",
        "priority": 0,
        "value": 0,
        "target": "ability"
      },
      {
        "_id": "7t85ovl0",
        "formula": "2",
        "operator": "+",
        "subTarget": "ac",
        "modifier": "dodge",
        "priority": 0,
        "value": 0,
        "target": "ac"
      }
    ],
    "contextNotes": [],
    "links": {
      "children": []
    },
    "armorProf": {
      "value": []
    },
    "weaponProf": {
      "value": []
    },
    "languages": {
      "value": ["common"],
      "custom": "Kasatha"
    },
    "flags": {
      "boolean": [],
      "dictionary": []
    },
    "scriptCalls": [],
    "subTypes": [["Kasatha"]]
  },
  "effects": [],
  "folder": null,
  "sort": 0,
  "permission": {
    "default": 0
  },
  "flags": {}
}
