{
  "_id": "jhh6z3NZlImHjZ8H",
  "name": "Munavri",
  "type": "race",
  "img": "systems/pf1/icons/spells/evil-eye-eerie-1.jpg",
  "data": {
    "description": {
      "value": "<h2>Standard Racial Traits</h2>\n<ul>\n<li style=\"box-sizing: border-box;\"><span style=\"box-sizing: border-box; font-weight: bold;\">–2 Strength, +4 Dexterity, +2 Constitution, +2 Intelligence, +2 Wisdom, +2 Charisma</span>: Descended from ancient humans who were forever changed by the harsh lands in the depths of the earth, munavris have exceptional abilities.</li>\n<li style=\"box-sizing: border-box;\"><span style=\"box-sizing: border-box; font-weight: bold;\">Medium</span>: Munavris are Medium creatures and have no bonuses or penalties due to their size.</li>\n<li style=\"box-sizing: border-box;\"><span style=\"box-sizing: border-box; font-weight: bold;\">Normal Speed</span>: Munavris have a base speed of 30 feet.</li>\n<li><strong>Languages:</strong> Munavris begin play speaking Munavri. Munavris with high&nbsp;<a href=\"https://www.d20pfsrd.com/basics-ability-scores/ability-scores/#Intelligence_Int\">Intelligence</a>&nbsp;scores can choose from the following: Aklo, Aboleth, Aquan, Dark Folk, Draconic, Terran, and Undercommon.</li>\n</ul>\n<h3>Defensive Racial Traits</h3>\n<ul>\n<li><strong>Spell Resistance:</strong> A munavri possesses an amount of spell resistance that’s equal to 8 + her total number of class levels.</li>\n</ul>\n<h3>Senses Racial Traits</h3>\n<ul>\n<li><strong>Senses:</strong> Munavris have darkvision 120 feet.</li>\n<li>\n<h4><strong><span id=\"Telepathy_Su\">Telepathy (Su): </span></strong>A munavri is able to mentally communicate with other munavris within 60 feet.</h4>\n</li>\n<li>\n<h4><strong>Light Blindness:</strong> As deep underground dwellers, munavris suffer from&nbsp;<a href=\"https://www.d20pfsrd.com/bestiary/rules-for-monsters/universal-monster-rules#TOC-Light-Blindness-Ex-\">light blindness</a>. Abrupt exposure to any bright light blinds munavris for 1 round. On subsequent rounds, they are dazzled as long as they remain in the affected area.</h4>\n</li>\n</ul>\n<h4>Other Racial Traits</h4>\n<ul>\n<li>\n<h4><strong><span id=\"Advanced_Object_Reading_Su\">Advanced Object Reading (Su):&nbsp;</span></strong>A munavri can instantly learn how to use almost any device. She can cast&nbsp;<a href=\"https://www.d20pfsrd.com/magic/all-spells/o/object-reading/\">object reading</a>&nbsp;at will, divining secrets of an object’s history and its use. Once per day, she can select one weapon, suit of&nbsp;<a href=\"https://www.d20pfsrd.com/basics-ability-scores/glossary#TOC-Armor-Bonus\">armor</a>, or spell-trigger item on which she has cast&nbsp;<a href=\"https://www.d20pfsrd.com/magic/all-spells/o/object-reading/\">object reading</a>. For a number of minutes that equal her level, she is considered proficient with that item, or can make use of the spell-trigger device as if she were a spellcaster of the appropriate class.</h4>\n</li>\n</ul>"
    },
    "tags": [],
    "changes": [
      {
        "_id": "e0sud2kn",
        "formula": "4",
        "operator": "+",
        "subTarget": "dex",
        "modifier": "racial",
        "priority": 0,
        "value": 0,
        "target": "ability"
      },
      {
        "_id": "qxvws820",
        "formula": "-2",
        "operator": "+",
        "subTarget": "str",
        "modifier": "racial",
        "priority": 0,
        "value": 0,
        "target": "ability"
      },
      {
        "_id": "9bjy0gc8",
        "formula": "2",
        "operator": "+",
        "subTarget": "con",
        "modifier": "racial",
        "priority": 0,
        "value": 0,
        "target": "ability"
      },
      {
        "_id": "kw0yjh4g",
        "formula": "2",
        "operator": "+",
        "subTarget": "int",
        "modifier": "racial",
        "priority": 0,
        "value": 0,
        "target": "ability"
      },
      {
        "_id": "b77hp7xb",
        "formula": "2",
        "operator": "+",
        "subTarget": "wis",
        "modifier": "racial",
        "priority": 0,
        "value": 0,
        "target": "ability"
      },
      {
        "_id": "5ipauh1s",
        "formula": "2",
        "operator": "+",
        "subTarget": "cha",
        "modifier": "racial",
        "priority": 0,
        "value": 0,
        "target": "ability"
      }
    ],
    "contextNotes": [],
    "links": {
      "children": []
    },
    "armorProf": {
      "value": []
    },
    "weaponProf": {
      "value": []
    },
    "languages": {
      "value": [],
      "custom": "Munavri"
    },
    "flags": {
      "boolean": [],
      "dictionary": []
    },
    "scriptCalls": [],
    "subTypes": [["Munavri"]]
  },
  "effects": [],
  "folder": null,
  "sort": 0,
  "permission": {
    "default": 0
  },
  "flags": {}
}
