{
  "_id": "vSOtYBySOG2Gt4Sb",
  "name": "Air Reservoir",
  "type": "loot",
  "img": "icons/containers/bags/coinpouch-leather-grey.webp",
  "data": {
    "description": {
      "value": "<p><strong>Source</strong> <em>Heroes of Golarion pg. 18</em></p><h3 class=\"framing\">Statistics</h3><p><strong>Cost</strong> 6 gp <strong>Weight</strong> -</p><p><strong>Category</strong> Ammunition; <strong>Proficiency</strong> Exotic</p><h3 class=\"framing\">Description</h3><p>A spare reservoir of compressed air comes with 6 pieces of ammunition to be used with an air repeater.</p>"
    },
    "tags": [],
    "price": 6,
    "equipped": false,
    "hp": {
      "max": "1",
      "value": "1"
    },
    "hardness": 5,
    "identifiedName": "Air Reservoir",
    "changes": [],
    "contextNotes": [],
    "links": {
      "children": []
    },
    "tag": "airReservoir",
    "flags": {
      "boolean": [],
      "dictionary": []
    },
    "scriptCalls": [],
    "subType": "ammo",
    "extraType": "gunBullet"
  },
  "effects": [],
  "folder": null,
  "sort": 0,
  "permission": {
    "default": 0
  },
  "flags": {}
}
