{
  "_id": "r7WH4o9CbuaVR2rh",
  "name": "Powder Horn",
  "type": "loot",
  "img": "icons/commodities/bones/horn-drinking-white.webp",
  "data": {
    "description": {
      "value": "<p><strong>Source</strong> <em>Ultimate Combat pg. 141</em></p><h3 class=\"framing\"><img src=\"https://www.aonprd.com/images/PathfinderSocietySymbol.gif\" title=\"PFS Legal\" style=\"margin:3px 3px 0px 3px;\">Statistics</h3><p><strong>Cost</strong> 3 gp <strong>Weight</strong> 1 lb.</p><p><strong>Category</strong> Ammunition; <strong>Proficiency</strong> Exotic</p><h3 class=\"framing\">Description</h3><p>Typically crafted from animal horn, but increasingly crafted from metal in a wide variety of shapes, a powder horn can hold up to 10 doses of black powder. A powder horn protects black powder stored within in it from exposure to fire, electricity, firearm misfires, and water.</p>"
    },
    "tags": [],
    "weight": 10,
    "price": 3,
    "equipped": false,
    "hp": {
      "max": "1",
      "value": "1"
    },
    "hardness": 5,
    "identifiedName": "Powder Horn",
    "changes": [],
    "contextNotes": [],
    "links": {
      "children": []
    },
    "tag": "powderHorn",
    "flags": {
      "boolean": [],
      "dictionary": []
    },
    "scriptCalls": []
  },
  "effects": [],
  "folder": null,
  "sort": 0,
  "permission": {
    "default": 0
  },
  "flags": {}
}
