{
  "_id": "cJV7OBm9KiF2WWiu",
  "name": "Sling",
  "type": "weapon",
  "img": "systems/pf1/icons/items/weapons/sling.png",
  "data": {
    "description": {
      "value": "<p><strong>Source</strong> <em>Ranged Tactics Toolbox pg. 0</em>, <em>PRPG Core Rulebook pg. 142</em>, <em>Ultimate Equipment pg. 17</em></p><h3 class=\"framing\"><img src=\"https://www.aonprd.com/images/PathfinderSocietySymbol.gif\" title=\"PFS Legal\" style=\"margin:3px 3px 0px 3px;\">Statistics</h3><p><strong>Cost</strong> - <strong>Weight</strong> -</p><p><strong>Damage</strong> 1d3 (small), 1d4 (medium); <strong>Critical</strong> x2; <strong>Range</strong> 50 ft.; <strong>Type</strong> B; <strong>Special</strong> -</p><p><strong>Category</strong> Ranged; <strong>Proficiency</strong> Simple</p><p><strong>Weapon Groups</strong> Thrown</p><h3 class=\"framing\">Description</h3><p>A sling is little more than a leather cup attached to a pair of strings. Your Strength modifier applies to damage rolls when you use a sling, just as it does for thrown weapons. You can fire, but not load, a sling with one hand. Loading a sling is a move action that requires two hands and provokes attacks of opportunity.</p><p></p><p> A sling fires sling bullets. You can hurl ordinary stones with a sling, but stones are not as dense or as round as bullets. Thus, such an attack deals damage as if the weapon were designed for a creature one size category smaller than you and you take a -1 penalty on attack rolls.</p>"
    },
    "tags": [],
    "hp": {
      "max": "5",
      "value": "5"
    },
    "hardness": 5,
    "identifiedName": "Sling",
    "changes": [],
    "actions": [
      {
        "_id": "m3cfkog7o9algr1t",
        "name": "Attack",
        "img": "systems/pf1/icons/items/weapons/sling.png",
        "description": "",
        "activation": {
          "cost": 1,
          "type": "attack"
        },
        "unchainedAction": {
          "activation": {
            "cost": 1,
            "type": ""
          }
        },
        "duration": {
          "value": null,
          "units": "inst"
        },
        "target": {
          "value": ""
        },
        "range": {
          "value": "50",
          "units": "ft",
          "maxIncrements": 1,
          "minValue": null,
          "minUnits": ""
        },
        "uses": {
          "autoDeductCharges": true,
          "autoDeductChargesCost": "1",
          "per": "",
          "value": 0,
          "maxFormula": ""
        },
        "measureTemplate": {
          "type": "",
          "size": "",
          "overrideColor": false,
          "customColor": "",
          "overrideTexture": false,
          "customTexture": ""
        },
        "attackName": "",
        "actionType": "rwak",
        "attackBonus": "",
        "critConfirmBonus": "",
        "damage": {
          "parts": [
            [
              "sizeRoll(1, 4, @size)",
              {
                "values": ["bludgeoning"],
                "custom": ""
              }
            ]
          ],
          "critParts": [],
          "nonCritParts": []
        },
        "attackParts": [],
        "formulaicAttacks": {
          "count": {
            "formula": "min(3, ceil(@attributes.bab.total / 5) - 1)"
          },
          "bonus": {
            "formula": "@formulaicAttack * -5"
          },
          "label": null
        },
        "formula": "",
        "ability": {
          "attack": "dex",
          "damage": "str",
          "damageMult": 1,
          "critRange": 20,
          "critMult": 2
        },
        "save": {
          "dc": "0",
          "type": "",
          "description": ""
        },
        "effectNotes": [],
        "attackNotes": [],
        "soundEffect": "",
        "powerAttack": {
          "multiplier": "",
          "damageBonus": 2,
          "critMultiplier": 1
        },
        "naturalAttack": {
          "secondary": {
            "attackBonus": "-5",
            "damageMult": 0.5
          }
        },
        "nonlethal": false,
        "usesAmmo": true,
        "spellEffect": "",
        "spellArea": "",
        "conditionals": [],
        "enh": {
          "override": false,
          "value": 0
        }
      }
    ],
    "uses": {
      "per": ""
    },
    "attackNotes": [],
    "effectNotes": [],
    "contextNotes": [],
    "links": {
      "children": []
    },
    "tag": "sling",
    "scriptCalls": [],
    "weaponGroups": {
      "value": ["thrown"]
    },
    "weaponSubtype": "ranged",
    "ammoType": "slingBullet"
  },
  "effects": [],
  "folder": null,
  "sort": 0,
  "permission": {
    "default": 0
  },
  "flags": {}
}
