{
  "_id": "JRfUcNzydUeBm76p",
  "name": "Spear-Sling",
  "type": "weapon",
  "img": "systems/pf1/icons/items/weapons/spear-sling.PNG",
  "data": {
    "description": {
      "value": "<p><strong>Source</strong> <em>Ranged Tactics Toolbox pg. 18</em></p><h3 class=\"framing\"><img src=\"https://www.aonprd.com/images/PathfinderSocietySymbol.gif\" title=\"PFS Legal\" style=\"margin:3px 3px 0px 3px;\">Statistics</h3><p><strong>Cost</strong> 50 gp <strong>Weight</strong> 2 lbs.</p><p><strong>Damage</strong> 1d6 (small), 1d8 (medium); <strong>Critical</strong> x3; <strong>Range</strong> see text; <strong>Type</strong> P; <strong>Special</strong> see text</p><p><strong>Category</strong> Ranged; <strong>Proficiency</strong> Martial</p><h3 class=\"framing\">Description</h3><p>A spear-sling consists of a hollow tube with a loop of elastic material, such as rubber or sinew, attached to one end. The wielder draws a harpoon, javelin, shortspear, or spear through the tube, pulling the loop taut. Releasing the loop propels the shaft forward like a bow does an arrow. A harpoon, javelin, shortspear, spear, or other weapon shot from a spear-sling is treated as a projectile weapon instead of a thrown weapon, increasing its maximum range and allowing it to be used underwater. Using a spear-sling requires two hands. Loading a spear-sling is a standard action (a move action if the wielder has the Rapid Reload feat) that provokes attacks of opportunity.</p><p></p><p> A spear-sling is made with a particular strength rating, like a composite longbow. Each point of Strength bonus granted by the sling's strength rating adds 50 gp to its cost. If you have a negative Strength modifier, apply it to damage rolls when you use a spear-sling.</p>"
    },
    "tags": [],
    "weight": 2,
    "price": 50,
    "hp": {
      "max": "5",
      "value": "5"
    },
    "hardness": 5,
    "identifiedName": "Spear-Sling",
    "changes": [],
    "actions": [
      {
        "_id": "ej3puu9x4qjl4ksq",
        "name": "Attack",
        "img": "systems/pf1/icons/items/weapons/spear-sling.PNG",
        "description": "",
        "activation": {
          "cost": 1,
          "type": "attack"
        },
        "unchainedAction": {
          "activation": {
            "cost": 1,
            "type": ""
          }
        },
        "duration": {
          "value": null,
          "units": "inst"
        },
        "target": {
          "value": ""
        },
        "range": {
          "value": "0",
          "units": "ft",
          "maxIncrements": 1,
          "minValue": null,
          "minUnits": ""
        },
        "uses": {
          "autoDeductCharges": true,
          "autoDeductChargesCost": "1",
          "per": "",
          "value": 0,
          "maxFormula": ""
        },
        "measureTemplate": {
          "type": "",
          "size": "",
          "overrideColor": false,
          "customColor": "",
          "overrideTexture": false,
          "customTexture": ""
        },
        "attackName": "",
        "actionType": "rwak",
        "attackBonus": "",
        "critConfirmBonus": "",
        "damage": {
          "parts": [
            [
              "sizeRoll(1, 8, @size) + min(@abilities.str.mod, 0)",
              {
                "values": ["piercing"],
                "custom": ""
              }
            ]
          ],
          "critParts": [],
          "nonCritParts": []
        },
        "attackParts": [],
        "formulaicAttacks": {
          "count": {
            "formula": "min(3, ceil(@attributes.bab.total / 5) - 1)"
          },
          "bonus": {
            "formula": "@formulaicAttack * -5"
          },
          "label": null
        },
        "formula": "",
        "ability": {
          "attack": "dex",
          "damage": "",
          "damageMult": 1,
          "critRange": 20,
          "critMult": 3
        },
        "save": {
          "dc": "0",
          "type": "",
          "description": ""
        },
        "effectNotes": [],
        "attackNotes": [],
        "soundEffect": "",
        "powerAttack": {
          "multiplier": "",
          "damageBonus": 2,
          "critMultiplier": 1
        },
        "naturalAttack": {
          "secondary": {
            "attackBonus": "-5",
            "damageMult": 0.5
          }
        },
        "nonlethal": false,
        "usesAmmo": false,
        "spellEffect": "",
        "spellArea": "",
        "conditionals": [],
        "enh": {
          "override": false,
          "value": 0
        }
      }
    ],
    "uses": {
      "per": ""
    },
    "attackNotes": [],
    "effectNotes": [],
    "contextNotes": [],
    "links": {
      "children": []
    },
    "tag": "spearsling",
    "scriptCalls": [],
    "weaponGroups": {
      "value": ["spears"]
    },
    "weaponType": "martial",
    "weaponSubtype": "ranged"
  },
  "effects": [],
  "folder": null,
  "sort": 0,
  "permission": {
    "default": 0
  },
  "flags": {}
}
