{
  "_id": "li01iaRoxd4PAmhD",
  "name": "Waveblade",
  "type": "weapon",
  "img": "systems/pf1/icons/items/weapons/waveblade.png",
  "data": {
    "description": {
      "value": "<p><strong>Source</strong> <em>Adventurer's Armory 2 pg. 9</em></p><h3 class=\"framing\">Statistics</h3><p><strong>Cost</strong> 5 gp <strong>Weight</strong> 2 lbs.</p><p><strong>Damage</strong> 1d4 (small), 1d6 (medium); <strong>Critical</strong> 18-20/x2; <strong>Range</strong> -; <strong>Type</strong> P or S; <strong>Special</strong> monk, see text</p><p><strong>Category</strong> Light; <strong>Proficiency</strong> Exotic</p><p><strong>Weapon Groups</strong> Close</p><h3 class=\"framing\">Description</h3><p>Also known as a \"scorpion's tail\" due to its unique, stinger-like shape, this short, double-curved blade has no hilt but features a knuckle guard. You gain a +2 bonus to your CMD against disarm attempts made to disarm you of a waveblade.</p>"
    },
    "tags": [],
    "weight": 2,
    "price": 5,
    "hp": {
      "max": "2",
      "value": "2"
    },
    "hardness": 10,
    "identifiedName": "Waveblade",
    "changes": [],
    "actions": [
      {
        "_id": "fieq0xa5ljgbu42p",
        "name": "Attack",
        "img": "systems/pf1/icons/items/weapons/waveblade.png",
        "description": "",
        "activation": {
          "cost": 1,
          "type": "attack"
        },
        "unchainedAction": {
          "activation": {
            "cost": 1,
            "type": ""
          }
        },
        "duration": {
          "value": null,
          "units": "inst"
        },
        "target": {
          "value": ""
        },
        "range": {
          "value": 0,
          "units": "melee",
          "maxIncrements": 1,
          "minValue": null,
          "minUnits": ""
        },
        "uses": {
          "autoDeductCharges": true,
          "autoDeductChargesCost": "1",
          "per": "",
          "value": 0,
          "maxFormula": ""
        },
        "measureTemplate": {
          "type": "",
          "size": "",
          "overrideColor": false,
          "customColor": "",
          "overrideTexture": false,
          "customTexture": ""
        },
        "attackName": "",
        "actionType": "mwak",
        "attackBonus": "",
        "critConfirmBonus": "",
        "damage": {
          "parts": [
            [
              "sizeRoll(1, 6, @size)",
              {
                "values": ["piercing", "slashing"],
                "custom": ""
              }
            ]
          ],
          "critParts": [],
          "nonCritParts": []
        },
        "attackParts": [],
        "formulaicAttacks": {
          "count": {
            "formula": "min(3, ceil(@attributes.bab.total / 5) - 1)"
          },
          "bonus": {
            "formula": "@formulaicAttack * -5"
          },
          "label": null
        },
        "formula": "",
        "ability": {
          "attack": "str",
          "damage": "str",
          "damageMult": 1,
          "critRange": 18,
          "critMult": 2
        },
        "save": {
          "dc": "0",
          "type": "",
          "description": ""
        },
        "effectNotes": [],
        "attackNotes": [],
        "soundEffect": "",
        "powerAttack": {
          "multiplier": "",
          "damageBonus": 2,
          "critMultiplier": 1
        },
        "naturalAttack": {
          "secondary": {
            "attackBonus": "-5",
            "damageMult": 0.5
          }
        },
        "nonlethal": false,
        "usesAmmo": false,
        "spellEffect": "",
        "spellArea": "",
        "conditionals": [],
        "enh": {
          "override": false,
          "value": 0
        }
      }
    ],
    "uses": {
      "per": ""
    },
    "attackNotes": [],
    "effectNotes": [],
    "contextNotes": [],
    "links": {
      "children": []
    },
    "tag": "waveblade",
    "scriptCalls": [],
    "weaponGroups": {
      "value": ["close"]
    },
    "weaponType": "exotic"
  },
  "effects": [],
  "folder": null,
  "sort": 0,
  "permission": {
    "default": 0
  },
  "flags": {}
}
