{
  "_id": "bugjpeyrugtlhdrr",
  "name": "Alchemical Glue Accelerant",
  "type": "loot",
  "img": "systems/pf1/icons/items/inventory/dice.jpg",
  "data": {
    "description": {
      "value": "\r\n<p><b>Price</b> 25 gp; <b>Weight</b> -</p>\r\n<p>This tiny dropper contains a liquid that speeds up the cure time of alchemical glue. Applying the accelerant is a standard action. Accelerated glue is tacky after 1 round and fully cured in 1 minute. The dropper contains 20 doses; each dose is sufficient to cure one small application of alchemical glue. The entire dropper must be used to cure a full square foot of glue.</p>\r\n"
    },
    "tags": [],
    "price": 25,
    "equipped": false,
    "changes": [],
    "contextNotes": [],
    "links": {
      "children": []
    },
    "flags": {
      "boolean": [],
      "dictionary": []
    },
    "scriptCalls": [],
    "subType": "gear"
  },
  "effects": [],
  "folder": null,
  "sort": 0,
  "permission": {
    "default": 0
  },
  "flags": {}
}
