{
  "_id": "QBpJ0OlvJhdYUzJj",
  "name": "Ball (5 in)",
  "type": "loot",
  "img": "systems/pf1/icons/items/inventory/dice.jpg",
  "data": {
    "description": {
      "value": "<p><span id=\"ctl00_MainContent_DataListTypes_ctl00_LabelName\">Source&nbsp;<a href=\"http://paizo.com/products/btpy8tmc?Pathfinder-Roleplaying-Game-Ultimate-Equipment\" target=\"_blank\" rel=\"noopener\">Ultimate Equipment pg. 92</a><br>Price&nbsp;6 gp (10 in.), 8 cp (2 in.), 2 sp (5 in.);&nbsp;Weight&nbsp;1 lb. (10 in.), — (2 in.), — (5 in.)</span></p>\n<h3>Description</h3>\n<p>This ball may be an inflated animal bladder, carved from light wood, fabric stuffed with cloth or plant fiber and sewn shut.</p>"
    },
    "tags": [],
    "price": 0.2,
    "equipped": false,
    "identifiedName": "Ball (5 in)",
    "changes": [],
    "contextNotes": [],
    "links": {
      "children": []
    },
    "flags": {
      "boolean": [],
      "dictionary": []
    },
    "scriptCalls": [],
    "subType": "gear"
  },
  "effects": [],
  "folder": null,
  "sort": 0,
  "permission": {
    "default": 0
  },
  "flags": {}
}
