{
  "_id": "qdyvrjjqsrjhgway",
  "name": "Barbarian Chew",
  "type": "loot",
  "img": "systems/pf1/icons/items/inventory/dice.jpg",
  "data": {
    "description": {
      "value": "\r\n<p class=\"source\"><b>Source</b> <a title=\"PZO9410\" href=\"http://www.amazon.com/gp/product/1601252226/ref=as_li_qf_sp_asin_il_tl?ie=UTF8&amp;camp=1789&amp;creative=9325&amp;creativeASIN=1601252226&amp;linkCode=as2&amp;tag=httpwwwd20pfs-20\" target=\"_blank\" rel=\"noopener\">PZO9410</a></p>\r\n<p>This bitter red chew comes from dried leaves of a stunted bush found in northern climates. It stains the teeth dark crimson but also increases the duration of <a href=\"https://www.d20pfsrd.com/classes/core-classes/barbarian\">barbarian</a> <a href=\"https://www.d20pfsrd.com/classes/core-classes/barbarian#TOC-Rage-Ex-\">rage</a> entered into during the next hour by 1 round.</p>\r\n"
    },
    "tags": [],
    "price": 1,
    "equipped": false,
    "changes": [],
    "contextNotes": [],
    "links": {
      "children": []
    },
    "flags": {
      "boolean": [],
      "dictionary": []
    },
    "scriptCalls": [],
    "subType": "gear"
  },
  "effects": [],
  "folder": null,
  "sort": 0,
  "permission": {
    "default": 0
  },
  "flags": {}
}
