{
  "_id": "inldkkumiyknanfv",
  "name": "Basket",
  "type": "loot",
  "img": "systems/pf1/icons/items/inventory/dice.jpg",
  "data": {
    "description": {
      "value": " \n<p class=\"source\"><b>Source</b> <a title=\"PZO1110\" href=\"http://www.amazon.com/gp/product/1601251505/ref=as_li_qf_sp_asin_il_tl?ie=UTF8&amp;camp=1789&amp;creative=9325&amp;creativeASIN=1601251505&amp;linkCode=as2&amp;tag=httpwwwd20pfs-20\" target=\"_blank\" rel=\"noopener\">PZO1110</a></p> \n<p>A common basket is constructed of wicker and holds 2 cubic ft. or 20 lbs. of materials.</p> \n<p><b>Empty Weight</b>: 1 lb.; <b>Capacity</b>: 2 cubic ft./20 lb.</p> \n"
    },
    "tags": [],
    "weight": 1,
    "price": 0.4,
    "equipped": false,
    "changes": [],
    "contextNotes": [],
    "links": {
      "children": []
    },
    "flags": {
      "boolean": [],
      "dictionary": []
    },
    "scriptCalls": [],
    "subType": "gear"
  },
  "effects": [],
  "folder": null,
  "sort": 0,
  "permission": {
    "default": 0
  },
  "flags": {}
}
