{
  "_id": "bjrlxzytqzpfagsi",
  "name": "Beast Scent",
  "type": "loot",
  "img": "systems/pf1/icons/items/inventory/dice.jpg",
  "data": {
    "description": {
      "value": "\r\n<p class=\"source\"><b>Source</b> <a href=\"http://www.amazon.com/gp/product/1601251785/ref=as_li_qf_sp_asin_il_tl?ie=UTF8&amp;camp=1789&amp;creative=9325&amp;creativeASIN=1601251785&amp;linkCode=as2&amp;tag=httpwwwd20pfs-20&amp;linkId=WA6YCOA7XQTPTTUB\" target=\"_blank\" rel=\"noopener\">PZO9211</a></p>\r\n<p>This is a mixture of scent gland extracts and aromatic herbs that serves as both attractor and olfactory camouflage. It masks the natural scent of a creature with an appealing if pungent musk that is alluring to most animals. Beast-scent provides a +2 <a href=\"https://www.d20pfsrd.com/basics-ability-scores/glossary#TOC-Circumstance-Bonus\">circumstance bonus</a> to <a href=\"https://www.d20pfsrd.com/skills/handle-animal\">Handle Animal</a> and <a href=\"https://www.d20pfsrd.com/classes/core-classes/druid#TOC-Wild-Empathy-Ex-\">wild empathy</a> checks and a -5 penalty to attempts to track the wearer by his original scent. If the tracking creature is following the smell of beast-scent itself, track checks are made at a +10 <a href=\"https://www.d20pfsrd.com/basics-ability-scores/glossary#TOC-Circumstance-Bonus\">circumstance bonus</a> instead. A single vial of beast-scent masks the scent of one Medium creature or two smaller creatures; larger creatures require proportionally more to gain the item's benefits. Beast-scent is rendered inert after 1 hour of exposure to air. Applying a vial is a <a href=\"https://www.d20pfsrd.com/gamemastering/combat#TOC-Full-Round-Actions\">full-round action</a> that provokes <a href=\"https://www.d20pfsrd.com/gamemastering/combat#TOC-Attacks-of-Opportunity\">attacks of opportunity</a>.</p>\r\n<p><b>Create</b>: <a href=\"https://www.d20pfsrd.com/skills/craft\">Craft</a> (alchemy) DC 25</p>\r\n"
    },
    "tags": [],
    "weight": 0.5,
    "price": 75,
    "equipped": false,
    "changes": [],
    "contextNotes": [],
    "links": {
      "children": []
    },
    "flags": {
      "boolean": [],
      "dictionary": []
    },
    "scriptCalls": [],
    "subType": "gear"
  },
  "effects": [],
  "folder": null,
  "sort": 0,
  "permission": {
    "default": 0
  },
  "flags": {}
}
