{
  "_id": "hhprblxrbmqvoine",
  "name": "Compass",
  "type": "loot",
  "img": "systems/pf1/icons/items/inventory/dice.jpg",
  "data": {
    "description": {
      "value": "<h4><span id=\"Compass\"><a name=\"TOC-Compass\"></a>Compass</span></h4>\r\n<p class=\"source\"><b>Source</b> <a title=\"PZO1115\" href=\"http://www.amazon.com/gp/product/1601252463/ref=as_li_qf_sp_asin_il_tl?ie=UTF8&amp;camp=1789&amp;creative=9325&amp;creativeASIN=1601252463&amp;linkCode=as2&amp;tag=httpwwwd20pfs-20\" target=\"_blank\" rel=\"noopener\">PZO1115</a></p>\r\n<p><b>Price</b> 10 gp; <b>Weight</b> 1/2 lb.</p>\r\n<p>An ordinary compass that points to the magnetic north pole grants you a +2 circumstance bonus on Survival checks made to avoid becoming lost. You can also use it to grant the same bonus on <a href=\"https://www.d20pfsrd.com/skills/knowledge\">Knowledge</a> (dungeoneering) checks made to navigate underground.</p>\r\n"
    },
    "tags": [],
    "weight": 0.5,
    "price": 10,
    "equipped": false,
    "changes": [],
    "contextNotes": [],
    "links": {
      "children": []
    },
    "flags": {
      "boolean": [],
      "dictionary": []
    },
    "scriptCalls": [],
    "subType": "gear"
  },
  "effects": [],
  "folder": null,
  "sort": 0,
  "permission": {
    "default": 0
  },
  "flags": {}
}
