{
  "_id": "sjqnroghnkyfpqgz",
  "name": "Crowbar",
  "type": "loot",
  "img": "systems/pf1/icons/items/inventory/dice.jpg",
  "data": {
    "description": {
      "value": "\r\n<p><b>Price</b> 2 gp; <b>Weight</b> 5 lbs.</p>\r\n<p>This versatile tool is designed to help pry open whatever the user desires. A crowbar grants a +2 circumstance bonus on Strength checks made to force open a door or chest. If it is used in combat, treat a crowbar as a one-handed improvised weapon that deals bludgeoning damage equal to that of a club of its size.</p>\r\n\r\n"
    },
    "tags": [],
    "weight": 5,
    "price": 2,
    "equipped": false,
    "changes": [],
    "contextNotes": [],
    "links": {
      "children": []
    },
    "flags": {
      "boolean": [],
      "dictionary": []
    },
    "scriptCalls": [],
    "subType": "gear"
  },
  "effects": [],
  "folder": null,
  "sort": 0,
  "permission": {
    "default": 0
  },
  "flags": {}
}
