{
  "_id": "iq0zFnc5LMWnbOZd",
  "name": "Crystal Ball (Telepathy)",
  "type": "consumable",
  "img": "icons/commodities/gems/pearl-glass-purple.webp",
  "data": {
    "description": {
      "value": "<p><span id=\"ctl00_MainContent_DataListTypes_ctl00_LabelName\">This is the most common form of scrying device, a crystal sphere about 6 inches in diameter. So well-known are these items that many so-called oracles or fortune-tellers use similar appearing (but completely nonmagical) replicas of these items to ply their trades. A character can use a magical crystal ball to see over virtually any distance or into other planes of existence, as with the spell&nbsp;@Compendium[pf1.spells.g66w32kdup1f43bp]{Scrying}<em> </em>(Will DC 16 negates). A crystal ball can be used multiple times per day, but the DC to resist its power decreases by 1 for each additional use. Certain crystal balls have additional powers that can be used through the crystal ball on the target viewed.</span></p>\n<p>While looking through the crystal ball, you are affected by @Compendium[pf1.spells.lovx4kiq18gbvg4e]{Telepathy}. In addition, you can implant a @Compendium[pf1.spells.zqj5qzyl46af27v0]{Suggestion} in the subject once per day (Will DC [[10[Base] + 2[SL] + 2[CAM]]] negates) on the subject.</p>"
    },
    "tags": [],
    "weight": 7,
    "price": 70000,
    "hp": {
      "max": "10",
      "value": "10"
    },
    "unidentified": {
      "name": "Crystal Ball"
    },
    "identifiedName": "Crystal Ball (Telepathy)",
    "cl": 10,
    "aura": {
      "school": "div"
    },
    "actions": [
      {
        "_id": "xwo3byv7wrj8ovcd",
        "name": "Use",
        "img": "icons/commodities/gems/pearl-glass-purple.webp",
        "description": "",
        "activation": {
          "cost": 1,
          "type": "standard"
        },
        "unchainedAction": {
          "activation": {
            "cost": 1,
            "type": ""
          }
        },
        "duration": {
          "value": "@item.cl",
          "units": "minute"
        },
        "target": {
          "value": ""
        },
        "range": {
          "value": null,
          "units": "seeText",
          "maxIncrements": 1,
          "minValue": null,
          "minUnits": ""
        },
        "uses": {
          "autoDeductCharges": true,
          "autoDeductChargesCost": "1",
          "per": "",
          "value": 0,
          "maxFormula": "",
          "pricePerUse": 0
        },
        "measureTemplate": {
          "type": "",
          "size": "",
          "overrideColor": false,
          "customColor": "",
          "overrideTexture": false,
          "customTexture": ""
        },
        "attackName": "",
        "actionType": "spellsave",
        "attackBonus": "",
        "critConfirmBonus": "",
        "damage": {
          "parts": [],
          "critParts": [],
          "nonCritParts": []
        },
        "attackParts": [],
        "formulaicAttacks": {
          "count": {
            "formula": ""
          },
          "bonus": {
            "formula": ""
          },
          "label": null
        },
        "formula": "",
        "ability": {
          "attack": null,
          "damage": "",
          "damageMult": 1,
          "critRange": 20,
          "critMult": 2
        },
        "save": {
          "dc": "10[Base] + 4[SL] + 2[CAM]",
          "type": "will",
          "description": "Will negates"
        },
        "effectNotes": [],
        "attackNotes": [],
        "soundEffect": "",
        "powerAttack": {
          "multiplier": "",
          "damageBonus": 2,
          "critMultiplier": 1
        },
        "naturalAttack": {
          "secondary": {
            "attackBonus": "-5",
            "damageMult": 0.5
          }
        },
        "attackType": "weapon",
        "nonlethal": false,
        "usesAmmo": false,
        "spellEffect": "",
        "spellArea": "",
        "conditionals": [],
        "enh": {
          "override": false,
          "value": 0
        }
      }
    ],
    "uses": {
      "per": ""
    },
    "attackNotes": [],
    "effectNotes": [],
    "links": {
      "children": [],
      "charges": []
    },
    "scriptCalls": [],
    "consumableType": "misc"
  },
  "effects": [],
  "folder": null,
  "sort": 0,
  "permission": {
    "default": 0
  },
  "flags": {}
}
