{
  "_id": "vhbvnkbeygjwnmuq",
  "name": "Elemental Breath",
  "type": "loot",
  "img": "systems/pf1/icons/items/inventory/dice.jpg",
  "data": {
    "description": {
      "value": "\r\n<p class=\"source\"><b>Source</b> <a title=\"PZO1121\" href=\"http://www.amazon.com/gp/product/1601253907/ref=as_li_qf_sp_asin_il_tl?ie=UTF8&amp;camp=1789&amp;creative=9325&amp;creativeASIN=1601253907&amp;linkCode=as2&amp;tag=httpwwwd20pfs-20\" target=\"_blank\" rel=\"noopener\">PZO1121</a></p>\r\n<p>This vial at first seems to be empty, but when it's opened, a rush of wind issues forth from within. When elemental breath is inhaled (as drinking a <a class=\"magic-item\" href=\"https://www.d20pfsrd.com/magic-items/potions\">potion</a>) by an air-breathing creature, that creature does not need to breath air for 10 rounds. A vial of elemental breath must be inhaled on the round it was opened to gain this effect. If it is not, the item is wasted.</p>\r\n"
    },
    "tags": [],
    "weight": 0.5,
    "price": 80,
    "equipped": false,
    "changes": [],
    "contextNotes": [],
    "links": {
      "children": []
    },
    "flags": {
      "boolean": [],
      "dictionary": []
    },
    "scriptCalls": [],
    "subType": "gear"
  },
  "effects": [],
  "folder": null,
  "sort": 0,
  "permission": {
    "default": 0
  },
  "flags": {}
}
