{
  "_id": "rmkzxxrkxdqykzwm",
  "name": "Eyeglasses",
  "type": "loot",
  "img": "systems/pf1/icons/items/inventory/dice.jpg",
  "data": {
    "description": {
      "value": " \n<p class=\"source\"><b>Source</b> <a title=\"PZO9410\" href=\"http://www.amazon.com/gp/product/1601252226/ref=as_li_qf_sp_asin_il_tl?ie=UTF8&amp;camp=1789&amp;creative=9325&amp;creativeASIN=1601252226&amp;linkCode=as2&amp;tag=httpwwwd20pfs-20\" target=\"_blank\" rel=\"noopener\">PZO9410</a></p> \n<p>Also known as spectacles, eyeglasses compensate for poor vision or magnify small details.</p> \n"
    },
    "tags": [],
    "price": 5,
    "equipped": false,
    "changes": [],
    "contextNotes": [],
    "links": {
      "children": []
    },
    "flags": {
      "boolean": [],
      "dictionary": []
    },
    "scriptCalls": [],
    "subType": "gear"
  },
  "effects": [],
  "folder": null,
  "sort": 0,
  "permission": {
    "default": 0
  },
  "flags": {}
}
