{
  "_id": "ygmrcisvftnvjyob",
  "name": "Flint And Steel",
  "type": "loot",
  "img": "icons/commodities/stone/rock-chunk-grey.webp",
  "data": {
    "description": {
      "value": "<p>Lighting a <a href=\"https://www.d20pfsrd.com/equipment/goods-and-services/hunting-camping-survival-geaR/#TOC-Torch\">torch</a> with a <a href=\"https://www.d20pfsrd.com/equipment/goods-and-services/hunting-camping-survival-geaR/#TOC-Flint-and-Steel\">flint and steel</a> is a full-round action. Lighting any other fire with them takes at least that long.</p>"
    },
    "tags": [],
    "price": 1,
    "equipped": false,
    "identifiedName": "Flint And Steel",
    "changes": [],
    "contextNotes": [],
    "links": {
      "children": []
    },
    "flags": {
      "boolean": [],
      "dictionary": []
    },
    "scriptCalls": [],
    "subType": "gear"
  },
  "effects": [],
  "folder": null,
  "sort": 0,
  "permission": {
    "default": 0
  },
  "flags": {}
}
