{
  "_id": "3cF2AyPBjbB8ckon",
  "name": "Formula Book",
  "type": "loot",
  "img": "systems/pf1/icons/items/inventory/book-folder.jpg",
  "data": {
    "description": {
      "value": "<p>Source&nbsp;<a href=\"http://paizo.com/products/btpy8tmc?Pathfinder-Roleplaying-Game-Ultimate-Equipment\" target=\"_blank\" rel=\"noopener\">Ultimate Equipment pg. 77</a><br />Price&nbsp;15 gp;&nbsp;Weight&nbsp;3 lbs.<br />Category&nbsp;Tools</p>\n<h3>Description</h3>\n<p>A formula book has 100 pages of parchment, and each alchemical extract formula takes up one page per extract level. A newly purchased formula book contains no extract formulas. An alchemist character begins play with a formula book containing the extract formulae he knows (Advanced Player&rsquo;s Guide&nbsp;32). This is the alchemist equivalent of a spellbook for wizards (a spellbook and a formula book are essentially the same item).</p>"
    },
    "tags": [],
    "weight": 3,
    "price": 15,
    "equipped": false,
    "identifiedName": "Formula Book",
    "changes": [],
    "contextNotes": [],
    "links": {
      "children": []
    },
    "flags": {
      "boolean": [],
      "dictionary": []
    },
    "scriptCalls": [],
    "subType": "gear"
  },
  "effects": [],
  "folder": null,
  "sort": 0,
  "permission": {
    "default": 0
  },
  "flags": {}
}
