{
  "_id": "vqwyugaticvrbzhn",
  "name": "Garlic",
  "type": "loot",
  "img": "systems/pf1/icons/items/inventory/dice.jpg",
  "data": {
    "description": {
      "value": "\r\n<p class=\"source\"><b>Source</b> <a title=\"PZO9410\" href=\"http://www.amazon.com/gp/product/1601252226/ref=as_li_qf_sp_asin_il_tl?ie=UTF8&amp;camp=1789&amp;creative=9325&amp;creativeASIN=1601252226&amp;linkCode=as2&amp;tag=httpwwwd20pfs-20\" target=\"_blank\" rel=\"noopener\">PZO9410</a></p>\r\n<p>These pungent white cloves serve as food and medicine and play a role in many traditional cleansing rituals. It is well established that <a href=\"https://www.d20pfsrd.com/bestiary/monster-listings/undead/vampire\">vampires</a> cannot abide the presence of garlic (<a href=\"https://www.d20pfsrd.com/bestiary/monster-listings/undead/vampire\">vampires</a> cannot tolerate the strong odor of garlic and will not enter an area laced with it.)</p>\r\n"
    },
    "tags": [],
    "weight": 1,
    "price": 0.1,
    "equipped": false,
    "changes": [],
    "contextNotes": [],
    "links": {
      "children": []
    },
    "flags": {
      "boolean": [],
      "dictionary": []
    },
    "scriptCalls": [],
    "subType": "gear"
  },
  "effects": [],
  "folder": null,
  "sort": 0,
  "permission": {
    "default": 0
  },
  "flags": {}
}
