{
  "_id": "3jgVeXbVIQdRutRM",
  "name": "Headband of Alluring Charisma +6",
  "type": "equipment",
  "img": "systems/pf1/icons/items/equipment/belt-gems.jpg",
  "data": {
    "description": {
      "value": "<p>This attractive silver headband is decorated with a number of small red and orange gemstones.</p>\n<p>The headband grants the wearer an&nbsp;<a href=\"https://www.d20pfsrd.com/basics-ability-scores/glossary#TOC-Enhancement-Bonus\">enhancement bonus</a>&nbsp;to&nbsp;<a href=\"https://www.d20pfsrd.com/basics-ability-scores/ability-scores#TOC-Charisma-Cha-\">Charisma</a>&nbsp;of +2, +4, or +6. Treat this as a temporary ability bonus for the first 24 hours the headband is worn.</p>",
      "unidentified": "<p>This attractive silver headband is decorated with a number of small red and orange gemstones.</p>"
    },
    "tags": [],
    "weight": 1,
    "price": 36000,
    "resizing": true,
    "unidentified": {
      "name": "Headband"
    },
    "identifiedName": "Headband of Alluring Charisma +6",
    "cl": 8,
    "aura": {
      "school": "trs"
    },
    "changes": [
      {
        "_id": "s6fkgl9n",
        "formula": "6",
        "operator": "add",
        "subTarget": "cha",
        "modifier": "enh",
        "priority": 0,
        "value": 0,
        "target": "ability"
      }
    ],
    "contextNotes": [],
    "actions": [],
    "attackNotes": [],
    "effectNotes": [],
    "links": {
      "children": [],
      "charges": []
    },
    "flags": {
      "boolean": [],
      "dictionary": []
    },
    "scriptCalls": [],
    "equipmentType": "misc",
    "equipmentSubtype": "wondrous",
    "slot": "headband"
  },
  "effects": [],
  "folder": null,
  "sort": 0,
  "permission": {
    "default": 0
  },
  "flags": {}
}
