{
  "_id": "crpfyeicgzylaedv",
  "name": "Incense, Scentbane",
  "type": "loot",
  "img": "systems/pf1/icons/items/inventory/dice.jpg",
  "data": {
    "description": {
      "value": "\r\n<p class=\"source\"><b>Source</b> <a title=\"PZO1121\" href=\"http://www.amazon.com/gp/product/1601253907/ref=as_li_qf_sp_asin_il_tl?ie=UTF8&amp;camp=1789&amp;creative=9325&amp;creativeASIN=1601253907&amp;linkCode=as2&amp;tag=httpwwwd20pfs-20\" target=\"_blank\" rel=\"noopener\">PZO1121</a></p>\r\n<p>Scentbane incense is a form of <a href=\"https://www.d20pfsrd.com/equipment/goods-and-services/hunting-camping-survival-geaR/#TOC-Smokestick\">smokestick</a> that also blocks most scents. As long as the smoke lasts, creatures with the <a href=\"https://www.d20pfsrd.com/gamemastering/special-abilities#TOC-Scent\">scent</a> special ability must make <a href=\"https://www.d20pfsrd.com/skills/perception\">Perception</a> checks, opposed by the <a href=\"https://www.d20pfsrd.com/skills/stealth\">Stealth</a> checks of any creatures within the smoke, to use <a href=\"https://www.d20pfsrd.com/gamemastering/special-abilities#TOC-Scent\">scent</a> to locate creatures within the smoke. If a creature remains in scentbane incense for 5 rounds or more, the smoke clings to it for 1 round after it leaves, making it similarly difficult to find by <a href=\"https://www.d20pfsrd.com/gamemastering/special-abilities#TOC-Scent\">scent</a> during that time.</p>\r\n"
    },
    "tags": [],
    "price": 80,
    "equipped": false,
    "changes": [],
    "contextNotes": [],
    "links": {
      "children": []
    },
    "flags": {
      "boolean": [],
      "dictionary": []
    },
    "scriptCalls": [],
    "subType": "gear"
  },
  "effects": [],
  "folder": null,
  "sort": 0,
  "permission": {
    "default": 0
  },
  "flags": {}
}
