{
  "_id": "jbqzkkvrbhtzcsih",
  "name": "Ink, Stink (Arcane)",
  "type": "loot",
  "img": "systems/pf1/icons/items/inventory/dice.jpg",
  "data": {
    "description": {
      "value": "\r\n<p class=\"source\"><b>Source</b> <a title=\"PZO1121\" href=\"http://www.amazon.com/gp/product/1601253907/ref=as_li_qf_sp_asin_il_tl?ie=UTF8&amp;camp=1789&amp;creative=9325&amp;creativeASIN=1601253907&amp;linkCode=as2&amp;tag=httpwwwd20pfs-20\" target=\"_blank\" rel=\"noopener\">PZO1121</a></p>\r\n<p>Most common among ratfolk <a href=\"https://www.d20pfsrd.com/classes/base-classes/alchemist\">alchemists</a>, arcane stink ink is used to inscribe formulae or spells into formula books and spellbooks. Like normal stink ink, the arcane version can only be read by creatures with the <a href=\"https://www.d20pfsrd.com/bestiary/rules-for-monsters/universal-monster-rules#TOC-Scent-Ex-\">scent</a> ability (although <a class=\"spell\" href=\"https://www.d20pfsrd.com/magic/all-spells/r/read-magic\">read magic</a> works normally on spells and arcane formulae inscribed with stink ink). Using arcane stink ink to inscribe a spell or formula into a book costs +10% of the normal amount.</p>\r\n"
    },
    "tags": [],
    "price": 40,
    "equipped": false,
    "changes": [],
    "contextNotes": [],
    "links": {
      "children": []
    },
    "flags": {
      "boolean": [],
      "dictionary": []
    },
    "scriptCalls": [],
    "subType": "gear"
  },
  "effects": [],
  "folder": null,
  "sort": 0,
  "permission": {
    "default": 0
  },
  "flags": {}
}
