{
  "_id": "obtmrpkuihtsalef",
  "name": "Ink, Stink",
  "type": "loot",
  "img": "systems/pf1/icons/items/inventory/dice.jpg",
  "data": {
    "description": {
      "value": "\r\n<p class=\"source\"><b>Source</b> <a title=\"PZO1121\" href=\"http://www.amazon.com/gp/product/1601253907/ref=as_li_qf_sp_asin_il_tl?ie=UTF8&amp;camp=1789&amp;creative=9325&amp;creativeASIN=1601253907&amp;linkCode=as2&amp;tag=httpwwwd20pfs-20\" target=\"_blank\" rel=\"noopener\">PZO1121</a></p>\r\n<p>Stink ink is a special, pungent, musk-based ink that allows its user to encode information with smell rather than visually. Stink ink dries clear but its sharp, extremely localized smell can be picked out by those with sensitive enough noses to make it possible to read by sense of smell. Only creatures with the keen senses trait or <a href=\"https://www.d20pfsrd.com/bestiary/rules-for-monsters/universal-monster-rules#TOC-Scent-Ex-\">scent</a> ability can read stink ink without aid of some form of magic. Reading or writing something with stink ink takes twice as long as going through the same amount of information written in normal ink.</p>\r\n"
    },
    "tags": [],
    "price": 40,
    "equipped": false,
    "changes": [],
    "contextNotes": [],
    "links": {
      "children": []
    },
    "flags": {
      "boolean": [],
      "dictionary": []
    },
    "scriptCalls": [],
    "subType": "gear"
  },
  "effects": [],
  "folder": null,
  "sort": 0,
  "permission": {
    "default": 0
  },
  "flags": {}
}
