{
  "_id": "rqwuqlvgwyvwlads",
  "name": "Keif",
  "type": "loot",
  "img": "systems/pf1/icons/items/inventory/dice.jpg",
  "data": {
    "description": {
      "value": "\r\n<p class=\"source\"><b>Source</b> <a href=\"http://www.amazon.com/gp/product/1601256051/ref=as_li_qf_sp_asin_il_tl?ie=UTF8&amp;camp=1789&amp;creative=9325&amp;creativeASIN=1601256051&amp;linkCode=as2&amp;tag=httpwwwd20pfs-20\" target=\"_blank\" rel=\"noopener\">PZO9445</a></p>\r\n<p><b>Price</b> 15 gp; <b>Weight</b> -</p>\r\n<p>When used as an alchemical reagent, refined keif is often sublimated along with other reagents to create new forms of the famous drug.</p>\r\n<p class=\"header\">Alchemical Power Component</p>\r\n<p><b>Doses</b> 1 (15 gp); <b>Spells</b> <a href=\"https://www.d20pfsrd.com/magic#TOC-Enchantment\">enchantment</a> school</p>\r\n<p>Spells of the <a href=\"https://www.d20pfsrd.com/magic#TOC-Enchantment\">enchantment</a> school are cast at +1 <a href=\"https://www.d20pfsrd.com/magic#TOC-Caster-Level\">caster level</a> for the purpose of determining duration.</p>\r\n"
    },
    "tags": [],
    "price": 15,
    "equipped": false,
    "changes": [],
    "contextNotes": [],
    "links": {
      "children": []
    },
    "flags": {
      "boolean": [],
      "dictionary": []
    },
    "scriptCalls": [],
    "subType": "gear"
  },
  "effects": [],
  "folder": null,
  "sort": 0,
  "permission": {
    "default": 0
  },
  "flags": {}
}
