{
  "_id": "tpvlfvviwfiessso",
  "name": "Kit, Troll Slayer's",
  "type": "loot",
  "img": "systems/pf1/icons/items/inventory/dice.jpg",
  "data": {
    "description": {
      "value": "\r\n<p><b>Price</b> 30 gp; <b>Weight</b> 17 lbs.</p>\r\n<p>This kit includes 1 vial of alchemist's fire, 1 flask of acid, 10 torches, one tindertwig, and 5 flasks of oil.</p>\r\n\r\n"
    },
    "tags": [],
    "weight": 17,
    "price": 30,
    "equipped": false,
    "changes": [],
    "contextNotes": [],
    "links": {
      "children": []
    },
    "flags": {
      "boolean": [],
      "dictionary": []
    },
    "scriptCalls": [],
    "subType": "gear"
  },
  "effects": [],
  "folder": null,
  "sort": 0,
  "permission": {
    "default": 0
  },
  "flags": {}
}
