{
  "_id": "rxjodhzwmcykadls",
  "name": "Kit, Gear Maintenance",
  "type": "loot",
  "img": "systems/pf1/icons/items/inventory/dice.jpg",
  "data": {
    "description": {
      "value": "\r\n<p><b>Price</b> 5 gp; <b>Weight</b> 2 lbs.</p>\r\n<p>This kit contains metal polish, a small file, a leather paring knife, conditioning <a href=\"https://www.d20pfsrd.com/equipment/goods-and-services/hunting-camping-survival-geaR/#TOC-Oil\">oil</a> for leather, two soft cloths, extra leather straps, a <a href=\"https://www.d20pfsrd.com/equipment/goods-and-services/hunting-camping-survival-geaR/#TOC-Sewing-Needle\">sewing needle</a>, and a few buttons.</p>\r\n\r\n"
    },
    "tags": [],
    "weight": 2,
    "price": 5,
    "equipped": false,
    "changes": [],
    "contextNotes": [],
    "links": {
      "children": []
    },
    "flags": {
      "boolean": [],
      "dictionary": []
    },
    "scriptCalls": [],
    "subType": "gear"
  },
  "effects": [],
  "folder": null,
  "sort": 0,
  "permission": {
    "default": 0
  },
  "flags": {}
}
