{
  "_id": "dhlxmunqjelfybbl",
  "name": "Kit, Ghost Hunter's",
  "type": "loot",
  "img": "systems/pf1/icons/items/inventory/dice.jpg",
  "data": {
    "description": {
      "value": "\r\n<p class=\"source\"><b>Source</b>: <a title=\"PZO9444\" href=\"http://www.amazon.com/gp/product/1601256043/ref=as_li_qf_sp_asin_il_tl?ie=UTF8&amp;camp=1789&amp;creative=9325&amp;creativeASIN=1601256043&amp;linkCode=as2&amp;tag=httpwwwd20pfs-20&amp;linkId=RI56HP6FPZYWBQMM\" target=\"_blank\" rel=\"noopener\">USH</a></p>\r\n<p><b>Price</b> 670 gp; <b>Weight</b> 22 lbs.</p>\r\n<p>This sturdy satchel is the quintessential toolkit for detecting <a href=\"https://www.d20pfsrd.com/bestiary/monster-listings/undead/ghost\">ghosts</a> and sending them to their final slumber. This kit includes 10 candles, three flasks of <a href=\"https://www.d20pfsrd.com/equipment/goods-and-services/toys-games-puzzles#TOC-Holy-Water\">holy water</a>, one <a href=\"https://www.d20pfsrd.com/magic-items/potions\">potion of</a> <a class=\"spell\" href=\"https://www.d20pfsrd.com/magic/all-spells/r/restoration\">lesser restoration</a>, a crowbar, a folding shovel, four sunrods, one spiritbane spike, and a wooden <a href=\"https://www.d20pfsrd.com/equipment/goods-and-services/toys-games-puzzles#TOC-Holy-Symbol\">holy symbol</a>.</p>\r\n\r\n"
    },
    "tags": [],
    "weight": 22,
    "price": 670,
    "equipped": false,
    "changes": [],
    "contextNotes": [],
    "links": {
      "children": []
    },
    "flags": {
      "boolean": [],
      "dictionary": []
    },
    "scriptCalls": [],
    "subType": "gear"
  },
  "effects": [],
  "folder": null,
  "sort": 0,
  "permission": {
    "default": 0
  },
  "flags": {}
}
