{
  "_id": "cvuwovxooiinnhtq",
  "name": "Kit, Cat Burglar's",
  "type": "loot",
  "img": "systems/pf1/icons/items/inventory/dice.jpg",
  "data": {
    "description": {
      "value": "\r\n<p><b>Price</b> 15 gp; <b>Weight</b> 12 lbs.</p>\r\n<p>This kit includes a <a href=\"https://www.d20pfsrd.com/equipment/goods-and-services/tools-kits#TOC-Glass-Cutter\">glass cutter</a>, <a href=\"https://www.d20pfsrd.com/equipment/goods-and-services/books-paper-writing-supplies/#Paper_Glue\">glue paper</a> (5 sheets), a <a href=\"https://www.d20pfsrd.com/equipment/goods-and-services/tools-kits#TOC-Hook-Grappling\">grappling hook</a>, a masterwork <a href=\"https://www.d20pfsrd.com/equipment/goods-and-services/containers-bags-boxes-more#TOC-Backpack\">backpack</a>, and silk <a href=\"https://www.d20pfsrd.com/equipment/goods-and-services/hunting-camping-survival-gear#TOC-Rope\">rope</a> (50 feet).</p>\r\n\r\n"
    },
    "tags": [],
    "weight": 12,
    "price": 15,
    "equipped": false,
    "changes": [],
    "contextNotes": [],
    "links": {
      "children": []
    },
    "flags": {
      "boolean": [],
      "dictionary": []
    },
    "scriptCalls": [],
    "subType": "gear"
  },
  "effects": [],
  "folder": null,
  "sort": 0,
  "permission": {
    "default": 0
  },
  "flags": {}
}
