{
  "_id": "wcvbvkepoxfeftda",
  "name": "Kit, Shaving",
  "type": "loot",
  "img": "systems/pf1/icons/items/inventory/dice.jpg",
  "data": {
    "description": {
      "value": "\r\n<p><b>Price</b> 15 gp; <b>Weight</b> 1/2 lb.</p>\r\n<p>A shaving kit contains a straight razor, a <a href=\"https://www.d20pfsrd.com/equipment/goods-and-services/hunting-camping-survival-gear/#TOC-Whetstone\">whetstone</a>, a small mirror, a brush, a cup, and enough shaving powder to last a Medium humanoid 50 shaves.</p>\r\n\r\n"
    },
    "tags": [],
    "weight": 0.5,
    "price": 15,
    "equipped": false,
    "changes": [],
    "contextNotes": [],
    "links": {
      "children": []
    },
    "flags": {
      "boolean": [],
      "dictionary": []
    },
    "scriptCalls": [],
    "subType": "gear"
  },
  "effects": [],
  "folder": null,
  "sort": 0,
  "permission": {
    "default": 0
  },
  "flags": {}
}
