{
  "_id": "uxvxpbqkdwuddrmj",
  "name": "Kit, Fishing",
  "type": "loot",
  "img": "systems/pf1/icons/items/inventory/dice.jpg",
  "data": {
    "description": {
      "value": "\r\n<p><b>Price</b> 5 sp; <b>Weight</b> 3 lbs.</p>\r\n<p>This kit includes a simple fishing <a href=\"https://www.d20pfsrd.com/equipment/goods-and-services/hunting-camping-survival-geaR/#TOC-Pole\">pole</a> and a small box that contains fishing tackle (hooks, lines, sinkers, floats, and lures).</p>\r\n\r\n"
    },
    "tags": [],
    "weight": 3,
    "price": 0.5,
    "equipped": false,
    "changes": [],
    "contextNotes": [],
    "links": {
      "children": []
    },
    "flags": {
      "boolean": [],
      "dictionary": []
    },
    "scriptCalls": [],
    "subType": "gear"
  },
  "effects": [],
  "folder": null,
  "sort": 0,
  "permission": {
    "default": 0
  },
  "flags": {}
}
