{
  "_id": "YZL8MoaHg4c5vjeT",
  "name": "Marbles",
  "type": "loot",
  "img": "systems/pf1/icons/items/inventory/dice.jpg",
  "data": {
    "description": {
      "value": "<p>Source&nbsp;<a href=\"http://paizo.com/products/btpy8tmc?Pathfinder-Roleplaying-Game-Ultimate-Equipment\" target=\"_blank\" rel=\"noopener\">Ultimate Equipment pg. 57</a>,&nbsp;<a href=\"http://paizo.com/pathfinderRPG/v5748btpy8fo1\" target=\"_blank\" rel=\"noopener\">Advanced Player's Guide pg. 181</a>,&nbsp;<a href=\"http://paizo.com/store/downloads/pathfinder/pathfinderCompanion/pathfinderRPG/v5748btpy8dmf\" target=\"_blank\" rel=\"noopener\">Adventurer's Armory pg. 19</a><br>Price&nbsp;1 sp;&nbsp;Weight&nbsp;2 lbs.<br>Category&nbsp;Adventuring Gear</p>\n<h3>Description</h3>\n<p>Marbles can be used to slow opponents. One 2-pound bag of marbles covers an area 5 feet square. A creature entering a square with marbles scattered on it must succeed at a DC 10 Reflex save or fall prone (the creature’s stability bonus to trip applies to this save). Any creature moving at half speed or slower can pick its way through a square of marbles with no trouble.</p>"
    },
    "tags": [],
    "weight": 2,
    "price": 0.1,
    "equipped": false,
    "identifiedName": "Marbles",
    "changes": [],
    "contextNotes": [],
    "links": {
      "children": []
    },
    "flags": {
      "boolean": [],
      "dictionary": []
    },
    "scriptCalls": [],
    "subType": "gear"
  },
  "effects": [],
  "folder": null,
  "sort": 0,
  "permission": {
    "default": 0
  },
  "flags": {}
}
