{
  "_id": "habofoapdifirevm",
  "name": "Pot, Cooking (Iron)",
  "type": "loot",
  "img": "icons/tools/cooking/cauldron-empty.webp",
  "data": {
    "description": {
      "value": " \n<p class=\"source\"><b>Source</b> <a title=\"PZO1110\" href=\"http://www.amazon.com/gp/product/1601251505/ref=as_li_qf_sp_asin_il_tl?ie=UTF8&amp;camp=1789&amp;creative=9325&amp;creativeASIN=1601251505&amp;linkCode=as2&amp;tag=httpwwwd20pfs-20\" target=\"_blank\" rel=\"noopener\">PZO1110</a></p> \n<p>Cooking pots come in a variety of materials, but the most common is formed of iron.</p> \n<p>A mithral cooking pot weighs 2 lbs. and costs 2,001 gp.</p> \n<p><b>Empty Weight</b>: 2 lb.; <b>Capacity</b>: 1 gallon/8 lb.</p> \n"
    },
    "tags": [],
    "weight": 4,
    "price": 0.8,
    "equipped": false,
    "identifiedName": "Pot, Cooking (Iron)",
    "changes": [],
    "contextNotes": [],
    "links": {
      "children": []
    },
    "flags": {
      "boolean": [],
      "dictionary": []
    },
    "scriptCalls": [],
    "subType": "gear"
  },
  "effects": [],
  "folder": null,
  "sort": 0,
  "permission": {
    "default": 0
  },
  "flags": {}
}
