{
  "_id": "apuawjnbeyococsw",
  "name": "Rations, Dwarven Trail",
  "type": "loot",
  "img": "systems/pf1/icons/items/inventory/meat.jpg",
  "data": {
    "description": {
      "value": "<h4><span id=\"Rations_Dwarven_Trail\"><a name=\"TOC-Rations-Dwarven-Trail\"></a>Rations, Dwarven Trail</span></h4>\r\n<p><b>Price</b> 2 gp; <b>Weight</b> 1-1/2 lbs.</p>\r\n<p>Dwarven trail rations consist of smoked sausages and salted meat, rounded out with hard biscuits and dried vegetables. If you are a dwarf who subsists on nothing but these rations for at least 1 week, you can hustle or make a forced march for an additional hour without ill effects, but cannot do both in the same day. This benefit lasts until you eat a meal other than the rations or go for a full day without eating a day's worth.</p>\r\n"
    },
    "tags": [],
    "weight": 1.5,
    "price": 2,
    "equipped": false,
    "identifiedName": "Rations, Dwarven Trail",
    "changes": [],
    "contextNotes": [],
    "links": {
      "children": []
    },
    "flags": {
      "boolean": [],
      "dictionary": []
    },
    "scriptCalls": [],
    "subType": "gear"
  },
  "effects": [],
  "folder": null,
  "sort": 0,
  "permission": {
    "default": 0
  },
  "flags": {}
}
