{
  "_id": "iCuo14damYkdjuD5",
  "name": "Ring of Protection +1",
  "type": "equipment",
  "img": "systems/pf1/icons/items/jewelry/ring-iron.jpg",
  "data": {
    "description": {
      "value": "<p>This ring offers continual magical protection in the form of a&nbsp;<a href=\"https://www.d20pfsrd.com/basics-ability-scores/glossary#TOC-Bonus-Deflection-\">deflection</a>&nbsp;bonus of +1 to +5 to&nbsp;<a href=\"https://www.d20pfsrd.com/gamemastering/combat#TOC-Armor-Class\" rel=\"nofollow\">AC</a>.</p>"
    },
    "tags": [],
    "price": 2000,
    "resizing": true,
    "unidentified": {
      "name": "Ring"
    },
    "identifiedName": "Ring of Protection +1",
    "cl": 5,
    "aura": {
      "school": "abj"
    },
    "changes": [
      {
        "_id": "d7piooyd",
        "formula": "1",
        "operator": "add",
        "subTarget": "ac",
        "modifier": "deflection",
        "priority": 0,
        "value": 0,
        "target": "ac"
      }
    ],
    "contextNotes": [],
    "actions": [],
    "attackNotes": [],
    "effectNotes": [],
    "links": {
      "children": [],
      "charges": []
    },
    "tag": "ringOfProtection1",
    "flags": {
      "boolean": [],
      "dictionary": []
    },
    "scriptCalls": [],
    "equipmentType": "misc",
    "equipmentSubtype": "wondrous",
    "slot": "ring"
  },
  "effects": [],
  "folder": null,
  "sort": 0,
  "permission": {
    "default": 0
  },
  "flags": {}
}
