{
  "_id": "tvmotdyqsqpmfdsu",
  "name": "Scarf, Filter",
  "type": "loot",
  "img": "systems/pf1/icons/items/inventory/dice.jpg",
  "data": {
    "description": {
      "value": " \n<p><b>Price</b> 5 gp; <b>Weight</b> -</p> \n<p>Made of heavy material, this <a href=\"https://www.d20pfsrd.com/equipment/goods-and-services/containers-bags-boxes-more#TOC-Scarf\">scarf</a> filters out dust, sand, smoke, and other airborne contaminants. When worn over your nose and mouth, this <a href=\"https://www.d20pfsrd.com/equipment/goods-and-services/containers-bags-boxes-more#TOC-Scarf\">scarf</a> grants you a +1 <a href=\"https://www.d20pfsrd.com/basics-ability-scores/glossary#TOC-Resistance-Bonus\">resistance bonus</a> on saving throws against inhaled poisons and other airborne effects that require breathing.</p> \n"
    },
    "tags": [],
    "price": 5,
    "equipped": false,
    "changes": [],
    "contextNotes": [
      {
        "subTarget": "allSavingThrows",
        "text": "+[[1]] resistance vs. inhaled poisons and other airborne effects that require breathing"
      }
    ],
    "links": {
      "children": []
    },
    "flags": {
      "boolean": [],
      "dictionary": []
    },
    "scriptCalls": [],
    "subType": "gear"
  },
  "effects": [],
  "folder": null,
  "sort": 0,
  "permission": {
    "default": 0
  },
  "flags": {}
}
