{
  "_id": "rgkmlfauykktqjyz",
  "name": "Spirit Of Wine",
  "type": "loot",
  "img": "systems/pf1/icons/items/inventory/dice.jpg",
  "data": {
    "description": {
      "value": "\r\n<p class=\"source\"><b>Source</b> <a href=\"http://www.amazon.com/gp/product/1601256051/ref=as_li_qf_sp_asin_il_tl?ie=UTF8&amp;camp=1789&amp;creative=9325&amp;creativeASIN=1601256051&amp;linkCode=as2&amp;tag=httpwwwd20pfs-20\" target=\"_blank\" rel=\"noopener\">PZO9445</a></p>\r\n<p><b>Price</b> 5 sp; <b>Weight</b> -</p>\r\n<p>Spirit of wine is purified, alchemically active alcohol commonly used as a fuel or solvent in alchemical items, specialized inks, and perfumes. It is too pure to drink alone, but can be used as a reagent to form tinctures and alchemical drinks.</p>\r\n<p class=\"header\">Alchemical Power Component</p>\r\n<p><b>Doses</b> 6 (3 gp); <b>Spells</b> calling and summoning subschools</p>\r\n<p>Spells of the calling and summoning subschools are cast at +1 caster level for the purpose of determining duration of effects.</p>\r\n"
    },
    "tags": [],
    "price": 0.5,
    "equipped": false,
    "changes": [],
    "contextNotes": [],
    "links": {
      "children": []
    },
    "flags": {
      "boolean": [],
      "dictionary": []
    },
    "scriptCalls": [],
    "subType": "gear"
  },
  "effects": [],
  "folder": null,
  "sort": 0,
  "permission": {
    "default": 0
  },
  "flags": {}
}
