{
  "_id": "oqpgxjihuqavhkbo",
  "name": "Sugar Lemons",
  "type": "loot",
  "img": "systems/pf1/icons/items/inventory/dice.jpg",
  "data": {
    "description": {
      "value": "<h4><span id=\"Sugar_Lemons\">Sugar Lemons</span></h4>\r\n<p class=\"source\"><b>Source</b> <a href=\"https://amzn.to/2pCBzMR\" target=\"_blank\" rel=\"noopener\">PPC:MM</a></p>\r\n<p><b>Price</b> 1 gp; <b>Weight</b> 1 lb.</p>\r\n<p>Sugar lemons make prized preserves when ground, salted, and sealed in jars, adding an intense citrus flavor when sprinkled atop other foods. If, within 8 hours of consuming a <a href=\"https://www.d20pfsrd.com/equipment/goods-and-services/hunting-camping-survival-gear#TOC-Meal\">meal</a> seasoned with Sugar lemons, you gain the <a href=\"https://www.d20pfsrd.com/gamemastering/conditions#TOC-Confused\">confused</a> condition, you can roll 1d6 and subtract the result from the result of your d% roll to determine what action you take for the first round in which you are <a href=\"https://www.d20pfsrd.com/gamemastering/conditions#TOC-Confused\">confused</a>. This benefit does not stack with itself.</p>\r\n<p>The price and weight listed represent a jar containing enough preserved lemons to season 10 meals.</p>\r\n"
    },
    "tags": [],
    "weight": 1,
    "price": 1,
    "equipped": false,
    "changes": [],
    "contextNotes": [],
    "links": {
      "children": []
    },
    "flags": {
      "boolean": [],
      "dictionary": []
    },
    "scriptCalls": [],
    "subType": "gear"
  },
  "effects": [],
  "folder": null,
  "sort": 0,
  "permission": {
    "default": 0
  },
  "flags": {}
}
