{
  "_id": "arzwdxfsdzyfqyxm",
  "name": "Sunderblock",
  "type": "loot",
  "img": "systems/pf1/icons/items/inventory/dice.jpg",
  "data": {
    "description": {
      "value": "\r\n<p class=\"source\"><b>Source</b>: <a title=\"PZO9455\" href=\"http://www.amazon.com/gp/product/1601257325/ref=as_li_qf_sp_asin_il_tl?ie=UTF8&amp;camp=1789&amp;creative=9325&amp;creativeASIN=1601257325&amp;linkCode=as2&amp;tag=httpwwwd20pfs-20&amp;linkId=RTYNEYJM7WKLVCFB\" target=\"_blank\" rel=\"noopener\">PZO9455</a></p>\r\n<p><b>Price</b> 35 gp; <b>Weight</b> 2 lbs.</p>\r\n<p>This lumpy, lard-like, alchemical substance is designed to protect armor and weapons from dents and cracks that commonly develop in close-combat equipment. When liberally applied to armor or weapons, the material provides a greasy surface that blunts impacts, causes blades to slide aside, and strengthens the gear it is applied to. A single container holds enough sunderblock to coat a single weapon or suit of armor as a <a href=\"https://www.d20pfsrd.com/gamemastering/combat#TOC-Full-Round-Actions\">full-round action</a>. The effects aren't pronounced enough to increase the <a href=\"https://www.d20pfsrd.com/gamemastering/combat#TOC-Armor-Class\">Armor Class</a> bonus of a suit of <a href=\"https://www.d20pfsrd.com/basics-ability-scores/glossary#TOC-Armor-Bonus\">armor</a>, but the <a href=\"https://www.d20pfsrd.com/equipment/damaging-objects#TOC-Hardness\">hardness</a> of armors and weapons coated with sunderblock increases by 5. This bonus lasts for 12 hours, at which point the greasy substance dries and flakes away.</p>\r\n\r\n"
    },
    "tags": [],
    "weight": 2,
    "price": 35,
    "equipped": false,
    "changes": [],
    "contextNotes": [],
    "links": {
      "children": []
    },
    "flags": {
      "boolean": [],
      "dictionary": []
    },
    "scriptCalls": [],
    "subType": "gear"
  },
  "effects": [],
  "folder": null,
  "sort": 0,
  "permission": {
    "default": 0
  },
  "flags": {}
}
