{
  "_id": "lcesimgbevgdfzgs",
  "name": "Tattoo, Poison",
  "type": "loot",
  "img": "systems/pf1/icons/items/inventory/dice.jpg",
  "data": {
    "description": {
      "value": "\r\n<p class=\"source\"><b>Source</b> <a title=\"PZO1121\" href=\"http://www.amazon.com/gp/product/1601253907/ref=as_li_qf_sp_asin_il_tl?ie=UTF8&amp;camp=1789&amp;creative=9325&amp;creativeASIN=1601253907&amp;linkCode=as2&amp;tag=httpwwwd20pfs-20\" target=\"_blank\" rel=\"noopener\">PZO1121</a></p>\r\n<p>This henna-like paste creates a dark brown tattoo on the hands or feet that fades over the next 2d6 days. The tattoo temporarily boosts the strength of a vishkanya's natural poison, increasing the DC of the next weapon envenomed with the vishkanya's blood or saliva by +2 (once used, the tattoo is merely decorative and does not affect the creature's <a href=\"https://www.d20pfsrd.com/gamemastering/afflictions/poison\">poison</a>). A typical tattoo consists of intricate whorls and spiritual symbols on the hands or feet.</p>\r\n"
    },
    "tags": [],
    "equipped": false,
    "changes": [],
    "contextNotes": [],
    "links": {
      "children": []
    },
    "flags": {
      "boolean": [],
      "dictionary": []
    },
    "scriptCalls": [],
    "subType": "gear"
  },
  "effects": [],
  "folder": null,
  "sort": 0,
  "permission": {
    "default": 0
  },
  "flags": {}
}
