{
  "_id": "mfrrgztsoebuqkng",
  "name": "Tent",
  "type": "loot",
  "img": "systems/pf1/icons/items/inventory/briefcase.jpg",
  "data": {
    "description": {
      "value": "<h4><span id=\"Tent\"><a name=\"TOC-Tent\"></a>Tent</span></h4>\r\n<p class=\"source\"><b>Source</b> <a title=\"PZO1115\" href=\"http://www.amazon.com/gp/product/1601252463/ref=as_li_qf_sp_asin_il_tl?ie=UTF8&amp;camp=1789&amp;creative=9325&amp;creativeASIN=1601252463&amp;linkCode=as2&amp;tag=httpwwwd20pfs-20\" target=\"_blank\" rel=\"noopener\">PZO1115</a></p>\r\n<p>Tents come in a variety of sizes and accommodate between one and 10 people. Two Small creatures count as a Medium creature, and one Large creature counts as two Medium creatures. Packing up a tent takes half as long as assembling it.</p>\r\n<div>\r\n<p><b>Small/Normal</b>: A small tent holds one Medium creature and takes 20 minutes to assemble.</p>\r\n<p><b>Medium</b>: A medium tent holds two creatures and takes 30 minutes to assemble.</p>\r\n<p><b>Large</b>: A large tent holds four creatures and takes 45 minutes to assemble.</p>\r\n<p><b>Pavilion</b>: A huge open-air canopy, plus stakes, poles, and ropes. A pavilion holds 10 creatures and takes 90 minutes to assemble. Pavilion tents are large enough to accommodate a small fire in the center.</p>\r\n<p><b>Hanging Tent</b> A hanging tent is a small tent (able to comfortably house a single Medium creature) with a teardrop shape, which hangs from a sturdy anchor rope. The rope can be tied to a tree limb, grappling hook, or even a piton hammered into a cliff side. Hanging tents are used primarily in mountainous terrain (where no flat surface may be available for camping) and swamps (where no dry ground may be available). Climbing in or out of a hanging tent is a <a href=\"https://www.d20pfsrd.com/gamemastering/combat#TOC-Full-Round-Actions\">full-round action</a> that requires a DC 10 <a href=\"https://www.d20pfsrd.com/skills/climb\">Climb</a> check. Failure indicates another attempt must be made, while failure by 5 or more indicates the camper has fallen from the tent. <b>Source</b> <a title=\"PZO1121\" href=\"http://www.amazon.com/gp/product/1601253907/ref=as_li_qf_sp_asin_il_tl?ie=UTF8&amp;camp=1789&amp;creative=9325&amp;creativeASIN=1601253907&amp;linkCode=as2&amp;tag=httpwwwd20pfs-20\" target=\"_blank\" rel=\"noopener\">PZO1121</a></p>\r\n</div>\r\n<p>"
    },
    "tags": [],
    "equipped": false,
    "identifiedName": "Tent",
    "changes": [],
    "contextNotes": [],
    "links": {
      "children": []
    },
    "flags": {
      "boolean": [],
      "dictionary": []
    },
    "scriptCalls": [],
    "subType": "gear"
  },
  "effects": [],
  "folder": null,
  "sort": 0,
  "permission": {
    "default": 0
  },
  "flags": {}
}
