{
  "_id": "pblbzpavsswkwpmx",
  "name": "Thieves' Ring",
  "type": "loot",
  "img": "systems/pf1/icons/items/inventory/dice.jpg",
  "data": {
    "description": {
      "value": "\r\n<p class=\"source\"><b>Source</b>: <a title=\"PZO9430\" href=\"http://www.amazon.com/gp/product/1601255101/ref=as_li_qf_sp_asin_il_tl?ie=UTF8&amp;camp=1789&amp;creative=9325&amp;creativeASIN=1601255101&amp;linkCode=as2&amp;tag=httpwwwd20pfs-20\" target=\"_blank\" rel=\"noopener\">PZO9430</a></p>\r\n<p><b>Price</b> 300 gp; <b>Weight</b> -</p>\r\n<p>This slightly over-sized ring conceals a few lockpicks and other tools coiled inside its band. These discreet tools, made of a metal alloy that springs straight once the tool is removed from the band, are sufficient to attempt <a href=\"https://www.d20pfsrd.com/skills/disable-device\">Disable Device</a> checks without penalty, and long enough to pick locks on manacles fastened around the wearer's hands (once she slips off the ring). The wearer gains a +2 <a href=\"https://www.d20pfsrd.com/basics-ability-scores/glossary#TOC-Circumstance-Bonus\">circumstance bonus</a> on <a href=\"https://www.d20pfsrd.com/skills/sleight-of-hand\">Sleight of Hand</a> checks made to conceal the ring's nature from anyone searching her.</p>\r\n\r\n"
    },
    "tags": [],
    "price": 300,
    "equipped": false,
    "changes": [],
    "contextNotes": [],
    "links": {
      "children": []
    },
    "flags": {
      "boolean": [],
      "dictionary": []
    },
    "scriptCalls": [],
    "subType": "gear"
  },
  "effects": [],
  "folder": null,
  "sort": 0,
  "permission": {
    "default": 0
  },
  "flags": {}
}
