{
  "_id": "jzaxdmljvccjgnhr",
  "name": "Trap, Trapped Disguise Kit",
  "type": "loot",
  "img": "systems/pf1/icons/items/inventory/dice.jpg",
  "data": {
    "description": {
      "value": "\r\n<p>This appears to be a normal disguise kit, except that if any of the makeup or false facial hair is applied, the victim is marked with a strong <a href=\"https://www.d20pfsrd.com/gamemastering/special-abilities#TOC-Scent\">scent</a>. This scent mark decreases the DC of tracking the victim by <a href=\"https://www.d20pfsrd.com/gamemastering/special-abilities#TOC-Scent\">scent</a> by 4. The mark can be washed off with vigorous scrubbing, but otherwise fades on its own over several days.</p>\r\n<p><b>Type</b> mechanical; <a href=\"https://www.d20pfsrd.com/skills/perception\">Perception</a> DC 25; <a href=\"https://www.d20pfsrd.com/skills/disable-device\">Disable Device</a> DC 25</p>\r\n<p class=\"divider\">EFFECTS</p>\r\n<p><b>Trigger</b> touch; <b>Reset</b> repair; <b>Effect</b> scent mark; never miss; <b>onset</b> delayed (1 round)</p>\r\n\r\n"
    },
    "tags": [],
    "equipped": false,
    "changes": [],
    "contextNotes": [],
    "links": {
      "children": []
    },
    "flags": {
      "boolean": [],
      "dictionary": []
    },
    "scriptCalls": [],
    "subType": "gear"
  },
  "effects": [],
  "folder": null,
  "sort": 0,
  "permission": {
    "default": 0
  },
  "flags": {}
}
