{
  "_id": "ujarpbskvmgvzsce",
  "name": "Trap, Decoy Pressure Switch",
  "type": "loot",
  "img": "systems/pf1/icons/items/inventory/dice.jpg",
  "data": {
    "description": {
      "value": "\r\n<p><b>Price</b> 60 gp; <b>Weight</b> &#8211;</p>\r\n<p><b>Type</b> mechanical; <a href=\"https://www.d20pfsrd.com/skills/perception\">Perception</a> DC 12; <a href=\"https://www.d20pfsrd.com/skills/sense-motive\">Sense Motive</a> DC 24</p>\r\n<p class=\"divider\">EFFECTS</p>\r\n<p><b>Notice</b> <a href=\"https://www.d20pfsrd.com/skills/perception\">Perception</a> DC +6, <b>CR Modifier</b>: +2</p>\r\n\r\n"
    },
    "tags": [],
    "price": 60,
    "equipped": false,
    "changes": [],
    "contextNotes": [],
    "links": {
      "children": []
    },
    "flags": {
      "boolean": [],
      "dictionary": []
    },
    "scriptCalls": [],
    "subType": "gear"
  },
  "effects": [],
  "folder": null,
  "sort": 0,
  "permission": {
    "default": 0
  },
  "flags": {}
}
