{
  "_id": "cnigclhyuuhkrted",
  "name": "Trap, Decoy Tripwire",
  "type": "loot",
  "img": "systems/pf1/icons/items/inventory/dice.jpg",
  "data": {
    "description": {
      "value": "\r\n<p><b>Price</b> 25 gp; <b>Weight</b> &#8211;</p>\r\n<p><b>Type</b> mechanical; <a href=\"https://www.d20pfsrd.com/skills/perception\">Perception</a> DC 15; <a href=\"https://www.d20pfsrd.com/skills/sense-motive\">Sense Motive</a> DC 20</p>\r\n<p class=\"divider\">EFFECTS</p>\r\n<p>Trap <a href=\"https://www.d20pfsrd.com/skills/perception\">Perception</a> DC +3, CR Modifier: +1</p>\r\n\r\n"
    },
    "tags": [],
    "price": 25,
    "equipped": false,
    "changes": [],
    "contextNotes": [],
    "links": {
      "children": []
    },
    "flags": {
      "boolean": [],
      "dictionary": []
    },
    "scriptCalls": [],
    "subType": "gear"
  },
  "effects": [],
  "folder": null,
  "sort": 0,
  "permission": {
    "default": 0
  },
  "flags": {}
}
