{
  "_id": "odlcdkydnmaatfhr",
  "name": "Tusk Blades",
  "type": "loot",
  "img": "systems/pf1/icons/items/inventory/dice.jpg",
  "data": {
    "description": {
      "value": "\r\n<p class=\"source\"><b>Source</b> <a href=\"http://www.amazon.com/gp/search/ref=as_li_qf_sp_sr_il?ie=UTF8&amp;amp;camp=1789&amp;amp;creative=9325&amp;amp;index=aps&amp;amp;keywords=Pathfinder%20Campaign%20Setting%3A%20Belkzen%2C%20Hold%20of%20the%20Orc%20Hordes&amp;amp;linkCode=as2&amp;amp;tag=httpwwwd20pfs-20&amp;amp;linkId=MU26YVXHNNL3F4EH\" target=\"_blank\" rel=\"noopener\">PCS:Orcs</a></p>\r\n<p>These metal caps must be specially fitted to a creature's horns or tusks; a blade reminiscent of a sword or axe head projects from each cap. If the creature makes a gore attack (including as part of a <a href=\"https://www.d20pfsrd.com/bestiary/rules-for-monsters/universal-monster-rules#TOC-Powerful-Charge-Ex-\">powerful charge</a>), the attack deals both piercing and slashing damage, and has a critical threat range of 19-20 (this range can be increased by other effects). Tusk blades can be enhanced as melee weapons; the enhancement is applied to the creature's gore attack.</p>\r\n\r\n"
    },
    "tags": [],
    "weight": 5,
    "price": 100,
    "equipped": false,
    "changes": [],
    "contextNotes": [],
    "links": {
      "children": []
    },
    "flags": {
      "boolean": [],
      "dictionary": []
    },
    "scriptCalls": [],
    "subType": "gear"
  },
  "effects": [],
  "folder": null,
  "sort": 0,
  "permission": {
    "default": 0
  },
  "flags": {}
}
