{
  "_id": "YbsATtdbVxmO4hik",
  "name": "Weapon cord",
  "type": "loot",
  "img": "systems/pf1/icons/items/inventory/dice.jpg",
  "data": {
    "description": {
      "value": "<p><a href=\"http://paizo.com/paizo/faq/v5748nruor1gg#v5748eaic9r9l\">Errata</a>Source&nbsp;<a href=\"http://paizo.com/products/btpy8tmc?Pathfinder-Roleplaying-Game-Ultimate-Equipment\" target=\"_blank\" rel=\"noopener\">Ultimate Equipment pg. 58</a>,&nbsp;<a href=\"http://paizo.com/pathfinderRPG/v5748btpy8fo1\" target=\"_blank\" rel=\"noopener\">Advanced Player's Guide pg. 183</a>,&nbsp;<a href=\"http://paizo.com/store/downloads/pathfinder/pathfinderCompanion/pathfinderRPG/v5748btpy8dmf\" target=\"_blank\" rel=\"noopener\">Adventurer's Armory pg. 19</a><br>Price&nbsp;1 sp;&nbsp;Weight&nbsp;—<br>Category&nbsp;Adventuring Gear</p>\n<h3>Description</h3>\n<p>Weapon cords are 2-foot-long leather straps that attach your weapon to your wrist. If you drop your weapon or are disarmed, you can recover it as a move action, and it never moves any farther away from you than an adjacent square. However, you cannot switch to a different weapon without first untying the cord (a full-round action) or cutting it (a move action or an attack, hardness 0, 1 hit point). Unlike with a locked gauntlet, you can still use a hand with a weapon cord, though a dangling weapon may interfere with finer actions.</p>"
    },
    "tags": [],
    "price": 0.1,
    "equipped": false,
    "identifiedName": "Weapon cord",
    "changes": [],
    "contextNotes": [],
    "links": {
      "children": []
    },
    "flags": {
      "boolean": [],
      "dictionary": []
    },
    "scriptCalls": [],
    "subType": "gear"
  },
  "effects": [],
  "folder": null,
  "sort": 0,
  "permission": {
    "default": 0
  },
  "flags": {}
}
