{
  "_id": "Ay9dOQwUOQdCEEg8",
  "name": "Abomination Discipline",
  "type": "feat",
  "img": "systems/pf1/icons/spells/slice-spirit-3.jpg",
  "data": {
    "description": {
      "value": "<p>Your mind is impure, tainted by outside forces. These might be monstrous ancestors whose blood still flows within you, or powerful and unknowable psychic forces that intrude upon your mind. Like a psychic disease, this influence consumes part of your brain, creating a dark counterpart to your normal self. Every time you call forth a psychic spell, you’re drawing on this dangerous force—and potentially giving it a greater hold on you. This malign influence might stem from creatures like rakshasas and aboleths, or perhaps malign entities that dwell in the voids between the stars.<br><br><strong>Phrenic Pool Ability:</strong> Charisma<br><br><strong>Bonus Spells:</strong>&nbsp;</p>\n<ul>\n<li>@Compendium[pf1.spells.mczdgwo3xl8c6e26]{Ray Of Enfeeblement} (1st),&nbsp;</li>\n<li>@Compendium[pf1.spells.kouqz0pm1xl8xilm]{Alter Self} (4th),&nbsp;</li>\n<li>@Compendium[pf1.spells.nnocwsre2mckj58a]{Excruciating Deformation} (6th),&nbsp;</li>\n<li>@Compendium[pf1.spells.wralcmyi4tdcai24]{Black Tentacles} (8th),&nbsp;</li>\n<li>@Compendium[pf1.spells.yi0rf7b0v4lev9fl]{Explode Head} (10th),&nbsp;</li>\n<li>@Compendium[pf1.spells.5w1zrztwbvd6xkgj]{Repulsion} (12th),&nbsp;</li>\n<li>@Compendium[pf1.spells.s6q72tw2zra9sycu]{Insanity} (14th),&nbsp;</li>\n<li>@Compendium[pf1.spells.003tu19dpyoaj0se]{Orb Of The Void}(16th),&nbsp;</li>\n<li>@Compendium[pf1.spells.egbw0mba2cpe3xe5]{Telekinetic Storm} (18th).</li>\n</ul>"
    },
    "tags": [],
    "actions": [],
    "attackNotes": [],
    "effectNotes": [],
    "changes": [],
    "contextNotes": [],
    "links": {
      "children": [],
      "charges": []
    },
    "tag": "classFeat_abominationDiscipline",
    "useCustomTag": true,
    "armorProf": {
      "value": []
    },
    "weaponProf": {
      "value": []
    },
    "languages": {
      "value": []
    },
    "scriptCalls": [],
    "featType": "classFeat",
    "associations": {
      "classes": [["Psychic"]]
    }
  },
  "effects": [],
  "folder": null,
  "sort": 0,
  "permission": {
    "default": 0
  },
  "flags": {}
}
