{
  "_id": "KjxrPdfhVvVHlY5r",
  "name": "Abyssal Bloodrage",
  "type": "feat",
  "img": "systems/pf1/icons/skills/red_05.jpg",
  "data": {
    "description": {
      "value": "<p>At 12th level, the morale bonus to Strength granted by your bloodrage increases by 2, but the penalty to AC becomes –4 instead of –2. At 16th level, this bonus increases by 4 instead. At 20th level, it increases by 6 instead.</p>"
    },
    "tags": [],
    "actions": [],
    "attackNotes": [],
    "effectNotes": [],
    "changes": [],
    "contextNotes": [],
    "links": {
      "children": [],
      "charges": []
    },
    "tag": "classFeat_abyssalBloodrage",
    "useCustomTag": true,
    "armorProf": {
      "value": []
    },
    "weaponProf": {
      "value": []
    },
    "languages": {
      "value": []
    },
    "scriptCalls": [],
    "featType": "classFeat",
    "associations": {
      "classes": [["Bloodrager"]]
    },
    "abilityType": "su"
  },
  "effects": [],
  "folder": null,
  "sort": 0,
  "permission": {
    "default": 0
  },
  "flags": {}
}
