{
  "_id": "xFI3cCUwmvgCe96o",
  "name": "Accurate Poisoner",
  "type": "feat",
  "img": "systems/pf1/icons/items/weapons/dagger.PNG",
  "data": {
    "description": {
      "value": "<p>A rogue with this talent delivers poisons with deadly precision. When the rogue successfully hits an opponent with a poisoned weapon and would deal sneak attack damage, she can forgo the sneak attack damage and increase the poison’s potency. If she does, the poison’s duration increases by 2 (for example, large scorpion venom lasts for 8 rounds instead of 6 rounds, and drow poison lasts for 4 minutes instead of 2 minutes).</p>"
    },
    "tags": [],
    "actions": [],
    "attackNotes": [],
    "effectNotes": [],
    "changes": [],
    "contextNotes": [],
    "links": {
      "children": [],
      "charges": []
    },
    "tag": "classFeat_accuratePoisoner",
    "useCustomTag": true,
    "armorProf": {
      "value": []
    },
    "weaponProf": {
      "value": []
    },
    "languages": {
      "value": []
    },
    "scriptCalls": [],
    "featType": "classFeat",
    "associations": {
      "classes": [["Rogue"]]
    },
    "abilityType": "ex"
  },
  "effects": [],
  "folder": null,
  "sort": 0,
  "permission": {
    "default": 0
  },
  "flags": {}
}
