{
  "_id": "aNTZXUUBQlh5VDTv",
  "name": "Advanced Slayer Talents",
  "type": "feat",
  "img": "systems/pf1/icons/feats/greater-weapon-focus.jpg",
  "data": {
    "description": {
      "value": "<p>At 10th level and every 2 levels thereafter, a slayer can select an advanced talent in place of a slayer talent.</p>"
    },
    "tags": [],
    "actions": [],
    "attackNotes": [],
    "effectNotes": [],
    "changes": [],
    "contextNotes": [],
    "links": {
      "children": [],
      "charges": []
    },
    "tag": "classFeat_advancedSlayerTalents",
    "useCustomTag": true,
    "armorProf": {
      "value": []
    },
    "weaponProf": {
      "value": []
    },
    "languages": {
      "value": []
    },
    "scriptCalls": [],
    "featType": "classFeat",
    "associations": {
      "classes": [["Slayer"]]
    }
  },
  "effects": [],
  "folder": null,
  "sort": 0,
  "permission": {
    "default": 0
  },
  "flags": {}
}
