{
  "_id": "bqJOJF5OXJlOxjf3",
  "name": "Ambush Subdomain",
  "type": "feat",
  "img": "systems/pf1/icons/skills/affliction_24.jpg",
  "data": {
    "description": {
      "value": "<p><strong>Replacement Power:&nbsp;</strong><em>Note:</em> Only creatures with the&nbsp;<a href=\"https://aonprd.com/TraitDisplay.aspx?ItemName=Kobold%20Faith\">Kobold Faith</a>&nbsp;trait can take this subdomain.</p>\n<p><strong>Replacement Domain Spells:</strong></p>\n<ul>\n<li>1st—@Compendium[pf1.spells.nee6cxpoekp3aklq]{Alarm}</li>\n<li>5th—@Compendium[pf1.spells.7c0l64pfdkgl7j5y]{Illusory Wall}</li>\n<li>6th—@Compendium[pf1.spells.fxwycv6d7xwzua4t]{Veil}</li>\n</ul>"
    },
    "tags": [],
    "actions": [],
    "attackNotes": [],
    "effectNotes": [],
    "changes": [],
    "contextNotes": [],
    "links": {
      "children": [],
      "charges": []
    },
    "tag": "classFeat_ambushSubdomain",
    "useCustomTag": true,
    "armorProf": {
      "value": []
    },
    "weaponProf": {
      "value": []
    },
    "languages": {
      "value": []
    },
    "scriptCalls": [],
    "featType": "classFeat",
    "associations": {
      "classes": [["Cleric"]]
    }
  },
  "effects": [],
  "folder": null,
  "sort": 0,
  "permission": {
    "default": 0
  },
  "flags": {}
}
