{
  "_id": "uGfSuLC56u0Nnns6",
  "name": "Animal Skin",
  "type": "feat",
  "img": "systems/pf1/icons/skills/violet_02.jpg",
  "data": {
    "description": {
      "value": "<p>The witch can become any animal of a size from Tiny to Large whose skin she wears. This ability is similar to @Compendium[pf1.spells.774kmgcb7ygviht0]{Beast Shape II}, except she takes on the appearance of the specific individual from which the skin came.</p>"
    },
    "tags": [],
    "actions": [],
    "attackNotes": [],
    "effectNotes": [],
    "changes": [],
    "contextNotes": [],
    "links": {
      "children": [],
      "charges": []
    },
    "tag": "classFeat_animalSkin",
    "useCustomTag": true,
    "armorProf": {
      "value": []
    },
    "weaponProf": {
      "value": []
    },
    "languages": {
      "value": []
    },
    "scriptCalls": [],
    "featType": "classFeat",
    "associations": {
      "classes": [["Witch"]]
    }
  },
  "effects": [],
  "folder": null,
  "sort": 0,
  "permission": {
    "default": 0
  },
  "flags": {}
}
