{
  "_id": "j4uzXCLo91dJszhU",
  "name": "Aristocracy Subdomain",
  "type": "feat",
  "img": "systems/pf1/icons/skills/yellow_08.jpg",
  "data": {
    "description": {
      "value": "<p><strong>Replacement Domain Spells:</strong></p>\n<ul>\n<li>3rd—@Compendium[pf1.spells.nznqmwpavfediten]{Enter Image}</li>\n<li>9th—@Compendium[pf1.spells.xuuzj9lr2xbwaim4]{Overwhelming Presence}</li>\n</ul>"
    },
    "tags": [],
    "actions": [],
    "attackNotes": [],
    "effectNotes": [],
    "changes": [],
    "contextNotes": [],
    "links": {
      "children": [],
      "charges": []
    },
    "tag": "classFeat_aristocracySubdomain",
    "useCustomTag": true,
    "armorProf": {
      "value": []
    },
    "weaponProf": {
      "value": []
    },
    "languages": {
      "value": []
    },
    "scriptCalls": [],
    "featType": "classFeat",
    "associations": {
      "classes": [["Cleric"]]
    }
  },
  "effects": [],
  "folder": null,
  "sort": 0,
  "permission": {
    "default": 0
  },
  "flags": {}
}
