{
  "_id": "Ik71nIuAbRCXyCQm",
  "name": "Armor Skin",
  "type": "feat",
  "img": "systems/pf1/icons/feats/deceitful.jpg",
  "data": {
    "description": {
      "value": "<p>The vigilante’s armor is like a second skin. He doesn’t apply the armor check penalty for light and medium armor on Acrobatics, Escape Artist, or Stealth checks. This penalty applies on other skill checks as normal.</p>\n<p>At 8th level, he can move at full speed in medium armor.</p>"
    },
    "tags": [],
    "actions": [],
    "attackNotes": [],
    "effectNotes": [],
    "changes": [],
    "contextNotes": [],
    "links": {
      "children": [],
      "charges": []
    },
    "tag": "classFeat_armorSkin",
    "useCustomTag": true,
    "armorProf": {
      "value": []
    },
    "weaponProf": {
      "value": []
    },
    "languages": {
      "value": []
    },
    "scriptCalls": [],
    "featType": "classFeat",
    "associations": {
      "classes": [["Vigilante"]]
    },
    "abilityType": "ex"
  },
  "effects": [],
  "folder": null,
  "sort": 0,
  "permission": {
    "default": 0
  },
  "flags": {}
}
