{
  "_id": "dyf9F6HrSGElkjit",
  "name": "Aryzul's Curse",
  "type": "feat",
  "img": "systems/pf1/icons/feats/deafening-critical.jpg",
  "data": {
    "description": {
      "value": "<p>When raging, the barbarian emanates a 5-foot-radius aura of radioactivity. Each round that another creature begins its turn within this aura, it takes a cumulative –2 penalty to Strength (Fortitude negates, DC = 10 + 1/2 the barbarian’s level + her Constitution modifier) for the duration of the rage. A creature’s Strength penalty from this ability cannot exceed the barbarian’s class level. At 12th level, the barbarian can choose to create a 10-foot-radius aura of radioactivity when she begins her rage.</p>"
    },
    "tags": [],
    "actions": [],
    "attackNotes": [],
    "effectNotes": [],
    "changes": [],
    "contextNotes": [],
    "links": {
      "children": [],
      "charges": []
    },
    "tag": "classFeat_aryzulsCurse",
    "useCustomTag": true,
    "armorProf": {
      "value": []
    },
    "weaponProf": {
      "value": []
    },
    "languages": {
      "value": []
    },
    "scriptCalls": [],
    "featType": "classFeat",
    "associations": {
      "classes": [["Barbarian"], ["Skald"]]
    },
    "abilityType": "su"
  },
  "effects": [],
  "folder": null,
  "sort": 0,
  "permission": {
    "default": 0
  },
  "flags": {}
}
