{
  "_id": "GIPRoABizff4zzhz",
  "name": "Autumn Patron",
  "type": "feat",
  "img": "systems/pf1/icons/feats/improved-familiar.jpg",
  "data": {
    "description": {
      "value": "<ul>\n<li>2nd — @Compendium[pf1.spells.mczdgwo3xl8c6e26]{Ray Of Enfeeblement}</li>\n<li>4th — @Compendium[pf1.spells.8w67l6dzzsi6oz5f]{Create Pit}</li>\n<li>6th — @Compendium[pf1.spells.vdmsaodgnbo8wjfx]{Gentle Repose}</li>\n<li>8th — @Compendium[pf1.spells.9ha7fyq951iijvt8]{Vitriolic Mist}</li>\n<li>10th — @Compendium[pf1.spells.b8lt1275mz4ez4d8]{Major Creation}</li>\n<li>12th — @Compendium[pf1.spells.ky8n4yzn6kc2cume]{Acid Fog}</li>\n<li>14th — @Compendium[pf1.spells.mqrflbi6p6cltdze]{Caustic Eruption}</li>\n<li>16th — @Compendium[pf1.spells.e8zen5nzixnt7bde]{Horrid Wilting}</li>\n<li>18th — @Compendium[pf1.spells.wplgawb6aznjx7se]{Wail of the Banshee}</li>\n</ul>"
    },
    "tags": [],
    "actions": [],
    "attackNotes": [],
    "effectNotes": [],
    "changes": [],
    "contextNotes": [],
    "links": {
      "children": [],
      "charges": []
    },
    "tag": "classFeat_autumnPatron",
    "useCustomTag": true,
    "armorProf": {
      "value": []
    },
    "weaponProf": {
      "value": []
    },
    "languages": {
      "value": []
    },
    "scriptCalls": [],
    "featType": "classFeat",
    "associations": {
      "classes": [["Witch"]]
    }
  },
  "effects": [],
  "folder": null,
  "sort": 0,
  "permission": {
    "default": 0
  },
  "flags": {}
}
