{
  "_id": "lm3IpcEyG2Qi0TJx",
  "name": "Battle Master",
  "type": "feat",
  "img": "systems/pf1/icons/skills/green_03.jpg",
  "data": {
    "description": {
      "value": "<p>The shaman makes an extra attack of opportunity each round. This ability stacks with the attacks of opportunity granted by the @Compendium[pf1.feats.h9nHYLxXvIXBTmup]{Combat Reflexes} feat.</p>\n<p>At 8th level, the shaman gains the @Compendium[pf1.feats.YLCvMNeAF9V31m1h]{Weapon Specialization} feat in a weapon of her choice as a bonus feat.</p>\n<p>At 16th level, the shaman gains the @Compendium[pf1.feats.IER2MzJrjSvxMlNS]{Greater Weapon Focus} feat as a bonus feat, for the same weapon chosen for Weapon Specialization. The shaman doesn’t need to meet the prerequisites of these feats.</p>"
    },
    "tags": [],
    "actions": [],
    "attackNotes": [],
    "effectNotes": [],
    "changes": [],
    "contextNotes": [],
    "links": {
      "children": [],
      "charges": []
    },
    "tag": "classFeat_battleMaster",
    "useCustomTag": true,
    "armorProf": {
      "value": []
    },
    "weaponProf": {
      "value": []
    },
    "languages": {
      "value": []
    },
    "scriptCalls": [],
    "featType": "classFeat",
    "associations": {
      "classes": [["Shaman"]]
    },
    "abilityType": "ex"
  },
  "effects": [],
  "folder": null,
  "sort": 0,
  "permission": {
    "default": 0
  },
  "flags": {}
}
