{
  "_id": "vP4OXXUk2aHQ8F7V",
  "name": "Beast Totem, Greater",
  "type": "feat",
  "img": "systems/pf1/icons/feats/deafening-critical.jpg",
  "data": {
    "description": {
      "value": "<p>While raging, the barbarian gains the pounce special ability, allowing her to make a full attack at the end of a charge. In addition, the damage from her claws increases to 1d8 (1d6 if Small) and the claws deal ×3 damage on a critical hit. A barbarian must have the beast totem rage power to select this rage power.</p>\n<p>A barbarian must be at least 10th level to select this rage power.</p>"
    },
    "tags": [],
    "actions": [],
    "attackNotes": [],
    "effectNotes": [],
    "changes": [],
    "contextNotes": [],
    "links": {
      "children": [],
      "charges": []
    },
    "tag": "classFeat_beastTotemGreater",
    "useCustomTag": true,
    "armorProf": {
      "value": []
    },
    "weaponProf": {
      "value": []
    },
    "languages": {
      "value": []
    },
    "scriptCalls": [],
    "featType": "classFeat",
    "associations": {
      "classes": [["Barbarian"], ["Skald"]]
    },
    "abilityType": "su"
  },
  "effects": [],
  "folder": null,
  "sort": 0,
  "permission": {
    "default": 0
  },
  "flags": {}
}
