{
  "_id": "2c6gqwrqlldjTMxg",
  "name": "Bitter Pill",
  "type": "feat",
  "img": "systems/pf1/icons/items/potions/unique-3.jpg",
  "data": {
    "description": {
      "value": "<p>The alchemist becomes bitter in flavor. Any creature that hits the bitter alchemist with a bite attack gains the sickened condition for 1 round unless it succeeds at a Fortitude save (DC = 10 + half the alchemist’s level + the alchemist’s Constitution modifier). Any creature that swallows the alchemist whole gains the nauseated condition for 1 round unless it succeeds at a Fortitude save (same DC as above). If the alchemist is trapped in the creature’s gullet and it becomes nauseated, the creature vomits him back out immediately as a free action at the start of the creature’s turn; the alchemist lands prone adjacent to the creature.</p>"
    },
    "tags": [],
    "actions": [],
    "attackNotes": [],
    "effectNotes": [],
    "changes": [],
    "contextNotes": [],
    "links": {
      "children": [],
      "charges": []
    },
    "tag": "classFeat_bitterPill",
    "useCustomTag": true,
    "armorProf": {
      "value": []
    },
    "weaponProf": {
      "value": []
    },
    "languages": {
      "value": []
    },
    "scriptCalls": [],
    "featType": "classFeat",
    "associations": {
      "classes": [["Alchemist"]]
    },
    "abilityType": "su"
  },
  "effects": [],
  "folder": null,
  "sort": 0,
  "permission": {
    "default": 0
  },
  "flags": {}
}
