{
  "_id": "kFqJ278zCz56BbsI",
  "name": "Blindsense (3 pts)",
  "type": "feat",
  "img": "systems/pf1/icons/skills/blue_26.jpg",
  "data": {
    "description": {
      "value": "<p>An eidolon's senses become incredibly acute, giving it blindsense out to a range of 30 feet. This ability allows the eidolon to pinpoint the location of creatures that it cannot see without having to make a Perception check, but such creatures still have total concealment from the eidolon. Visibility still affects the eidolon's movement and it is still denied its Dexterity bonus to Armor Class against attacks from creatures it cannot see.</p>\n<p>The summoner must be at least 9th level before selecting this evolution.</p>"
    },
    "tags": [],
    "actions": [],
    "attackNotes": [],
    "effectNotes": [],
    "changes": [],
    "contextNotes": [],
    "links": {
      "children": [],
      "charges": []
    },
    "tag": "classFeat_blindsense3Pts",
    "useCustomTag": true,
    "armorProf": {
      "value": []
    },
    "weaponProf": {
      "value": []
    },
    "languages": {
      "value": []
    },
    "scriptCalls": [],
    "featType": "classFeat",
    "associations": {
      "classes": [["Eidolon"]]
    },
    "abilityType": "ex"
  },
  "effects": [],
  "folder": null,
  "sort": 0,
  "permission": {
    "default": 0
  },
  "flags": {}
}
