{
  "_id": "t6KPQVoBSt3gbe5T",
  "name": "Blinding Strike",
  "type": "feat",
  "img": "systems/pf1/icons/items/weapons/butterfly-knife.PNG",
  "data": {
    "description": {
      "value": "<p>A rogue who selects this talent gains @Compendium[pf1.feats.2Gd0V8lDe6BkG7nl]{Blinding Critical} as a bonus feat, even if she doesn’t meet the prerequisites. The rogue must have the obscuring blow rogue talent and be at least 15th level before choosing this talent.</p>"
    },
    "tags": [],
    "actions": [],
    "attackNotes": [],
    "effectNotes": [],
    "changes": [],
    "contextNotes": [],
    "links": {
      "children": [],
      "charges": []
    },
    "tag": "classFeat_blindingStrike",
    "useCustomTag": true,
    "armorProf": {
      "value": []
    },
    "weaponProf": {
      "value": []
    },
    "languages": {
      "value": []
    },
    "scriptCalls": [],
    "featType": "classFeat",
    "associations": {
      "classes": [["Rogue"]]
    }
  },
  "effects": [],
  "folder": null,
  "sort": 0,
  "permission": {
    "default": 0
  },
  "flags": {}
}
