{
  "_id": "HFab4vfATqdqnlSJ",
  "name": "Blood Casting",
  "type": "feat",
  "img": "systems/pf1/icons/skills/red_22.jpg",
  "data": {
    "description": {
      "value": "<p>At 4th level, the bloodrager gains the ability to cast spells even while bloodraging. He can also cast these spells defensively and can make concentration checks for these spells while bloodraging. While bloodraging, he can cast and concentrate on only his bloodrager spells; spells from other classes cannot be cast during this state.</p>"
    },
    "tags": [],
    "actions": [],
    "attackNotes": [],
    "effectNotes": [],
    "changes": [],
    "contextNotes": [],
    "links": {
      "children": [],
      "charges": []
    },
    "tag": "classFeat_bloodCasting",
    "useCustomTag": true,
    "armorProf": {
      "value": []
    },
    "weaponProf": {
      "value": []
    },
    "languages": {
      "value": []
    },
    "scriptCalls": [],
    "featType": "classFeat",
    "associations": {
      "classes": [["Bloodrager"]]
    },
    "abilityType": "su"
  },
  "effects": [],
  "folder": null,
  "sort": 0,
  "permission": {
    "default": 0
  },
  "flags": {}
}
