{
  "_id": "6mmwgDaOPAUP91HR",
  "name": "Bomber's Discovery",
  "type": "feat",
  "img": "systems/pf1/icons/items/weapons/dagger.PNG",
  "data": {
    "description": {
      "value": "<p>A rogue with this talent gains an alchemist’s discovery that modifies a bomb. A rogue must have the bomber rogue talent to select this talent.</p>"
    },
    "tags": [],
    "actions": [],
    "attackNotes": [],
    "effectNotes": [],
    "changes": [],
    "contextNotes": [],
    "links": {
      "children": [],
      "charges": []
    },
    "tag": "classFeat_bombersDiscovery",
    "useCustomTag": true,
    "armorProf": {
      "value": []
    },
    "weaponProf": {
      "value": []
    },
    "languages": {
      "value": []
    },
    "scriptCalls": [],
    "featType": "classFeat",
    "associations": {
      "classes": [["Rogue"]]
    },
    "abilityType": "su"
  },
  "effects": [],
  "folder": null,
  "sort": 0,
  "permission": {
    "default": 0
  },
  "flags": {}
}
