{
  "_id": "1szHM5HlsdI4QhZz",
  "name": "Celestial Poisons",
  "type": "feat",
  "img": "systems/pf1/icons/items/potions/unique-3.jpg",
  "data": {
    "description": {
      "value": "<p>The alchemist is able to infuse poisons with celestial power so they can affect evil creatures that are normally immune to poison. Any poison the alchemist administers to a weapon can affect undead and evil outsiders, bypassing their inherent immunities. Magical effects that negate poisons still apply. If a creature fails its save, the poison acts as normal, but may have no effect on the creature, depending on the effect of the poison (such as dealing Constitution damage to undead).</p>\n<p>An alchemist must be at least 8th level before selecting this discovery.</p>"
    },
    "tags": [],
    "actions": [],
    "attackNotes": [],
    "effectNotes": [],
    "changes": [],
    "contextNotes": [],
    "links": {
      "children": [],
      "charges": []
    },
    "tag": "classFeat_celestialPoisons",
    "useCustomTag": true,
    "armorProf": {
      "value": []
    },
    "weaponProf": {
      "value": []
    },
    "languages": {
      "value": []
    },
    "scriptCalls": [],
    "featType": "classFeat",
    "associations": {
      "classes": [["Alchemist"]]
    },
    "abilityType": "su"
  },
  "effects": [],
  "folder": null,
  "sort": 0,
  "permission": {
    "default": 0
  },
  "flags": {}
}
