{
  "_id": "cN8MjvuVuNGfBDJL",
  "name": "Construct Subdomain",
  "type": "feat",
  "img": "systems/pf1/icons/skills/affliction_13.jpg",
  "data": {
    "description": {
      "value": "<p><strong>Replacement Domain Spells:</strong></p>\n<ul>\n<li>7th—@Compendium[pf1.spells.s2p7a4biy7bl4ks2]{Limited Wish}</li>\n<li>8th—@Compendium[pf1.spells.2sa3881har33geo1]{Polymorph Any Object}</li>\n</ul>"
    },
    "tags": [],
    "actions": [],
    "attackNotes": [],
    "effectNotes": [],
    "changes": [],
    "contextNotes": [],
    "links": {
      "children": [],
      "charges": []
    },
    "tag": "classFeat_constructSubdomain",
    "useCustomTag": true,
    "armorProf": {
      "value": []
    },
    "weaponProf": {
      "value": []
    },
    "languages": {
      "value": []
    },
    "scriptCalls": [],
    "featType": "classFeat",
    "associations": {
      "classes": [["Cleric"]]
    }
  },
  "effects": [],
  "folder": null,
  "sort": 0,
  "permission": {
    "default": 0
  },
  "flags": {}
}
