{
  "_id": "S6PAesn9cwWaaI7s",
  "name": "Convert Wand",
  "type": "feat",
  "img": "systems/pf1/icons/spells/runes-blue-3.jpg",
  "data": {
    "description": {
      "value": "<p>An arcanist can spend 1 point from her arcane reservoir as a full-round action to convert one wand that is in her possession into a wand of a cure spell with the same spell level and caster level (a cure spell is any spell with “cure” in its name). For example, she could convert a&nbsp;<a href=\"https://www.aonprd.com/SpellDisplay.aspx?ItemName=stone%20shape\">wand of stone shape</a>&nbsp;into a&nbsp;<a href=\"https://www.aonprd.com/SpellDisplay.aspx?ItemName=cure%20serious%20wounds\">wand of cure serious wounds</a>. This alteration lasts for 1 minute, after which the wand reverts to its original function. Charges expended while the wand was altered are still expended when it reverts.</p>"
    },
    "tags": [],
    "actions": [
      {
        "_id": "8mcjadxho45he0mu",
        "name": "Use",
        "img": "systems/pf1/icons/spells/runes-blue-3.jpg",
        "description": "",
        "activation": {
          "cost": 1,
          "type": "full"
        },
        "unchainedAction": {
          "activation": {
            "cost": 3,
            "type": "action"
          }
        },
        "duration": {
          "value": "1",
          "units": "minute"
        },
        "target": {
          "value": ""
        },
        "range": {
          "value": null,
          "units": "",
          "maxIncrements": 1,
          "minValue": null,
          "minUnits": ""
        },
        "uses": {
          "autoDeductCharges": true,
          "autoDeductChargesCost": "1",
          "per": "",
          "value": 0,
          "maxFormula": ""
        },
        "measureTemplate": {
          "type": "",
          "size": "",
          "overrideColor": false,
          "customColor": "",
          "overrideTexture": false,
          "customTexture": ""
        },
        "attackName": "",
        "actionType": "",
        "attackBonus": "",
        "critConfirmBonus": "",
        "damage": {
          "parts": [],
          "critParts": [],
          "nonCritParts": []
        },
        "attackParts": [],
        "formulaicAttacks": {
          "count": {
            "formula": ""
          },
          "bonus": {
            "formula": ""
          },
          "label": null
        },
        "formula": "",
        "ability": {
          "attack": null,
          "damage": null,
          "damageMult": 1,
          "critRange": 20,
          "critMult": 2
        },
        "save": {
          "dc": 0,
          "type": "",
          "description": ""
        },
        "effectNotes": [],
        "attackNotes": [],
        "soundEffect": "",
        "powerAttack": {
          "multiplier": "",
          "damageBonus": 2,
          "critMultiplier": 1
        },
        "naturalAttack": {
          "secondary": {
            "attackBonus": "-5",
            "damageMult": 0.5
          }
        },
        "nonlethal": false,
        "usesAmmo": false,
        "spellEffect": "",
        "spellArea": "",
        "conditionals": [],
        "enh": {
          "override": false,
          "value": 0
        }
      }
    ],
    "uses": {
      "per": ""
    },
    "attackNotes": [],
    "effectNotes": [],
    "changes": [],
    "contextNotes": [],
    "links": {
      "children": [],
      "charges": []
    },
    "tag": "classFeat_convertWand",
    "useCustomTag": true,
    "armorProf": {
      "value": []
    },
    "weaponProf": {
      "value": []
    },
    "languages": {
      "value": []
    },
    "scriptCalls": [],
    "featType": "classFeat",
    "associations": {
      "classes": [["Arcanist"]]
    },
    "abilityType": "su"
  },
  "effects": [],
  "folder": null,
  "sort": 0,
  "permission": {
    "default": 0
  },
  "flags": {}
}
