{
  "_id": "rt6UKj8bKRv21Wyc",
  "name": "Covetous Curse",
  "type": "feat",
  "img": "systems/pf1/icons/spells/horror-eerie-1.jpg",
  "data": {
    "description": {
      "value": "<p>You find yourself drawn to the luster of wealthy living. You must wear fine nonmagical clothing and jewelry worth at least 50 gp + 100 gp per character level you have beyond 1st. If you do not have sufficient wealth to purchase this additional equipment, you feel a strong desire (but are not compelled) to sell existing items or steal from others to obtain it. You are sickened whenever you do not meet this requirement; you are also sickened for 24 hours after anything worth 25 gp x your character level or more is taken from you against your will. Use Magic Device becomes a class skill for you.</p>\n<p>At 5th level, you gain a +4 insight bonus on Appraise checks, Spellcraft checks to identify magic items, and Use Magic Device checks.</p>\n<p>At 10th level, you add @Compendium[pf1.spells.rxk9rk8gvqau3f3l]{Fabricate} to your list of spells known.</p>\n<p>At 15th level, you add half your oracle level to your CMD against stealAPG&nbsp;combat maneuvers and to the DC of Sleight of Hand checks to take items from you.</p>"
    },
    "tags": [],
    "actions": [],
    "attackNotes": [],
    "effectNotes": [],
    "changes": [
      {
        "_id": "bqupe4f7",
        "formula": "@classes.oracle.level >= 5 ? 4 : 0",
        "operator": "+",
        "subTarget": "skill.apr",
        "modifier": "insight",
        "priority": 0,
        "value": 0,
        "target": "skill"
      },
      {
        "_id": "s22762hv",
        "formula": "@classes.oracle.level >= 5 ? 4 : 0",
        "operator": "+",
        "subTarget": "skill.spl",
        "modifier": "insight",
        "priority": 0,
        "value": 0,
        "target": "skill"
      },
      {
        "_id": "w05jp0uv",
        "formula": "@classes.oracle.level >= 5 ? 4 : 0",
        "operator": "+",
        "subTarget": "skill.umd",
        "modifier": "insight",
        "priority": 0,
        "value": 0,
        "target": "skill"
      }
    ],
    "contextNotes": [],
    "links": {
      "children": [],
      "charges": []
    },
    "tag": "classFeat_covetousCurse",
    "useCustomTag": true,
    "armorProf": {
      "value": []
    },
    "weaponProf": {
      "value": []
    },
    "languages": {
      "value": []
    },
    "scriptCalls": [],
    "featType": "classFeat",
    "associations": {
      "classes": [["Oracle"]]
    }
  },
  "effects": [],
  "folder": null,
  "sort": 0,
  "permission": {
    "default": 0
  },
  "flags": {}
}
