{
  "_id": "qb43PPkr3e3oi5fO",
  "name": "Curse Blessing: Retributive Curse",
  "type": "feat",
  "img": "systems/pf1/icons/spells/evil-eye-red-2.jpg",
  "data": {
    "description": {
      "value": "<p>At 10th level, as a swift or immediate action, you can inflict a curse on any adjacent creature that scores a critical hit against you or deals precision damage to you. The target must succeed at a Will saving throw or be cursed. Select one of the following effects: the target takes a –2 penalty to one ability score of your choice (the ability cannot be reduced below 1); the target takes a –2 penalty on attack rolls, saving throws, ability checks, and skill checks; each turn, the target has a 25% chance of taking no action (otherwise, it acts normally). This curse lasts for 1 hour.</p>\n<p>A creature can be subjected to only one instance of retributive curse at a time. This otherwise functions as&nbsp;bestow curse.</p>"
    },
    "tags": [],
    "actions": [
      {
        "_id": "s4kzlx8kox6q2go9",
        "name": "Use",
        "img": "systems/pf1/icons/spells/evil-eye-red-2.jpg",
        "description": "",
        "activation": {
          "cost": 1,
          "type": "immediate"
        },
        "unchainedAction": {
          "activation": {
            "cost": 1,
            "type": "reaction"
          }
        },
        "duration": {
          "value": "1",
          "units": "hour"
        },
        "target": {
          "value": "adjacent creature"
        },
        "range": {
          "value": null,
          "units": "touch",
          "maxIncrements": 1,
          "minValue": null,
          "minUnits": ""
        },
        "uses": {
          "autoDeductCharges": true,
          "autoDeductChargesCost": "1",
          "per": "",
          "value": 0,
          "maxFormula": ""
        },
        "measureTemplate": {
          "type": "",
          "size": "",
          "overrideColor": false,
          "customColor": "",
          "overrideTexture": false,
          "customTexture": ""
        },
        "attackName": "",
        "actionType": "save",
        "attackBonus": "",
        "critConfirmBonus": "",
        "damage": {
          "parts": [],
          "critParts": [],
          "nonCritParts": []
        },
        "attackParts": [],
        "formulaicAttacks": {
          "count": {
            "formula": ""
          },
          "bonus": {
            "formula": ""
          },
          "label": null
        },
        "formula": "",
        "ability": {
          "attack": null,
          "damage": "",
          "damageMult": 1,
          "critRange": 20,
          "critMult": 2
        },
        "save": {
          "dc": "0",
          "type": "will",
          "description": "Will negates"
        },
        "effectNotes": [],
        "attackNotes": [],
        "soundEffect": "",
        "powerAttack": {
          "multiplier": "",
          "damageBonus": 2,
          "critMultiplier": 1
        },
        "naturalAttack": {
          "secondary": {
            "attackBonus": "-5",
            "damageMult": 0.5
          }
        },
        "nonlethal": false,
        "usesAmmo": false,
        "spellEffect": "",
        "spellArea": "",
        "conditionals": [],
        "enh": {
          "override": false,
          "value": 0
        }
      }
    ],
    "uses": {
      "per": ""
    },
    "attackNotes": [],
    "effectNotes": [],
    "changes": [],
    "contextNotes": [],
    "links": {
      "children": [],
      "charges": []
    },
    "tag": "classFeat_curseBlessingRetributiveCurse",
    "useCustomTag": true,
    "armorProf": {
      "value": []
    },
    "weaponProf": {
      "value": []
    },
    "languages": {
      "value": []
    },
    "scriptCalls": [],
    "featType": "classFeat",
    "associations": {
      "classes": [["Warpriest"]]
    }
  },
  "effects": [],
  "folder": null,
  "sort": 0,
  "permission": {
    "default": 0
  },
  "flags": {}
}
