{
  "_id": "BjyzhYJfQxkKh2Yl",
  "name": "Dampen Presence",
  "type": "feat",
  "img": "systems/pf1/icons/items/weapons/dagger.PNG",
  "data": {
    "description": {
      "value": "<p>A rogue who selects this talent gains Dampen Presence (Pathfinder Player Companion: Dungeoneer’s Handbook 10) as a bonus feat. The rogue does not need to meet the feat’s prerequisites. The rogue is also considered to have the Skill Focus (Stealth) feat for the purpose of satisfying the prerequisites of any feat that lists Dampen Presence as a prerequisite.</p>"
    },
    "tags": [],
    "actions": [],
    "attackNotes": [],
    "effectNotes": [],
    "changes": [],
    "contextNotes": [],
    "links": {
      "children": [],
      "charges": []
    },
    "tag": "classFeat_dampenPresence",
    "useCustomTag": true,
    "armorProf": {
      "value": []
    },
    "weaponProf": {
      "value": []
    },
    "languages": {
      "value": []
    },
    "scriptCalls": [],
    "featType": "classFeat",
    "associations": {
      "classes": [["Rogue"]]
    },
    "abilityType": "ex"
  },
  "effects": [],
  "folder": null,
  "sort": 0,
  "permission": {
    "default": 0
  },
  "flags": {}
}
