{
  "_id": "EiDhmv4BnQAq2xRw",
  "name": "Deflect Arrows",
  "type": "feat",
  "img": "systems/pf1/icons/items/weapons/kunai.png",
  "data": {
    "description": {
      "value": "<p>A ninja who selects this ninja trick gains the @Compendium[pf1.feats.ACEQfonKVqh0fwkK]{Deflect Arrows} feat as a bonus feat. The ninja must have the @Compendium[pf1.feats.2aTFNMs3pW6nUBlr]{Improved Unarmed Strike} combat feat before taking this trick.</p>"
    },
    "tags": [],
    "actions": [],
    "attackNotes": [],
    "effectNotes": [],
    "changes": [],
    "contextNotes": [],
    "links": {
      "children": [],
      "charges": []
    },
    "tag": "classFeat_deflectArrows",
    "useCustomTag": true,
    "armorProf": {
      "value": []
    },
    "weaponProf": {
      "value": []
    },
    "languages": {
      "value": []
    },
    "scriptCalls": [],
    "featType": "classFeat",
    "associations": {
      "classes": [["Ninja"]]
    }
  },
  "effects": [],
  "folder": null,
  "sort": 0,
  "permission": {
    "default": 0
  },
  "flags": {}
}
