{
  "_id": "kpad9nBQ6qr4uOCe",
  "name": "Dragonbreath",
  "type": "feat",
  "img": "systems/pf1/icons/spells/fireball-eerie-3.jpg",
  "data": {
    "description": {
      "value": "<p>At 4th level, you can use a breath weapon once per day as a standard action. When you gain this ability, choose what kind of damage your breath weapon deals: acid, cold, electricity, or fire. Once you make this choice, you can’t change it later. Your breath weapon fills a 15-foot cone and deals 3d6 points of damage; this damage increases by 1d6 points at every even-numbered level you gain beyond 4th level. A creature hit by your dragonbreath attack can attempt a Reflex save (DC = 10 + half your class level + your Wisdom modifier) to take half damage. At 9th level, you can use this ability two times per day, and at 14th level, you can use it three times per day.</p>\n<p>This power replaces the Serpent Companion power of the Scalykind Domain.</p>"
    },
    "tags": [],
    "actions": [
      {
        "_id": "y5ty3quja300wbxb",
        "name": "Use",
        "img": "systems/pf1/icons/spells/fireball-eerie-3.jpg",
        "description": "",
        "activation": {
          "cost": 1,
          "type": "standard"
        },
        "unchainedAction": {
          "activation": {
            "cost": 2,
            "type": "action"
          }
        },
        "duration": {
          "value": null,
          "units": "inst"
        },
        "target": {
          "value": "Cone"
        },
        "range": {
          "value": "15",
          "units": "ft",
          "maxIncrements": 1,
          "minValue": null,
          "minUnits": ""
        },
        "uses": {
          "autoDeductCharges": true,
          "autoDeductChargesCost": "1",
          "per": "day",
          "value": 0,
          "maxFormula": "@classes.cleric.level >= 14 ? 3 : 2"
        },
        "measureTemplate": {
          "type": "",
          "size": "0",
          "overrideColor": false,
          "customColor": "",
          "overrideTexture": false,
          "customTexture": ""
        },
        "attackName": "",
        "actionType": "",
        "attackBonus": "",
        "critConfirmBonus": "",
        "damage": {
          "parts": [],
          "critParts": [],
          "nonCritParts": []
        },
        "attackParts": [],
        "formulaicAttacks": {
          "count": {
            "formula": ""
          },
          "bonus": {
            "formula": ""
          },
          "label": null
        },
        "formula": "",
        "ability": {
          "attack": null,
          "damage": null,
          "damageMult": 1,
          "critRange": 20,
          "critMult": 2
        },
        "save": {
          "dc": 0,
          "type": "",
          "description": ""
        },
        "effectNotes": [],
        "attackNotes": [],
        "soundEffect": "",
        "powerAttack": {
          "multiplier": "",
          "damageBonus": 2,
          "critMultiplier": 1
        },
        "naturalAttack": {
          "secondary": {
            "attackBonus": "-5",
            "damageMult": 0.5
          }
        },
        "nonlethal": false,
        "usesAmmo": false,
        "spellEffect": "",
        "spellArea": "",
        "conditionals": [],
        "enh": {
          "override": false,
          "value": 0
        }
      }
    ],
    "uses": {
      "per": "day",
      "maxFormula": "@classes.cleric.level >= 14 ? 3 : 2"
    },
    "attackNotes": [],
    "effectNotes": [],
    "changes": [],
    "contextNotes": [],
    "links": {
      "children": [],
      "charges": []
    },
    "tag": "classFeat_dragonbreath",
    "useCustomTag": true,
    "armorProf": {
      "value": []
    },
    "weaponProf": {
      "value": []
    },
    "languages": {
      "value": []
    },
    "scriptCalls": [],
    "featType": "classFeat",
    "associations": {
      "classes": [["Cleric"]]
    },
    "abilityType": "su"
  },
  "effects": [],
  "folder": null,
  "sort": 0,
  "permission": {
    "default": 0
  },
  "flags": {}
}
