{
  "_id": "e2KAPd1BdErUwCsU",
  "name": "End of the Cycle",
  "type": "feat",
  "img": "systems/pf1/icons/items/inventory/banner-red.jpg",
  "data": {
    "description": {
      "value": "<p>At 15th level, things killed by an order of the Green cavalier tends to stay dead. When the cavalier kills a creature, it is treated as if it were killed by a death effect for the purposes of magic that can restore it to life. In addition, it’s placed under the effects of a permanent @Compendium[pf1.spells.5o8uysrb153tnvci]{Sanctify Corpse}&nbsp;effect (using the cavalier’s level as the spell’s caster level).</p>"
    },
    "tags": [],
    "actions": [],
    "attackNotes": [],
    "effectNotes": [],
    "changes": [],
    "contextNotes": [],
    "links": {
      "children": [],
      "charges": []
    },
    "tag": "classFeat_endOfTheCycle",
    "useCustomTag": true,
    "armorProf": {
      "value": []
    },
    "weaponProf": {
      "value": []
    },
    "languages": {
      "value": []
    },
    "scriptCalls": [],
    "featType": "classFeat",
    "associations": {
      "classes": [["Cavalier"]]
    },
    "abilityType": "su"
  },
  "effects": [],
  "folder": null,
  "sort": 0,
  "permission": {
    "default": 0
  },
  "flags": {}
}
