{
  "_id": "vVkKDPniD09W5JgO",
  "name": "Eschew Materials",
  "type": "feat",
  "img": "systems/pf1/icons/skills/nature_07.jpg",
  "data": {
    "description": {
      "value": "<p>Gain @Compendium[pf1.feats.ElqchQT5WB625HPg]{Eschew Materials} as a bonus feat.</p>"
    },
    "tags": [],
    "actions": [],
    "attackNotes": [],
    "effectNotes": [],
    "changes": [],
    "contextNotes": [],
    "links": {
      "children": [],
      "charges": []
    },
    "tag": "classFeat_eschewMaterials",
    "useCustomTag": true,
    "armorProf": {
      "value": []
    },
    "weaponProf": {
      "value": []
    },
    "languages": {
      "value": []
    },
    "scriptCalls": [],
    "featType": "classFeat",
    "associations": {
      "classes": [["Bloodrager", "Sorcerer"]]
    }
  },
  "effects": [],
  "folder": null,
  "sort": 0,
  "permission": {
    "default": 0
  },
  "flags": {}
}
