{
  "_id": "Sy1M5VOCitnDDNKw",
  "name": "Evocation School",
  "type": "feat",
  "img": "systems/pf1/icons/spells/explosion-orange-3.jpg",
  "data": {
    "description": {
      "value": "<p>Evokers revel in the raw power of magic, and can use it to create and destroy with shocking ease.</p>"
    },
    "tags": [],
    "actions": [],
    "attackNotes": [],
    "effectNotes": [],
    "changes": [],
    "contextNotes": [],
    "links": {
      "children": [],
      "charges": []
    },
    "tag": "classFeat_evocationSchool",
    "useCustomTag": true,
    "armorProf": {
      "value": []
    },
    "weaponProf": {
      "value": []
    },
    "languages": {
      "value": []
    },
    "scriptCalls": [],
    "featType": "classFeat",
    "associations": {
      "classes": [["Wizard"]]
    }
  },
  "effects": [],
  "folder": null,
  "sort": 0,
  "permission": {
    "default": 0
  },
  "flags": {}
}
