{
  "_id": "fFIUxMaZ8a6MhpBk",
  "name": "Face in the Crowd (ROG)",
  "type": "feat",
  "img": "systems/pf1/icons/items/weapons/dagger.PNG",
  "data": {
    "description": {
      "value": "<p>A rogue with this talent can blend into groups easily. Opposed Perception and Sense Motive checks take a –2 penalty when made against the rogue’s Bluff, Disguise, Sleight of Hand, or Stealth checks if she’s within 30 feet of at least two non-hostile characters of her apparent creature type. This penalty increases to –4 if she’s within 30 feet of at least eight such creatures or is currently in a square occupied by a crowd.</p>"
    },
    "tags": [],
    "actions": [],
    "attackNotes": [],
    "effectNotes": [],
    "changes": [],
    "contextNotes": [],
    "links": {
      "children": [],
      "charges": []
    },
    "tag": "classFeat_faceInTheCrowdRog",
    "useCustomTag": true,
    "armorProf": {
      "value": []
    },
    "weaponProf": {
      "value": []
    },
    "languages": {
      "value": []
    },
    "scriptCalls": [],
    "featType": "classFeat",
    "associations": {
      "classes": [["Rogue"]]
    },
    "abilityType": "ex"
  },
  "effects": [],
  "folder": null,
  "sort": 0,
  "permission": {
    "default": 0
  },
  "flags": {}
}
