{
  "_id": "dlMq0f76dsxIKzCL",
  "name": "Faith Discipline",
  "type": "feat",
  "img": "systems/pf1/icons/spells/slice-spirit-3.jpg",
  "data": {
    "description": {
      "value": "<p>Your belief in a higher power fuels your psychic abilities. Whether your mental abilities truly come to you as a divine gift or are simply enhanced by the power of your belief, none can say. In many ways, you resemble a divine caster, and prayers often factor into your casting of psychic spells.<br><br><strong>Phrenic Pool Ability:</strong> Wisdom<br><br><strong>Bonus Spells:</strong>&nbsp;</p>\n<ul>\n<li>@Compendium[pf1.spells.wa0zb2pncesmm9lz]{Bless} (1st),&nbsp;</li>\n<li>@Compendium[pf1.spells.avofn5q2v0f0qxjy]{Spiritual Weapon} (4th),&nbsp;</li>\n<li>@Compendium[pf1.spells.73han2zqxg59u18g]{Magic Vestment} (6th),&nbsp;</li>\n<li>@Compendium[pf1.spells.io8sg720zjd0tdj2]{Guardian Of Faith} (8th),&nbsp;</li>\n<li>@Compendium[pf1.spells.p2kosvizylhy8vfa]{Commune} (10th),&nbsp;</li>\n<li>@Compendium[pf1.spells.21yha04trfhj0ehd]{Psychic Surgery} (12th),&nbsp;</li>\n<li>@Compendium[pf1.spells.glt6uk3n6g6l2p6l]{Scrying, Greater} (14th),&nbsp;</li>\n<li>@Compendium[pf1.spells.0wamdkl9gp19l55w]{Planar Ally, Greater} (16th),&nbsp;</li>\n<li>@Compendium[pf1.spells.suel7sgnztenv551]{Miracle} (18th).</li>\n</ul>"
    },
    "tags": [],
    "actions": [],
    "attackNotes": [],
    "effectNotes": [],
    "changes": [],
    "contextNotes": [],
    "links": {
      "children": [],
      "charges": []
    },
    "tag": "classFeat_faithDiscipline",
    "useCustomTag": true,
    "armorProf": {
      "value": []
    },
    "weaponProf": {
      "value": []
    },
    "languages": {
      "value": []
    },
    "scriptCalls": [],
    "featType": "classFeat",
    "associations": {
      "classes": [["Psychic"]]
    }
  },
  "effects": [],
  "folder": null,
  "sort": 0,
  "permission": {
    "default": 0
  },
  "flags": {}
}
