{
  "_id": "g4E8wmPZMaFRThq1",
  "name": "False Friend",
  "type": "feat",
  "img": "systems/pf1/icons/items/weapons/dagger.PNG",
  "data": {
    "description": {
      "value": "<p>A rogue with this talent gains a +4 bonus when making Bluff checks to convince someone she has never met or who doesn’t know her well that they are previously acquainted or know each other well.</p>"
    },
    "tags": [],
    "actions": [],
    "attackNotes": [],
    "effectNotes": [],
    "changes": [],
    "contextNotes": [],
    "links": {
      "children": [],
      "charges": []
    },
    "tag": "classFeat_falseFriend",
    "useCustomTag": true,
    "armorProf": {
      "value": []
    },
    "weaponProf": {
      "value": []
    },
    "languages": {
      "value": []
    },
    "scriptCalls": [],
    "featType": "classFeat",
    "associations": {
      "classes": [["Rogue"]]
    },
    "abilityType": "ex"
  },
  "effects": [],
  "folder": null,
  "sort": 0,
  "permission": {
    "default": 0
  },
  "flags": {}
}
