{
  "_id": "9CCh20rnR8xpYiEn",
  "name": "Fate Subdomain",
  "type": "feat",
  "img": "systems/pf1/icons/spells/leaf-royal-3.jpg",
  "data": {
    "description": {
      "value": "<p><strong>Replacement Domain Spells: </strong></p>\n<ul>\n<li>2nd—@Compendium[pf1.spells.d1wxnax51cecplm4]{Augury}</li>\n<li>3rd—@Compendium[pf1.spells.v4q4jzl82labfckc]{Borrow Fortune}</li>\n</ul>"
    },
    "tags": [],
    "actions": [],
    "attackNotes": [],
    "effectNotes": [],
    "changes": [],
    "contextNotes": [],
    "links": {
      "children": [],
      "charges": []
    },
    "tag": "classFeat_fateSubdomain",
    "useCustomTag": true,
    "armorProf": {
      "value": []
    },
    "weaponProf": {
      "value": []
    },
    "languages": {
      "value": []
    },
    "scriptCalls": [],
    "featType": "classFeat",
    "associations": {
      "classes": [["Cleric"]]
    }
  },
  "effects": [],
  "folder": null,
  "sort": 0,
  "permission": {
    "default": 0
  },
  "flags": {}
}
