{
  "_id": "KpiWyU6QibTzP8f7",
  "name": "Feasting Bite",
  "type": "feat",
  "img": "systems/pf1/icons/feats/deafening-critical.jpg",
  "data": {
    "description": {
      "value": "<p>This rage power is available to half-orc barbarians. When the barbarian confirms a critical hit with her bite attack, she regains a number of hit points equal to half the damage dealt.</p>\n<p>The barbarian must have the bloody bite rage power and either the animal fury rage power or a natural bite attack before selecting this power. Activating this ability consumes 1 round of rage.</p>"
    },
    "tags": [],
    "actions": [],
    "attackNotes": [],
    "effectNotes": [],
    "changes": [],
    "contextNotes": [],
    "links": {
      "children": [],
      "charges": []
    },
    "tag": "classFeat_feastingBite",
    "useCustomTag": true,
    "armorProf": {
      "value": []
    },
    "weaponProf": {
      "value": []
    },
    "languages": {
      "value": []
    },
    "scriptCalls": [],
    "featType": "classFeat",
    "associations": {
      "classes": [["Barbarian"], ["Skald"]]
    },
    "abilityType": "ex"
  },
  "effects": [],
  "folder": null,
  "sort": 0,
  "permission": {
    "default": 0
  },
  "flags": {}
}
