{
  "_id": "LDI7nsgF5UL75dLv",
  "name": "Flowing Subdomain",
  "type": "feat",
  "img": "systems/pf1/icons/skills/blue_36.jpg",
  "data": {
    "description": {
      "value": "<p><strong>Replacement Domain Spells:</strong></p>\n<ul>\n<li>2nd—@Compendium[pf1.spells.ns8jbp0ilbvbvuif]{Cat's Grace}</li>\n<li>4th—@Compendium[pf1.spells.lvzq2mwkqmozolpl]{Freedom of Movement}</li>\n<li>6th—@Compendium[pf1.spells.h4nlrm44ubsyzuhz]{Fluid Form}</li>\n<li>8th—@Compendium[pf1.spells.blvetbc929cfx4m8]{Mind Blank}</li>\n</ul>"
    },
    "tags": [],
    "actions": [],
    "attackNotes": [],
    "effectNotes": [],
    "changes": [],
    "contextNotes": [],
    "links": {
      "children": [],
      "charges": []
    },
    "tag": "classFeat_flowingSubdomain",
    "useCustomTag": true,
    "armorProf": {
      "value": []
    },
    "weaponProf": {
      "value": []
    },
    "languages": {
      "value": []
    },
    "scriptCalls": [],
    "featType": "classFeat",
    "associations": {
      "classes": [["Cleric"]]
    }
  },
  "effects": [],
  "folder": null,
  "sort": 0,
  "permission": {
    "default": 0
  },
  "flags": {}
}
