{
  "_id": "pPXZX0giw2dZHQRr",
  "name": "Flying Kick (UC)",
  "type": "feat",
  "img": "systems/pf1/icons/skills/yellow_08.jpg",
  "data": {
    "description": {
      "value": "<p>The monk leaps through the air to strike a foe with a kick. Before the attack, the monk can move a distance equal to his fast movement bonus. This movement is made as part of the monk’s flurry of blows attack and does not require an additional action. At the end of this movement, the monk must make an attack against an adjacent foe.</p>\n<p>This movement may be between attacks.&nbsp;This movement provokes an attack of opportunity as normal.</p>\n<p>The attack made after the movement must be a kick.</p>"
    },
    "tags": [],
    "actions": [],
    "attackNotes": [],
    "effectNotes": [],
    "changes": [],
    "contextNotes": [],
    "links": {
      "children": [],
      "charges": []
    },
    "tag": "classFeat_flyingKickUc",
    "useCustomTag": true,
    "armorProf": {
      "value": []
    },
    "weaponProf": {
      "value": []
    },
    "languages": {
      "value": []
    },
    "scriptCalls": [],
    "featType": "classFeat",
    "associations": {
      "classes": [["Monk (Unchained)"]]
    },
    "abilityType": "ex"
  },
  "effects": [],
  "folder": null,
  "sort": 0,
  "permission": {
    "default": 0
  },
  "flags": {}
}
