{
  "_id": "bXznpN0piipekXTH",
  "name": "Focus Weapon",
  "type": "feat",
  "img": "systems/pf1/icons/skills/light_09.jpg",
  "data": {
    "description": {
      "value": "<p>At 1st level, a warpriest receives @Compendium[pf1.feats.n250dFlbykAIAg5Z]{Weapon Focus} as a bonus feat (he can choose any weapon, not just his deity’s favored weapon).</p>"
    },
    "tags": [],
    "actions": [],
    "attackNotes": [],
    "effectNotes": [],
    "changes": [
      {
        "_id": "tx5wg18k",
        "formula": "1",
        "operator": "add",
        "subTarget": "bonusFeats",
        "modifier": "untyped",
        "priority": 0,
        "value": 1,
        "target": "misc"
      }
    ],
    "contextNotes": [],
    "links": {
      "children": [],
      "charges": []
    },
    "tag": "classFeat_focusWeapon",
    "useCustomTag": true,
    "armorProf": {
      "value": []
    },
    "weaponProf": {
      "value": []
    },
    "languages": {
      "value": []
    },
    "scriptCalls": [],
    "featType": "classFeat",
    "associations": {
      "classes": [["Warpriest"]]
    }
  },
  "effects": [],
  "folder": null,
  "sort": 0,
  "permission": {
    "default": 0
  },
  "flags": {}
}
