{
  "_id": "DPaGRvfkKANynD7M",
  "name": "Friendship Subdomain",
  "type": "feat",
  "img": "systems/pf1/icons/feats/quick-draw.jpg",
  "data": {
    "description": {
      "value": "<p><strong>Replacement Domain Spells: </strong></p>\n<ul>\n<li>2nd—@Compendium[pf1.spells.menqakfoa1ftvi3f]{Shield Other}</li>\n<li>5th—@Compendium[pf1.spells.zuqlok69lapqc6lg]{Telepathic Bond}</li>\n</ul>"
    },
    "tags": [],
    "actions": [],
    "attackNotes": [],
    "effectNotes": [],
    "changes": [],
    "contextNotes": [],
    "links": {
      "children": [],
      "charges": []
    },
    "tag": "classFeat_friendshipSubdomain",
    "useCustomTag": true,
    "armorProf": {
      "value": []
    },
    "weaponProf": {
      "value": []
    },
    "languages": {
      "value": []
    },
    "scriptCalls": [],
    "featType": "classFeat",
    "associations": {
      "classes": [["Cleric"]]
    }
  },
  "effects": [],
  "folder": null,
  "sort": 0,
  "permission": {
    "default": 0
  },
  "flags": {}
}
