{
  "_id": "XWSMvHfqxRK3B3NG",
  "name": "Glib Facade",
  "type": "feat",
  "img": "systems/pf1/icons/items/weapons/butterfly-knife.PNG",
  "data": {
    "description": {
      "value": "<p>Once per day, a rogue with this advanced talent can use @Compendium[pf1.spells.7c8nufdm0pj4bgep]{Glibness} as a spelllike ability, using her rogue level as the spell’s caster level. A rogue must have the innocent facade rogue talent before selecting this talent.</p>"
    },
    "tags": [],
    "actions": [],
    "attackNotes": [],
    "effectNotes": [],
    "changes": [],
    "contextNotes": [],
    "links": {
      "children": [],
      "charges": []
    },
    "tag": "classFeat_glibFacade",
    "useCustomTag": true,
    "armorProf": {
      "value": []
    },
    "weaponProf": {
      "value": []
    },
    "languages": {
      "value": []
    },
    "scriptCalls": [],
    "featType": "classFeat",
    "associations": {
      "classes": [["Rogue"]]
    },
    "abilityType": "sp"
  },
  "effects": [],
  "folder": null,
  "sort": 0,
  "permission": {
    "default": 0
  },
  "flags": {}
}
