{
  "_id": "XAFGCIT6r7lRw9yN",
  "name": "Greater Metamagic Knowledge",
  "type": "feat",
  "img": "systems/pf1/icons/spells/runes-blue-3.jpg",
  "data": {
    "description": {
      "value": "<p>The arcanist can select a metamagic feat as a bonus feat. She must meet the prerequisites of this feat. Each morning, when she prepares her spells, the arcanist can expend 1 point from her arcane reservoir to exchange this bonus feat for another metamagic feat, as long as she meets the prerequisites of the new feat.</p>\n<p>The arcanist must have the metamagic knowledge exploit to select this exploit.</p>"
    },
    "tags": [],
    "actions": [
      {
        "_id": "dmrkarzobcnwu3dz",
        "name": "Use",
        "img": "systems/pf1/icons/spells/runes-blue-3.jpg",
        "description": "",
        "activation": {
          "cost": 1,
          "type": "special"
        },
        "unchainedAction": {
          "activation": {
            "cost": 1,
            "type": "special"
          }
        },
        "duration": {
          "value": null,
          "units": ""
        },
        "target": {
          "value": ""
        },
        "range": {
          "value": null,
          "units": "",
          "maxIncrements": 1,
          "minValue": null,
          "minUnits": ""
        },
        "uses": {
          "autoDeductCharges": true,
          "autoDeductChargesCost": "1",
          "per": "",
          "value": 0,
          "maxFormula": ""
        },
        "measureTemplate": {
          "type": "",
          "size": "",
          "overrideColor": false,
          "customColor": "",
          "overrideTexture": false,
          "customTexture": ""
        },
        "attackName": "",
        "actionType": "",
        "attackBonus": "",
        "critConfirmBonus": "",
        "damage": {
          "parts": [],
          "critParts": [],
          "nonCritParts": []
        },
        "attackParts": [],
        "formulaicAttacks": {
          "count": {
            "formula": ""
          },
          "bonus": {
            "formula": ""
          },
          "label": null
        },
        "formula": "",
        "ability": {
          "attack": null,
          "damage": null,
          "damageMult": 1,
          "critRange": 20,
          "critMult": 2
        },
        "save": {
          "dc": 0,
          "type": "",
          "description": ""
        },
        "effectNotes": [],
        "attackNotes": [],
        "soundEffect": "",
        "powerAttack": {
          "multiplier": "",
          "damageBonus": 2,
          "critMultiplier": 1
        },
        "naturalAttack": {
          "secondary": {
            "attackBonus": "-5",
            "damageMult": 0.5
          }
        },
        "nonlethal": false,
        "usesAmmo": false,
        "spellEffect": "",
        "spellArea": "",
        "conditionals": [],
        "enh": {
          "override": false,
          "value": 0
        }
      }
    ],
    "uses": {
      "per": ""
    },
    "attackNotes": [],
    "effectNotes": [],
    "changes": [],
    "contextNotes": [],
    "links": {
      "children": [],
      "charges": []
    },
    "tag": "classFeat_greaterMetamagicKnowledge",
    "useCustomTag": true,
    "armorProf": {
      "value": []
    },
    "weaponProf": {
      "value": []
    },
    "languages": {
      "value": []
    },
    "scriptCalls": [],
    "featType": "classFeat",
    "associations": {
      "classes": [["Arcanist"]]
    }
  },
  "effects": [],
  "folder": null,
  "sort": 0,
  "permission": {
    "default": 0
  },
  "flags": {}
}
