{
  "_id": "E2AKtLeaQlAL73hJ",
  "name": "Greater Arcane Bloodrage",
  "type": "feat",
  "img": "systems/pf1/icons/skills/red_05.jpg",
  "data": {
    "description": {
      "value": "<p>At 8th level, when entering a bloodrage, you can choose to apply the effects of either @Compendium[pf1.spells.r190q9zxmei82lmv]{Displacement}&nbsp;or @Compendium[pf1.spells.s9amdo5398alb5p0]{Haste}&nbsp;to yourself. This is in addition to arcane bloodrage, and otherwise works as that ability.</p>"
    },
    "tags": [],
    "actions": [],
    "attackNotes": [],
    "effectNotes": [],
    "changes": [],
    "contextNotes": [],
    "links": {
      "children": [],
      "charges": []
    },
    "tag": "classFeat_greaterArcaneBloodrage",
    "useCustomTag": true,
    "armorProf": {
      "value": []
    },
    "weaponProf": {
      "value": []
    },
    "languages": {
      "value": []
    },
    "scriptCalls": [],
    "featType": "classFeat",
    "associations": {
      "classes": [["Bloodrager"]]
    },
    "abilityType": "sp"
  },
  "effects": [],
  "folder": null,
  "sort": 0,
  "permission": {
    "default": 0
  },
  "flags": {}
}
