{
  "_id": "UTmmyYClzh86Ratb",
  "name": "Greater Anathema",
  "type": "feat",
  "img": "systems/pf1/icons/items/weapons/sword-cane.png",
  "data": {
    "description": {
      "value": "<p>The ability reduction of the investigator’s anathemas increases to 10, and he adds DR/— and regeneration to the list of abilities he can lower with an anathema. In addition, when an investigator creates an anathema, he can designate a specific kind of creature (such as vampires) in addition to the creature type. When used against this specific foe, the DC of the save against the anathema is 2 higher than the component poison.</p>\n<p>An investigator must have the anathema investigator talent to select this talent.</p>"
    },
    "tags": [],
    "actions": [],
    "attackNotes": [],
    "effectNotes": [],
    "changes": [],
    "contextNotes": [],
    "links": {
      "children": [],
      "charges": []
    },
    "tag": "classFeat_greaterAnathema",
    "useCustomTag": true,
    "armorProf": {
      "value": []
    },
    "weaponProf": {
      "value": []
    },
    "languages": {
      "value": []
    },
    "scriptCalls": [],
    "featType": "classFeat",
    "associations": {
      "classes": [["Investigator"]]
    },
    "abilityType": "ex"
  },
  "effects": [],
  "folder": null,
  "sort": 0,
  "permission": {
    "default": 0
  },
  "flags": {}
}
