{
  "_id": "fkZVfqo0SOHAfJhh",
  "name": "Greater Empathic Link",
  "type": "feat",
  "img": "systems/pf1/icons/spells/link-spirit-3.jpg",
  "data": {
    "description": {
      "value": "<p>At 14th level, the range of the hunter’s empathic link with her animal companion increases to 10 miles. If the animal companion is within 1 mile, the hunter can communicate with it telepathically.</p>"
    },
    "tags": [],
    "actions": [],
    "attackNotes": [],
    "effectNotes": [],
    "changes": [],
    "contextNotes": [],
    "links": {
      "children": [],
      "charges": []
    },
    "tag": "classFeat_greaterEmpathicLink",
    "useCustomTag": true,
    "armorProf": {
      "value": []
    },
    "weaponProf": {
      "value": []
    },
    "languages": {
      "value": []
    },
    "scriptCalls": [],
    "featType": "classFeat",
    "associations": {
      "classes": [["Hunter"]]
    },
    "abilityType": "su"
  },
  "effects": [],
  "folder": null,
  "sort": 0,
  "permission": {
    "default": 0
  },
  "flags": {}
}
