{
  "_id": "0AXAMXGLJIw7CGBd",
  "name": "Heavy Armor",
  "type": "feat",
  "img": "systems/pf1/icons/feats/armor-proficiency-heavy.png",
  "data": {
    "description": {
      "value": "<p>At 13th level, a magus gains proficiency with heavy armor. A magus can cast magus spells while wearing heavy armor without incurring the normal arcane spell failure chance. Like any other arcane spellcaster, a magus using a shield incurs a chance of arcane spell failure if the spell in question has a somatic component.</p>"
    },
    "tags": [],
    "actions": [],
    "attackNotes": [],
    "effectNotes": [],
    "changes": [],
    "contextNotes": [],
    "links": {
      "children": [],
      "charges": []
    },
    "tag": "classFeat_heavyArmor",
    "useCustomTag": true,
    "armorProf": {
      "value": []
    },
    "weaponProf": {
      "value": []
    },
    "languages": {
      "value": []
    },
    "scriptCalls": [],
    "featType": "classFeat",
    "associations": {
      "classes": [["Magus"]]
    },
    "abilityType": "ex"
  },
  "effects": [],
  "folder": null,
  "sort": 0,
  "permission": {
    "default": 0
  },
  "flags": {}
}
