{
  "_id": "dm7om4x4rHJN97ML",
  "name": "Hissing Rage",
  "type": "feat",
  "img": "systems/pf1/icons/feats/deafening-critical.jpg",
  "data": {
    "description": {
      "value": "<p>Once per hour, the barbarian can spit venom at an adjacent enemy as a standard action. She must make a touch attack to successfully spit on a foe in this way, but she can also apply this poison as a swift action when she hits with a bite attack. The DC of the save against this poison is equal to 10 + half the barbarian’s level + the barbarian’s Constitution modifier.<br><br>Hissing Rage Poison (Su)&nbsp;Bite—contact or injury;&nbsp;save&nbsp;Fort;&nbsp;frequency&nbsp;1/round for 6 rounds;&nbsp;effect&nbsp;1d2 Str damage;&nbsp;cure&nbsp;2 consecutive saves.</p>"
    },
    "tags": [],
    "actions": [],
    "attackNotes": [],
    "effectNotes": [],
    "changes": [],
    "contextNotes": [],
    "links": {
      "children": [],
      "charges": []
    },
    "tag": "classFeat_hissingRage",
    "useCustomTag": true,
    "armorProf": {
      "value": []
    },
    "weaponProf": {
      "value": []
    },
    "languages": {
      "value": []
    },
    "scriptCalls": [],
    "featType": "classFeat",
    "associations": {
      "classes": [["Barbarian"], ["Skald"]]
    },
    "abilityType": "su"
  },
  "effects": [],
  "folder": null,
  "sort": 0,
  "permission": {
    "default": 0
  },
  "flags": {}
}
