{
  "_id": "ClCqzXy1ry2eMCuf",
  "name": "Ice Path",
  "type": "feat",
  "img": "systems/pf1/icons/spells/ice-blue-2.jpg",
  "data": {
    "description": {
      "value": "<p><strong>Element&nbsp;</strong>water;&nbsp;<strong>Type&nbsp;</strong>utility (Su);&nbsp;<strong>Level&nbsp;</strong>6;&nbsp;<strong>Burn&nbsp;</strong>0<br><strong>Prerequisite&nbsp;</strong>icewalker</p>\n<p>You freeze water vapor in the air, allowing you to travel above the ground as @Compendium[pf1.spells.e4v1uv8hexeu9sxj]{Air Walk} by walking along the ice, and leaving a path of ice behind you that lasts for 1 round before it melts.</p>"
    },
    "tags": [],
    "actions": [],
    "attackNotes": [],
    "effectNotes": [],
    "changes": [],
    "contextNotes": [],
    "links": {
      "children": [],
      "charges": []
    },
    "tag": "classFeat_icePath",
    "useCustomTag": true,
    "armorProf": {
      "value": []
    },
    "weaponProf": {
      "value": []
    },
    "languages": {
      "value": []
    },
    "scriptCalls": [],
    "featType": "classFeat",
    "associations": {
      "classes": [["Kineticist"]]
    },
    "abilityType": "su"
  },
  "effects": [],
  "folder": null,
  "sort": 0,
  "permission": {
    "default": 0
  },
  "flags": {}
}
