{
  "_id": "H6Zebk3eNb3eMk4f",
  "name": "Illusion Resonant School",
  "type": "feat",
  "img": "systems/pf1/icons/items/jewelry/ring-orange.jpg",
  "data": {
    "description": {
      "value": "<p><em><span style=\"text-decoration: underline;\">Illusion implements allow the occultist to distort the senses and cloak creatures from sight.</span></em><br><br><strong>Implements: </strong>Crystal, hat, mask, prism, ring.</p>"
    },
    "tags": [],
    "actions": [],
    "attackNotes": [],
    "effectNotes": [],
    "changes": [],
    "contextNotes": [],
    "links": {
      "children": [],
      "charges": []
    },
    "tag": "classFeat_illusionResonantSchool",
    "useCustomTag": true,
    "armorProf": {
      "value": []
    },
    "weaponProf": {
      "value": []
    },
    "languages": {
      "value": []
    },
    "scriptCalls": [],
    "featType": "classFeat",
    "associations": {
      "classes": [["Occultist"]]
    }
  },
  "effects": [],
  "folder": null,
  "sort": 0,
  "permission": {
    "default": 0
  },
  "flags": {}
}
