{
  "_id": "krNQXh76ArUBtdOW",
  "name": "Incorporeal Bonded Manifestation",
  "type": "feat",
  "img": "systems/pf1/icons/skills/blue_20.jpg",
  "data": {
    "description": {
      "value": "<p>When a spiritualist uses this ability and chooses incorporeal form, she becomes shrouded in a haze of insubstantial mist, granting her concealment against ranged attacks.</p>\n<p>At 8th level, the spiritualist can better affect incorporeal creatures with melee attacks; her unarmed strikes and melee weapon attacks are treated as if they had the&nbsp;ghost touch&nbsp;magic weapon special ability.</p>\n<p>At 13th level, the spiritualist can take a standard action to become invisible (as the @Compendium[pf1.spells.oylikodnyku2zewu]{Invisibility}&nbsp;spell) the start of her next turn.</p>\n<p>At 18th level, the spiritualist gains the incorporeal subtype and a fly speed of 30 feet (good) while using this form of bonded manifestation.</p>"
    },
    "tags": [],
    "actions": [
      {
        "_id": "v0j7elop45h65596",
        "name": "Use",
        "img": "systems/pf1/icons/skills/blue_20.jpg",
        "description": "",
        "activation": {
          "cost": 1,
          "type": "special"
        },
        "unchainedAction": {
          "activation": {
            "cost": 1,
            "type": "special"
          }
        },
        "duration": {
          "value": null,
          "units": ""
        },
        "target": {
          "value": ""
        },
        "range": {
          "value": null,
          "units": "",
          "maxIncrements": 1,
          "minValue": null,
          "minUnits": ""
        },
        "uses": {
          "autoDeductCharges": true,
          "autoDeductChargesCost": "1",
          "per": "",
          "value": 0,
          "maxFormula": ""
        },
        "measureTemplate": {
          "type": "",
          "size": "",
          "overrideColor": false,
          "customColor": "",
          "overrideTexture": false,
          "customTexture": ""
        },
        "attackName": "",
        "actionType": "",
        "attackBonus": "",
        "critConfirmBonus": "",
        "damage": {
          "parts": [],
          "critParts": [],
          "nonCritParts": []
        },
        "attackParts": [],
        "formulaicAttacks": {
          "count": {
            "formula": ""
          },
          "bonus": {
            "formula": ""
          },
          "label": null
        },
        "formula": "",
        "ability": {
          "attack": null,
          "damage": null,
          "damageMult": 1,
          "critRange": 20,
          "critMult": 2
        },
        "save": {
          "dc": 0,
          "type": "",
          "description": ""
        },
        "effectNotes": [],
        "attackNotes": [],
        "soundEffect": "",
        "powerAttack": {
          "multiplier": "",
          "damageBonus": 2,
          "critMultiplier": 1
        },
        "naturalAttack": {
          "secondary": {
            "attackBonus": "-5",
            "damageMult": 0.5
          }
        },
        "nonlethal": false,
        "usesAmmo": false,
        "spellEffect": "",
        "spellArea": "",
        "conditionals": [],
        "enh": {
          "override": false,
          "value": 0
        }
      }
    ],
    "uses": {
      "per": ""
    },
    "attackNotes": [],
    "effectNotes": [],
    "changes": [],
    "contextNotes": [],
    "links": {
      "children": [],
      "charges": []
    },
    "tag": "classFeat_incorporealBondedManifestation",
    "useCustomTag": true,
    "armorProf": {
      "value": []
    },
    "weaponProf": {
      "value": []
    },
    "languages": {
      "value": []
    },
    "scriptCalls": [],
    "featType": "classFeat",
    "associations": {
      "classes": [["Spiritualist"]]
    }
  },
  "effects": [],
  "folder": null,
  "sort": 0,
  "permission": {
    "default": 0
  },
  "flags": {}
}
