{
  "_id": "01lGus1TU5hTsrO3",
  "name": "Infusion",
  "type": "feat",
  "img": "systems/pf1/icons/items/potions/unique-3.jpg",
  "data": {
    "description": {
      "value": "<p>When the alchemist creates an extract, he can infuse it with an extra bit of his own magical power. The extract created now persists even after the alchemist sets it down. As long as the extract exists, it continues to occupy one of the alchemist's daily extract slots. An infused extract can be imbibed by a non-alchemist to gain its effects.</p>"
    },
    "tags": [],
    "actions": [],
    "attackNotes": [],
    "effectNotes": [],
    "changes": [],
    "contextNotes": [],
    "links": {
      "children": [],
      "charges": []
    },
    "tag": "classFeat_infusion",
    "useCustomTag": true,
    "armorProf": {
      "value": []
    },
    "weaponProf": {
      "value": []
    },
    "languages": {
      "value": []
    },
    "scriptCalls": [],
    "featType": "classFeat",
    "associations": {
      "classes": [["Alchemist"]]
    }
  },
  "effects": [],
  "folder": null,
  "sort": 0,
  "permission": {
    "default": 0
  },
  "flags": {}
}
