{
  "_id": "HPzD3V2ohR5oOi8u",
  "name": "Inspired Intelligence",
  "type": "feat",
  "img": "systems/pf1/icons/items/weapons/sword-cane.png",
  "data": {
    "description": {
      "value": "<p>An investigator can add his inspiration die to all Knowledge, Linguistics, or Spellcraft checks without expending a use of inspiration, even those he’s not trained in.</p>"
    },
    "tags": [],
    "actions": [],
    "attackNotes": [],
    "effectNotes": [],
    "changes": [],
    "contextNotes": [],
    "links": {
      "children": [],
      "charges": []
    },
    "tag": "classFeat_inspiredIntelligence",
    "useCustomTag": true,
    "armorProf": {
      "value": []
    },
    "weaponProf": {
      "value": []
    },
    "languages": {
      "value": []
    },
    "scriptCalls": [],
    "featType": "classFeat",
    "associations": {
      "classes": [["Investigator"]]
    },
    "abilityType": "ex"
  },
  "effects": [],
  "folder": null,
  "sort": 0,
  "permission": {
    "default": 0
  },
  "flags": {}
}
