{
  "_id": "LIFTbzT5WDcsDn0O",
  "name": "Inspire Heroics",
  "type": "feat",
  "img": "systems/pf1/icons/feats/athletic.jpg",
  "data": {
    "description": {
      "value": "<p>A bard of 15th level or higher can inspire tremendous heroism in himself or a single ally within 30 feet. For every three bard levels the character attains beyond 15th, he can inspire heroics in one additional creature. To inspire heroics, all of the targets must be able to see and hear the bard. Inspired creatures gain a +4&nbsp;<a href=\"https://www.d20pfsrd.com/basics-ability-scores/glossary#TOC-Morale-Bonus\">morale bonus</a>&nbsp;on saving throws and a +4&nbsp;<a href=\"https://www.d20pfsrd.com/basics-ability-scores/glossary#TOC-Dodge-Bonus\">dodge bonus</a>&nbsp;to AC. The effect lasts for as long as the targets are able to witness the performance. Inspire heroics is a mind-affecting ability that relies on audible and visual components.</p>"
    },
    "tags": [],
    "actions": [],
    "attackNotes": [],
    "effectNotes": [],
    "changes": [],
    "contextNotes": [],
    "links": {
      "children": [],
      "charges": []
    },
    "tag": "classFeat_inspireHeroics",
    "useCustomTag": true,
    "armorProf": {
      "value": []
    },
    "weaponProf": {
      "value": []
    },
    "languages": {
      "value": []
    },
    "scriptCalls": [],
    "featType": "classFeat",
    "associations": {
      "classes": [["Bard"]]
    },
    "abilityType": "su"
  },
  "effects": [],
  "folder": null,
  "sort": 0,
  "permission": {
    "default": 0
  },
  "flags": {}
}
