{
  "_id": "ghfWJqjq8wpu0VcT",
  "name": "Inspired Vigilante",
  "type": "feat",
  "img": "systems/pf1/icons/feats/deceitful.jpg",
  "data": {
    "description": {
      "value": "<p>The vigilante’s powers of deduction are far beyond the norm. This ability functions similarly to the investigator’s inspiration ability, but the vigilante’s inspiration pool is equal to his class level (do not add his Intelligence modifier), the vigilante can never use this ability without expending a use of inspiration, and it doesn’t count as inspiration for any effects that interact with or require the inspiration class feature.</p>"
    },
    "tags": [],
    "actions": [],
    "attackNotes": [],
    "effectNotes": [],
    "changes": [],
    "contextNotes": [],
    "links": {
      "children": [],
      "charges": []
    },
    "tag": "classFeat_inspiredVigilante",
    "useCustomTag": true,
    "armorProf": {
      "value": []
    },
    "weaponProf": {
      "value": []
    },
    "languages": {
      "value": []
    },
    "scriptCalls": [],
    "featType": "classFeat",
    "associations": {
      "classes": [["Vigilante"]]
    },
    "abilityType": "ex"
  },
  "effects": [],
  "folder": null,
  "sort": 0,
  "permission": {
    "default": 0
  },
  "flags": {}
}
