{
  "_id": "G7xqb0Ka8Bm9XAZz",
  "name": "Instant Alchemy",
  "type": "feat",
  "img": "systems/pf1/icons/skills/violet_04.jpg",
  "data": {
    "description": {
      "value": "<p>At 18th level, an alchemist can create alchemical items with almost supernatural speed. He can create any alchemical item as a full-round action if he succeeds at the Craft (alchemy) check and has the appropriate resources at hand to fund the creation. He can apply poison to a weapon as an immediate action.</p>"
    },
    "tags": [],
    "actions": [],
    "attackNotes": [],
    "effectNotes": [],
    "changes": [],
    "contextNotes": [],
    "links": {
      "children": [],
      "charges": []
    },
    "tag": "classFeat_instantAlchemy",
    "useCustomTag": true,
    "armorProf": {
      "value": []
    },
    "weaponProf": {
      "value": []
    },
    "languages": {
      "value": []
    },
    "scriptCalls": [],
    "featType": "classFeat",
    "associations": {
      "classes": [["Alchemist"]]
    },
    "abilityType": "ex"
  },
  "effects": [],
  "folder": null,
  "sort": 0,
  "permission": {
    "default": 0
  },
  "flags": {}
}
