{
  "_id": "iUTsKFtIX9gfoN1o",
  "name": "Ki Pool (ROG)",
  "type": "feat",
  "img": "systems/pf1/icons/items/weapons/dagger.PNG",
  "data": {
    "description": {
      "value": "<p>A rogue with this talent gains a small&nbsp;ki&nbsp;pool. This&nbsp;ki&nbsp;pool is similar to a ninja’s&nbsp;ki&nbsp;pool, but the rogue’s&nbsp;ki&nbsp;pool does not grant any extra attacks. The rogue gains a number of&nbsp;ki&nbsp;points equal to her Wisdom modifier (minimum 1). These&nbsp;ki&nbsp;points replenish at the start of each day. If she already has a&nbsp;ki&nbsp;pool, or gains a&nbsp;ki&nbsp;pool later, she gains half her Wisdom bonus (minimum 1) as bonus&nbsp;ki&nbsp;points to her&nbsp;ki&nbsp;pool. She can spend a&nbsp;ki&nbsp;point to gain a +10-foot bonus to movement until the end of her turn.</p>"
    },
    "tags": [],
    "actions": [
      {
        "_id": "h6ymx34h6mt7ndw2",
        "name": "Use",
        "img": "systems/pf1/icons/items/weapons/dagger.PNG",
        "description": "",
        "activation": {
          "cost": 1,
          "type": "free"
        },
        "unchainedAction": {
          "activation": {
            "cost": 1,
            "type": "free"
          }
        },
        "duration": {
          "value": null,
          "units": ""
        },
        "target": {
          "value": ""
        },
        "range": {
          "value": null,
          "units": "",
          "maxIncrements": 1,
          "minValue": null,
          "minUnits": ""
        },
        "uses": {
          "autoDeductCharges": true,
          "autoDeductChargesCost": "1",
          "per": "day",
          "value": 0,
          "maxFormula": "max(1, @abilities.wis.mod)"
        },
        "measureTemplate": {
          "type": "",
          "size": "0",
          "overrideColor": false,
          "customColor": "",
          "overrideTexture": false,
          "customTexture": ""
        },
        "attackName": "",
        "actionType": "",
        "attackBonus": "",
        "critConfirmBonus": "",
        "damage": {
          "parts": [],
          "critParts": [],
          "nonCritParts": []
        },
        "attackParts": [],
        "formulaicAttacks": {
          "count": {
            "formula": ""
          },
          "bonus": {
            "formula": ""
          },
          "label": null
        },
        "formula": "",
        "ability": {
          "attack": null,
          "damage": null,
          "damageMult": 1,
          "critRange": 20,
          "critMult": 2
        },
        "save": {
          "dc": 0,
          "type": "",
          "description": ""
        },
        "effectNotes": [],
        "attackNotes": [],
        "soundEffect": "",
        "powerAttack": {
          "multiplier": "",
          "damageBonus": 2,
          "critMultiplier": 1
        },
        "naturalAttack": {
          "secondary": {
            "attackBonus": "-5",
            "damageMult": 0.5
          }
        },
        "nonlethal": false,
        "usesAmmo": false,
        "spellEffect": "",
        "spellArea": "",
        "conditionals": [],
        "enh": {
          "override": false,
          "value": 0
        }
      }
    ],
    "uses": {
      "per": "day",
      "maxFormula": "max(1, @abilities.wis.mod)"
    },
    "attackNotes": [],
    "effectNotes": [],
    "changes": [],
    "contextNotes": [],
    "links": {
      "children": [],
      "charges": []
    },
    "tag": "classFeat_kiPoolRog",
    "useCustomTag": true,
    "armorProf": {
      "value": []
    },
    "weaponProf": {
      "value": []
    },
    "languages": {
      "value": []
    },
    "scriptCalls": [],
    "featType": "classFeat",
    "associations": {
      "classes": [["Rogue"]]
    },
    "abilityType": "ex"
  },
  "effects": [],
  "folder": null,
  "sort": 0,
  "permission": {
    "default": 0
  },
  "flags": {}
}
