{
  "_id": "z3ecyLaiYGjELkMT",
  "name": "Life Spirit",
  "type": "feat",
  "img": "systems/pf1/icons/skills/violet_11.jpg",
  "data": {
    "description": {
      "value": "<p><em>A shaman who selects the life spirit appears more vibrant than most mortals. Her skin seems to glow, and her teeth are a pearly white. When she calls upon one of this spirit’s abilities, her eyes and hair shimmer in the light.</em><br><br><strong>Spirit Magic Spells:&nbsp;</strong></p>\n<ul>\n<li>@Compendium[pf1.spells.aa0w7tk852iqn3ni]{Detect Undead} (1st),&nbsp;</li>\n<li>@Compendium[pf1.spells.fxz69pwpqt9b6uss]{Restoration, Lesser} (2nd),&nbsp;</li>\n<li>@Compendium[pf1.spells.6l904edkt8jv9jor]{Neutralize Poison} (3rd),&nbsp;</li>\n<li>@Compendium[pf1.spells.anya5qwdjhdfyk8u]{Restoration} (4th),&nbsp;</li>\n<li>@Compendium[pf1.spells.qiiis9ekgy3syu7j]{Breath Of Life} (5th),&nbsp;</li>\n<li>@Compendium[pf1.spells.4re1j2w8wkvsvnsi]{Heal} (6th),&nbsp;</li>\n<li>@Compendium[pf1.spells.igmb8lisqcnsxd2d]{Restoration, Greater} (7th),&nbsp;</li>\n<li>@Compendium[pf1.spells.klcvk9ct1l7mhjwp]{Heal, Mass} (8th),&nbsp;</li>\n<li>@Compendium[pf1.spells.mxqi375ya2rka7cp]{True Resurrection} (9th)</li>\n</ul>\n<p><strong>Spirit Animal:</strong> The shaman’s spirit animal appears to be a beautiful and very healthy version of its species, and seems especially vibrant and full of life. Her animal companion gains fast healing 1 (Bestiary&nbsp;300); if the spirit animal already has fast healing, instead its fast healing increases by 1.</p>"
    },
    "tags": [],
    "actions": [],
    "attackNotes": [],
    "effectNotes": [],
    "changes": [],
    "contextNotes": [],
    "links": {
      "children": [],
      "charges": []
    },
    "tag": "classFeat_lifeSpirit",
    "useCustomTag": true,
    "armorProf": {
      "value": []
    },
    "weaponProf": {
      "value": []
    },
    "languages": {
      "value": []
    },
    "scriptCalls": [],
    "featType": "classFeat",
    "associations": {
      "classes": [["Shaman"]]
    }
  },
  "effects": [],
  "folder": null,
  "sort": 0,
  "permission": {
    "default": 0
  },
  "flags": {}
}
