{
  "_id": "GH57XmJVGC97z6hM",
  "name": "Magic Circles",
  "type": "feat",
  "img": "systems/pf1/icons/spells/runes-orange-1.jpg",
  "data": {
    "description": {
      "value": "<p>At 8th level, an occultist learns how to draw magic circles. To draw a circle, he must have chalk, salt, blood, powdered silver, or some other appropriate substance at hand (although he can press a magic circle into a softer surface such as dirt or clay). Drawing a circle takes 1 minute and requires the occultist to expend 1 point of mental focus (either generic focus or focus from any one of his implements). Once completed, this circle functions as a permanent&nbsp;magic circle&nbsp;against any alignment of the occultist’s choosing. The circle can’t be against a component of the occultist’s alignment (if he is lawful good, for example, it can’t be a&nbsp;magic circle against good&nbsp;or&nbsp;law). The circle remains until its form is physically broken (for example, if the lines are smeared or the salt is scattered). Only a living creature can break the circle; environmental effects can’t break it.</p>\n<p>An occultist can have only one circle created in this way at a time. If he creates a second circle, the first one loses all its magic powers. This type of magic circle can’t normally be focused inward to bind an outsider.</p>"
    },
    "tags": [],
    "actions": [
      {
        "_id": "b6vsp7g7a496i3vq",
        "name": "Use",
        "img": "systems/pf1/icons/spells/runes-orange-1.jpg",
        "description": "",
        "activation": {
          "cost": 1,
          "type": "minute"
        },
        "unchainedAction": {
          "activation": {
            "cost": 1,
            "type": "minute"
          }
        },
        "duration": {
          "value": null,
          "units": ""
        },
        "target": {
          "value": ""
        },
        "range": {
          "value": null,
          "units": "",
          "maxIncrements": 1,
          "minValue": null,
          "minUnits": ""
        },
        "uses": {
          "autoDeductCharges": true,
          "autoDeductChargesCost": "1",
          "per": "",
          "value": 0,
          "maxFormula": ""
        },
        "measureTemplate": {
          "type": "",
          "size": "",
          "overrideColor": false,
          "customColor": "",
          "overrideTexture": false,
          "customTexture": ""
        },
        "attackName": "",
        "actionType": "",
        "attackBonus": "",
        "critConfirmBonus": "",
        "damage": {
          "parts": [],
          "critParts": [],
          "nonCritParts": []
        },
        "attackParts": [],
        "formulaicAttacks": {
          "count": {
            "formula": ""
          },
          "bonus": {
            "formula": ""
          },
          "label": null
        },
        "formula": "",
        "ability": {
          "attack": null,
          "damage": null,
          "damageMult": 1,
          "critRange": 20,
          "critMult": 2
        },
        "save": {
          "dc": 0,
          "type": "",
          "description": ""
        },
        "effectNotes": [],
        "attackNotes": [],
        "soundEffect": "",
        "powerAttack": {
          "multiplier": "",
          "damageBonus": 2,
          "critMultiplier": 1
        },
        "naturalAttack": {
          "secondary": {
            "attackBonus": "-5",
            "damageMult": 0.5
          }
        },
        "nonlethal": false,
        "usesAmmo": false,
        "spellEffect": "",
        "spellArea": "",
        "conditionals": [],
        "enh": {
          "override": false,
          "value": 0
        }
      }
    ],
    "uses": {
      "per": ""
    },
    "attackNotes": [],
    "effectNotes": [],
    "changes": [],
    "contextNotes": [],
    "links": {
      "children": [],
      "charges": []
    },
    "tag": "classFeat_magicCircles",
    "useCustomTag": true,
    "armorProf": {
      "value": []
    },
    "weaponProf": {
      "value": []
    },
    "languages": {
      "value": []
    },
    "scriptCalls": [],
    "featType": "classFeat",
    "associations": {
      "classes": [["Occultist"]]
    },
    "abilityType": "su"
  },
  "effects": [],
  "folder": null,
  "sort": 0,
  "permission": {
    "default": 0
  },
  "flags": {}
}
