{
  "_id": "QQWbSRa9bd3hNR0O",
  "name": "Malignant Poison",
  "type": "feat",
  "img": "systems/pf1/icons/items/potions/unique-3.jpg",
  "data": {
    "description": {
      "value": "<p>As a full-round action, the alchemist can increase the save DC of any poison by 4 and increase its duration by 2 frequency increments (for example,&nbsp;<a href=\"https://aonprd.com/PoisonDisplay.aspx?ItemName=Large%20scorpion%20venom\">large scorpion venom</a>&nbsp;lasts 8 rounds instead of 6 and&nbsp;<a href=\"https://aonprd.com/PoisonDisplay.aspx?ItemName=Drow%20poison\">drow poison</a>&nbsp;lasts 4 minutes instead of 2). Additionally, malignant poisons take effect immediately and do not have an onset time. This alchemical change lasts until the poison’s extended duration ends or for a number of minutes equal to the alchemist’s level, whichever comes first. After that, the poison reverts back to its original state. An alchemist must be at least 10th level before selecting this discovery.</p>"
    },
    "tags": [],
    "actions": [],
    "attackNotes": [],
    "effectNotes": [],
    "changes": [],
    "contextNotes": [],
    "links": {
      "children": [],
      "charges": []
    },
    "tag": "classFeat_malignantPoison",
    "useCustomTag": true,
    "armorProf": {
      "value": []
    },
    "weaponProf": {
      "value": []
    },
    "languages": {
      "value": []
    },
    "scriptCalls": [],
    "featType": "classFeat",
    "associations": {
      "classes": [["Alchemist"]]
    }
  },
  "effects": [],
  "folder": null,
  "sort": 0,
  "permission": {
    "default": 0
  },
  "flags": {}
}
