{
  "_id": "Q3NN76jsX9KKlXvp",
  "name": "Many Throw Infusion",
  "type": "feat",
  "img": "systems/pf1/icons/spells/link-blue-2.jpg",
  "data": {
    "description": {
      "value": "<p><strong>Element&nbsp;</strong>aether;&nbsp;<strong>Type&nbsp;</strong>form infusion;&nbsp;<strong>Level&nbsp;</strong>8;&nbsp;<strong>Burn&nbsp;</strong>4<br><strong>Prerequisite&nbsp;</strong>extended range<br><strong>Associated Blasts&nbsp;</strong>telekinesis<br><strong>Saving Throw&nbsp;</strong>none</p>\n<p>You grab a large number of objects and throw them all at once. You can use your telekinetic blast to make attack rolls against a number of targets equal to your kineticist level within 120 feet, but no two targets can be more than 30 feet apart.</p>"
    },
    "tags": [],
    "actions": [],
    "attackNotes": [],
    "effectNotes": [],
    "changes": [],
    "contextNotes": [],
    "links": {
      "children": [],
      "charges": []
    },
    "tag": "classFeat_manyThrowInfusion",
    "useCustomTag": true,
    "armorProf": {
      "value": []
    },
    "weaponProf": {
      "value": []
    },
    "languages": {
      "value": []
    },
    "scriptCalls": [],
    "featType": "classFeat",
    "associations": {
      "classes": [["Kineticist"]]
    }
  },
  "effects": [],
  "folder": null,
  "sort": 0,
  "permission": {
    "default": 0
  },
  "flags": {}
}
