{
  "_id": "FnfX1SMG9uzBghnB",
  "name": "Mass Suggestion",
  "type": "feat",
  "img": "systems/pf1/icons/feats/deceitful.jpg",
  "data": {
    "description": {
      "value": "<p>This ability functions just like @Compendium[pf1.spells.zqj5qzyl46af27v0]{Suggestion}, but allows a bard of 18th level or higher to make a suggestion simultaneously to any number of creatures that he has already&nbsp;<a href=\"https://www.d20pfsrd.com/gamemastering/conditions#TOC-Fascinated\">fascinated</a>. Mass suggestion is an&nbsp;<a href=\"https://www.d20pfsrd.com/magic#TOC-Enchantment\">enchantment</a>&nbsp;(<a href=\"https://www.d20pfsrd.com/magic#TOC-Enchantment-Compulsion\">compulsion</a>), mind-affecting, language dependent ability that relies on audible components.</p>"
    },
    "tags": [],
    "actions": [],
    "attackNotes": [],
    "effectNotes": [],
    "changes": [],
    "contextNotes": [],
    "links": {
      "children": [],
      "charges": []
    },
    "tag": "classFeat_massSuggestion",
    "useCustomTag": true,
    "armorProf": {
      "value": []
    },
    "weaponProf": {
      "value": []
    },
    "languages": {
      "value": []
    },
    "scriptCalls": [],
    "featType": "classFeat",
    "associations": {
      "classes": [["Bard"]]
    },
    "abilityType": "sp"
  },
  "effects": [],
  "folder": null,
  "sort": 0,
  "permission": {
    "default": 0
  },
  "flags": {}
}
