{
  "_id": "4IIOGeT5qafH4HRa",
  "name": "Masterful Tricks",
  "type": "feat",
  "img": "systems/pf1/icons/skills/blue_01.jpg",
  "data": {
    "description": {
      "value": "<p>At 12th level, a mesmerist can choose one of the following masterful tricks in place of a mesmerist trick. He gains an additional masterful trick every 2 levels thereafter.</p>\n<p>Using a masterful trick consumes two uses of the mesmerist trick class feature instead of one.</p>"
    },
    "tags": [],
    "actions": [],
    "attackNotes": [],
    "effectNotes": [],
    "changes": [],
    "contextNotes": [],
    "links": {
      "children": [],
      "charges": []
    },
    "tag": "classFeat_masterfulTricks",
    "useCustomTag": true,
    "armorProf": {
      "value": []
    },
    "weaponProf": {
      "value": []
    },
    "languages": {
      "value": []
    },
    "scriptCalls": [],
    "featType": "classFeat",
    "associations": {
      "classes": [["Mesmerist"]]
    },
    "abilityType": "su"
  },
  "effects": [],
  "folder": null,
  "sort": 0,
  "permission": {
    "default": 0
  },
  "flags": {}
}
