{
  "_id": "qsxK0qOQ3kB8eKlP",
  "name": "Mind Eye",
  "type": "feat",
  "img": "systems/pf1/icons/items/inventory/book-purple.jpg",
  "data": {
    "description": {
      "value": "<p>As a standard action, you can expend 1 point of mental focus to create a mind eye—a magical sensor through which you can see and hear. The mind eye is invisible and its size is Fine, giving it an AC of 18. Any amount of damage to the eye destroys it, but it can be harmed by only spells or magic weapons. The eye moves with a fly speed of 60 feet with perfect maneuverability and can travel up to 1 mile away from you.</p>\n<p>You must concentrate as a standard action to direct the eye and receive sensory images through it. The mind eye sees as your eyes see, including any additional senses you possess (such as darkvision or&nbsp;see invisibility). The mind eye lasts for 1 minute per occultist level you possess.</p>\n<p>You must be at least 5th level to select this focus power.</p>"
    },
    "tags": [],
    "actions": [
      {
        "_id": "j2ooxopl8yjk5lq1",
        "name": "Use",
        "img": "systems/pf1/icons/items/inventory/book-purple.jpg",
        "description": "",
        "activation": {
          "cost": 1,
          "type": "standard"
        },
        "unchainedAction": {
          "activation": {
            "cost": 2,
            "type": "action"
          }
        },
        "duration": {
          "value": "1",
          "units": "minute"
        },
        "target": {
          "value": ""
        },
        "range": {
          "value": null,
          "units": "",
          "maxIncrements": 1,
          "minValue": null,
          "minUnits": ""
        },
        "uses": {
          "autoDeductCharges": true,
          "autoDeductChargesCost": "1",
          "per": "",
          "value": 0,
          "maxFormula": ""
        },
        "measureTemplate": {
          "type": "",
          "size": "",
          "overrideColor": false,
          "customColor": "",
          "overrideTexture": false,
          "customTexture": ""
        },
        "attackName": "",
        "actionType": "",
        "attackBonus": "",
        "critConfirmBonus": "",
        "damage": {
          "parts": [],
          "critParts": [],
          "nonCritParts": []
        },
        "attackParts": [],
        "formulaicAttacks": {
          "count": {
            "formula": ""
          },
          "bonus": {
            "formula": ""
          },
          "label": null
        },
        "formula": "",
        "ability": {
          "attack": null,
          "damage": null,
          "damageMult": 1,
          "critRange": 20,
          "critMult": 2
        },
        "save": {
          "dc": 0,
          "type": "",
          "description": ""
        },
        "effectNotes": [],
        "attackNotes": [],
        "soundEffect": "",
        "powerAttack": {
          "multiplier": "",
          "damageBonus": 2,
          "critMultiplier": 1
        },
        "naturalAttack": {
          "secondary": {
            "attackBonus": "-5",
            "damageMult": 0.5
          }
        },
        "nonlethal": false,
        "usesAmmo": false,
        "spellEffect": "",
        "spellArea": "",
        "conditionals": [],
        "enh": {
          "override": false,
          "value": 0
        }
      }
    ],
    "uses": {
      "per": ""
    },
    "attackNotes": [],
    "effectNotes": [],
    "changes": [],
    "contextNotes": [],
    "links": {
      "children": [],
      "charges": []
    },
    "tag": "classFeat_mindEye",
    "useCustomTag": true,
    "armorProf": {
      "value": []
    },
    "weaponProf": {
      "value": []
    },
    "languages": {
      "value": []
    },
    "scriptCalls": [],
    "featType": "classFeat",
    "associations": {
      "classes": [["Occultist"]]
    },
    "abilityType": "sp"
  },
  "effects": [],
  "folder": null,
  "sort": 0,
  "permission": {
    "default": 0
  },
  "flags": {}
}
