{
  "_id": "5RkozQ608cc8keAk",
  "name": "Mockery",
  "type": "feat",
  "img": "systems/pf1/icons/feats/deceitful.jpg",
  "data": {
    "description": {
      "value": "<p>The vigilante gains Antagonize&nbsp;as a bonus feat. He can target a creature with the Intimidate version of Antagonize twice each day, rather than just once.</p>\n<p>At 12th level, the effects of the Intimidate version of Antagonize last a number of rounds equal to the vigilante’s Charisma modifier (minimum 1).</p>"
    },
    "tags": [],
    "actions": [],
    "attackNotes": [],
    "effectNotes": [],
    "changes": [],
    "contextNotes": [],
    "links": {
      "children": [],
      "charges": []
    },
    "tag": "classFeat_mockery",
    "useCustomTag": true,
    "armorProf": {
      "value": []
    },
    "weaponProf": {
      "value": []
    },
    "languages": {
      "value": []
    },
    "scriptCalls": [],
    "featType": "classFeat",
    "associations": {
      "classes": [["Vigilante"]]
    },
    "abilityType": "ex"
  },
  "effects": [],
  "folder": null,
  "sort": 0,
  "permission": {
    "default": 0
  },
  "flags": {}
}
