{
  "_id": "7QAoMQ4v3B92HW85",
  "name": "Nature Mystery",
  "type": "feat",
  "img": "systems/pf1/icons/spells/light-magenta-2.jpg",
  "data": {
    "description": {
      "value": "<p><strong>Class Skills: </strong>An oracle with the nature mystery adds Climb, Fly, Knowledge (nature), Ride, Survival, and Swim to her list of class skills.<br><br><strong>Bonus Spells:&nbsp;</strong></p>\n<ul>\n<li>@Compendium[pf1.spells.pg7dbmuuaksxhp3v]{Charm Animal} (2nd),&nbsp;</li>\n<li>@Compendium[pf1.spells.la7kuehewu85ybnt]{Barkskin} (4th),&nbsp;</li>\n<li>@Compendium[pf1.spells.rrsefzpm3nhztvld]{Speak with Plants} (6th),&nbsp;</li>\n<li>@Compendium[pf1.spells.0sssdtv0tkbns2r3]{Grove of Respite} (8th),&nbsp;</li>\n<li>@Compendium[pf1.spells.h9qiwo9kx8d1hqrn]{Awaken} (10th),&nbsp;</li>\n<li>@Compendium[pf1.spells.wgm8mm1za909pwch]{Stone Tell} (12th),&nbsp;</li>\n<li>@Compendium[pf1.spells.f828mjoo5afszqnk]{Creeping Doom} (14th),&nbsp;</li>\n<li>@Compendium[pf1.spells.3ah9mmg0odateh8l]{Animal Shapes} (16th),&nbsp;</li>\n<li>@Compendium[pf1.spells.refg1teqkrdtxllg]{World Wave} (18th).</li>\n</ul>"
    },
    "tags": [],
    "actions": [],
    "attackNotes": [],
    "effectNotes": [],
    "changes": [],
    "contextNotes": [],
    "links": {
      "children": [],
      "charges": []
    },
    "tag": "classFeat_natureMystery",
    "useCustomTag": true,
    "armorProf": {
      "value": []
    },
    "weaponProf": {
      "value": []
    },
    "languages": {
      "value": []
    },
    "scriptCalls": [],
    "featType": "classFeat",
    "associations": {
      "classes": [["Oracle"]]
    }
  },
  "effects": [],
  "folder": null,
  "sort": 0,
  "permission": {
    "default": 0
  },
  "flags": {}
}
