{
  "_id": "f6Cu0YDPK0oYJ7jw",
  "name": "Nightmate Subdomain",
  "type": "feat",
  "img": "systems/pf1/icons/spells/horror-red-1.jpg",
  "data": {
    "description": {
      "value": "<p><strong>Replacement Domain Spells: </strong></p>\n<ul>\n<li>4th—@Compendium[pf1.spells.6efjgs1qvmj6yxqv]{Phantasmal Killer}</li>\n<li>6th—@Compendium[pf1.spells.pzwe3gxjz8gthyaj]{Cloak of Dreams}</li>\n<li>9th—@Compendium[pf1.spells.3wdx7fjulsohi1lk]{Weird}</li>\n</ul>"
    },
    "tags": [],
    "actions": [],
    "attackNotes": [],
    "effectNotes": [],
    "changes": [],
    "contextNotes": [],
    "links": {
      "children": [],
      "charges": []
    },
    "tag": "classFeat_nightmateSubdomain",
    "useCustomTag": true,
    "armorProf": {
      "value": []
    },
    "weaponProf": {
      "value": []
    },
    "languages": {
      "value": []
    },
    "scriptCalls": [],
    "featType": "classFeat",
    "associations": {
      "classes": [["Cleric"]]
    }
  },
  "effects": [],
  "folder": null,
  "sort": 0,
  "permission": {
    "default": 0
  },
  "flags": {}
}
