{
  "_id": "5coHeZQixBjp0BWw",
  "name": "Nothing Can Stop Me",
  "type": "feat",
  "img": "systems/pf1/icons/feats/deceitful.jpg",
  "data": {
    "description": {
      "value": "<p>Once per round, while the vigilante is moving, he can make one attack as a free action against an unattended object in the way of his path, such as a door or table. If his attack deals enough damage to destroy the object, he can continue to move. If he doesn’t destroy the object, his move ends. This attack is made as part of his move action and doesn’t count against his attacks this round. If his attack inadvertently targets a creature (such as a mimic), it automatically misses and his move ends (although he can still attack the creature as normal at the end of his movement).</p>\n<p>Only an avenger vigilante can select this talent.</p>"
    },
    "tags": [],
    "actions": [],
    "attackNotes": [],
    "effectNotes": [],
    "changes": [],
    "contextNotes": [],
    "links": {
      "children": [],
      "charges": []
    },
    "tag": "classFeat_nothingCanStopMe",
    "useCustomTag": true,
    "armorProf": {
      "value": []
    },
    "weaponProf": {
      "value": []
    },
    "languages": {
      "value": []
    },
    "scriptCalls": [],
    "featType": "classFeat",
    "associations": {
      "classes": [["Vigilante"]]
    },
    "abilityType": "ex"
  },
  "effects": [],
  "folder": null,
  "sort": 0,
  "permission": {
    "default": 0
  },
  "flags": {}
}
