{
  "_id": "UVllg7dIswaFptgz",
  "name": "One of Those Faces",
  "type": "feat",
  "img": "systems/pf1/icons/items/weapons/dagger.PNG",
  "data": {
    "description": {
      "value": "<p>Each day, you can use&nbsp;disguise self&nbsp;as a spell-like ability for up to 10 minutes per character level. This duration need not be continuous, but it must be used in 10-minute increments. Additionally, once you have used this ability, whenever you use it for the next 24 hours you must take the same alternate appearance.</p>"
    },
    "tags": [],
    "actions": [],
    "attackNotes": [],
    "effectNotes": [],
    "changes": [],
    "contextNotes": [],
    "links": {
      "children": [],
      "charges": []
    },
    "tag": "classFeat_oneOfThoseFaces",
    "useCustomTag": true,
    "armorProf": {
      "value": []
    },
    "weaponProf": {
      "value": []
    },
    "languages": {
      "value": []
    },
    "scriptCalls": [],
    "featType": "classFeat",
    "associations": {
      "classes": [["Rogue"]]
    },
    "abilityType": "sp"
  },
  "effects": [],
  "folder": null,
  "sort": 0,
  "permission": {
    "default": 0
  },
  "flags": {}
}
