{
  "_id": "LlFvhM7wA3ANdAzw",
  "name": "Outer Rifts Final Revelation",
  "type": "feat",
  "img": "systems/pf1/icons/spells/light-royal-1.jpg",
  "data": {
    "description": {
      "value": "<p>At 20th level, you gain the ability to open rifts between planes. This allows you to use @Compendium[pf1.spells.ursm11405zobemi3]{Gate}&nbsp;as a spell-like ability once per day. If you use this ability to call creatures, you still need to provide 10,000 gp in offerings to secure the creature’s aid.</p>"
    },
    "tags": [],
    "actions": [],
    "attackNotes": [],
    "effectNotes": [],
    "changes": [],
    "contextNotes": [],
    "links": {
      "children": [],
      "charges": []
    },
    "tag": "classFeat_outerRiftsFinalRevelation",
    "useCustomTag": true,
    "armorProf": {
      "value": []
    },
    "weaponProf": {
      "value": []
    },
    "languages": {
      "value": []
    },
    "scriptCalls": [],
    "featType": "classFeat",
    "associations": {
      "classes": [["Oracle"]]
    }
  },
  "effects": [],
  "folder": null,
  "sort": 0,
  "permission": {
    "default": 0
  },
  "flags": {}
}
