{
  "_id": "E5GmYlLfxnvti586",
  "name": "Pageantry Discipline",
  "type": "feat",
  "img": "systems/pf1/icons/spells/slice-spirit-3.jpg",
  "data": {
    "description": {
      "value": "<p>The act of ritual, no matter how ostentatious, can be a route to mental strength. By engaging in esoteric and intricate routines, you have unlocked potent psychic power.<br><br><strong>Phrenic Pool Ability:</strong> Charisma<br><br><strong>Bonus Spells:&nbsp;</strong></p>\n<ul>\n<li>@Compendium[pf1.spells.wa0zb2pncesmm9lz]{Bless} (1st),&nbsp;</li>\n<li>@Compendium[pf1.spells.6orhthk4g27rncuu]{Calm Emotions} (4th),&nbsp;</li>\n<li>@Compendium[pf1.spells.jcr72piqo6g549e1]{Slow} (6th),&nbsp;</li>\n<li>@Compendium[pf1.spells.xuuzj9lr2xbwaim4]{Overwhelming Presence} (8th),&nbsp;</li>\n<li>@Compendium[pf1.spells.weyfn0mg2oifasq1]{Seeming} (10th),&nbsp;</li>\n<li>@Compendium[pf1.spells.op40qjf9oohlx5nu]{Heroes' Feast} (12th),&nbsp;</li>\n<li>@Compendium[pf1.spells.kqftgm3bi2dqj92l]{Mage's Magnificent Mansion} (14th),&nbsp;</li>\n<li>@Compendium[pf1.spells.zi1fpl4essgw5bbc]{Divine Vessel} (16th),&nbsp;</li>\n<li>@Compendium[pf1.spells.ueuz3ymuz8pxpzr6]{Heroic Invocation} (18th).</li>\n</ul>"
    },
    "tags": [],
    "actions": [],
    "attackNotes": [],
    "effectNotes": [],
    "changes": [],
    "contextNotes": [],
    "links": {
      "children": [],
      "charges": []
    },
    "tag": "classFeat_pageantryDiscipline",
    "useCustomTag": true,
    "armorProf": {
      "value": []
    },
    "weaponProf": {
      "value": []
    },
    "languages": {
      "value": []
    },
    "scriptCalls": [],
    "featType": "classFeat",
    "associations": {
      "classes": [["Psychic"]]
    }
  },
  "effects": [],
  "folder": null,
  "sort": 0,
  "permission": {
    "default": 0
  },
  "flags": {}
}
