{
  "_id": "wCMEuH1GmtYfyw9m",
  "name": "Past Life Evoker",
  "type": "feat",
  "img": "systems/pf1/icons/spells/runes-blue-1.jpg",
  "data": {
    "description": {
      "value": "<p><strong>Element&nbsp;</strong>universal;&nbsp;<strong>Type&nbsp;</strong>utility (Su);&nbsp;<strong>Level&nbsp;</strong>2;&nbsp;<strong>Burn&nbsp;</strong>0<br><strong>Prerequisite&nbsp;</strong><a href=\"https://aonprd.com/RacesDisplay.aspx?ItemName=Samsaran\">samsaran</a></p>\n<p>Once per day, you can accept 1 point of burn to choose one simple blast wild talent belonging to any element. You gain the chosen simple blast wild talent for 1 minute, using your kineticist level – 2 to determine the blast talent’s damage.</p>\n<p>The simple blast wild talent you gain in this way does not allow you to meet any prerequisites.</p>"
    },
    "tags": [],
    "actions": [],
    "attackNotes": [],
    "effectNotes": [],
    "changes": [],
    "contextNotes": [],
    "links": {
      "children": [],
      "charges": []
    },
    "tag": "classFeat_pastLifeEvoker",
    "useCustomTag": true,
    "armorProf": {
      "value": []
    },
    "weaponProf": {
      "value": []
    },
    "languages": {
      "value": []
    },
    "scriptCalls": [],
    "featType": "classFeat",
    "associations": {
      "classes": [["Kineticist"]]
    },
    "abilityType": "su"
  },
  "effects": [],
  "folder": null,
  "sort": 0,
  "permission": {
    "default": 0
  },
  "flags": {}
}
