{
  "_id": "chvrIH4Hu8vWOHYD",
  "name": "Photokinetic Infusion",
  "type": "feat",
  "img": "systems/pf1/icons/spells/vines-jade-3.jpg",
  "data": {
    "description": {
      "value": "<p><strong>Element&nbsp;</strong>wood;&nbsp;<strong>Type&nbsp;</strong>substance infusion;&nbsp;<strong>Level&nbsp;</strong>1;&nbsp;<strong>Burn&nbsp;</strong>1<br><strong>Prerequisite&nbsp;</strong>positive blast<br><strong>Associated Blasts&nbsp;</strong>positive<br><strong>Saving Throw&nbsp;</strong>none</p>\n<p>Your blast damages living creatures with light. This deals normal damage to undead creatures but also deals minimum damage (1 point of damage per d6, can’t be increased by the 9th-level improvement to metakinesis) to living creatures.</p>\n<p>Undead creatures that are particularly vulnerable to sunlight, such as vampires, take 1 extra point of damage per die from the infused blast.</p>"
    },
    "tags": [],
    "actions": [],
    "attackNotes": [],
    "effectNotes": [],
    "changes": [],
    "contextNotes": [],
    "links": {
      "children": [],
      "charges": []
    },
    "tag": "classFeat_photokineticInfusion",
    "useCustomTag": true,
    "armorProf": {
      "value": []
    },
    "weaponProf": {
      "value": []
    },
    "languages": {
      "value": []
    },
    "scriptCalls": [],
    "featType": "classFeat",
    "associations": {
      "classes": [["Kineticist"]]
    }
  },
  "effects": [],
  "folder": null,
  "sort": 0,
  "permission": {
    "default": 0
  },
  "flags": {}
}
