{
  "_id": "Die3vt9KUnrCXDPQ",
  "name": "Poison (UC) (2 pts)",
  "type": "feat",
  "img": "systems/pf1/icons/skills/blue_26.jpg",
  "data": {
    "description": {
      "value": "<p><strong>Requirements: </strong>Summoner level 7th; daemon, demon, devil, elemental, or protean subtype; bite or sting evolution.</p>\n<p>The eidolon secretes toxic venom, gaining a poison attack. Select one bite or sting attack. Whenever the selected attack hits, the target is poisoned.<br><br><strong>Eidolon Poison:</strong> Injury;&nbsp;<em>save</em>&nbsp;Fort negates;&nbsp;<em>frequency</em>&nbsp;1/round for 4 rounds;&nbsp;<em>effect</em>&nbsp;1d4 Str damage;&nbsp;<em>cure</em>&nbsp;1 save.<br><br>The save DC is equal to 10 + 1/2 the eidolon’s Hit Dice + the eidolon’s Constitution modifier.</p>\n<p>For 2 additional evolution points, this poison deals Constitution damage instead. This poison can be used no more than once per round.&nbsp;</p>\n<p>&nbsp;</p>"
    },
    "tags": [],
    "actions": [],
    "attackNotes": [],
    "effectNotes": [],
    "changes": [],
    "contextNotes": [],
    "links": {
      "children": [],
      "charges": []
    },
    "tag": "classFeat_poisonUc2Pts",
    "useCustomTag": true,
    "armorProf": {
      "value": []
    },
    "weaponProf": {
      "value": []
    },
    "languages": {
      "value": []
    },
    "scriptCalls": [],
    "featType": "classFeat",
    "associations": {
      "classes": [["Eidolon (Unchained)"]]
    },
    "abilityType": "ex"
  },
  "effects": [],
  "folder": null,
  "sort": 0,
  "permission": {
    "default": 0
  },
  "flags": {}
}
