{
  "_id": "7C35mbXFtHoQKtjO",
  "name": "Pool Strike, Thunderous",
  "type": "feat",
  "img": "systems/pf1/icons/spells/enchant-red-3.jpg",
  "data": {
    "description": {
      "value": "<p>The magus can expend 1 additional point from his arcane pool when making a pool strike. His pool strike deals sonic damage and deafens a single target for 1 round (DC 10 + 1/2 magus level + Intelligence modifier).</p>\n<p>The magus must be at least 6th level and must have the pool strike magus arcana before selecting this magus arcana.</p>"
    },
    "tags": [],
    "actions": [],
    "attackNotes": [],
    "effectNotes": [],
    "changes": [],
    "contextNotes": [],
    "links": {
      "children": [],
      "charges": []
    },
    "tag": "classFeat_poolStrikeThunderous",
    "useCustomTag": true,
    "armorProf": {
      "value": []
    },
    "weaponProf": {
      "value": []
    },
    "languages": {
      "value": []
    },
    "scriptCalls": [],
    "featType": "classFeat",
    "associations": {
      "classes": [["Magus"]]
    },
    "abilityType": "su"
  },
  "effects": [],
  "folder": null,
  "sort": 0,
  "permission": {
    "default": 0
  },
  "flags": {}
}
