{
  "_id": "sxpGOVklEiwzkRjM",
  "name": "Precise Companion",
  "type": "feat",
  "img": "systems/pf1/icons/skills/arrow_07.jpg",
  "data": {
    "description": {
      "value": "<p>At 2nd level, a hunter chooses either Precise Shot or Outflank&nbsp;as a bonus feat. She does not need to meet the prerequisites for this feat. If she chooses Outflank, she automatically grants this feat to her animal companion as well.</p>"
    },
    "tags": [],
    "actions": [],
    "attackNotes": [],
    "effectNotes": [],
    "changes": [],
    "contextNotes": [],
    "links": {
      "children": [],
      "charges": []
    },
    "tag": "classFeat_preciseCompanion",
    "useCustomTag": true,
    "armorProf": {
      "value": []
    },
    "weaponProf": {
      "value": []
    },
    "languages": {
      "value": []
    },
    "scriptCalls": [],
    "featType": "classFeat",
    "associations": {
      "classes": [["Hunter"]]
    },
    "abilityType": "ex"
  },
  "effects": [],
  "folder": null,
  "sort": 0,
  "permission": {
    "default": 0
  },
  "flags": {}
}
