{
  "_id": "dzAbx3olXdrHIcOE",
  "name": "Prophecy Subschool",
  "type": "feat",
  "img": "systems/pf1/icons/spells/air-burst-magenta-3.jpg",
  "data": {
    "description": {
      "value": "<p><strong>Associated School</strong>:&nbsp;<a href=\"https://www.d20pfsrd.com/classes/core-classes/wizard/arcane-schools/paizo-arcane-schools/classic-arcane-schools/divination/\">Divination</a>.</p>\n<p><strong>Replacement Powers:</strong> This subschool replaces the forewarned and scrying adept powers of the&nbsp;<a href=\"https://www.d20pfsrd.com/classes/core-classes/wizard/arcane-schools/paizo-arcane-schools/classic-arcane-schools/divination/\">divination school</a>.</p>"
    },
    "tags": [],
    "actions": [],
    "attackNotes": [],
    "effectNotes": [],
    "changes": [],
    "contextNotes": [],
    "links": {
      "children": [],
      "charges": []
    },
    "tag": "classFeat_prophecySubschool",
    "useCustomTag": true,
    "armorProf": {
      "value": []
    },
    "weaponProf": {
      "value": []
    },
    "languages": {
      "value": []
    },
    "scriptCalls": [],
    "featType": "classFeat",
    "associations": {
      "classes": [["Wizard"]]
    }
  },
  "effects": [],
  "folder": null,
  "sort": 0,
  "permission": {
    "default": 0
  },
  "flags": {}
}
