{
  "_id": "H2tbxnDHYC5fxg26",
  "name": "Psychic Curse",
  "type": "feat",
  "img": "systems/pf1/icons/skills/affliction_08.jpg",
  "data": {
    "description": {
      "value": "<p>As a standard action, you can expend 1 point of mental focus to curse a living creature within 30 feet with your psychic magic. You can choose one of the following effects: memory lapse, mental block, or pain confusion.</p>\n<p>If you choose memory lapse, the target loses its memory of the past 1 hour per occultist level you possess.</p>\n<p>If you choose mental block, you can proscribe one specific action, such as attacking with a type of weapon, casting a specific spell, or something else suitably specific (subject to the GM’s discretion). The target can’t take that action without first succeeding at a Will save. If it fails, it can take other actions instead. If it attempts the prohibited action again on subsequent rounds, it gains a cumulative +2 bonus on the save until it succeeds.</p>\n<p>If you select pain confusion, the creature is confused for 1d4 rounds whenever it is damaged by a critical hit. The target can attempt a Will save to negate this effect. This effect lasts for 1 day per occultist level you possess.</p>\n<p>A creature can’t be under the effects of more than one psychic curse at a time. This is a mind-affecting curse effect.</p>\n<p>You must be at least 5th level to select this focus power.</p>"
    },
    "tags": [],
    "actions": [
      {
        "_id": "arvlwjicgcqgmqo1",
        "name": "Use",
        "img": "systems/pf1/icons/skills/affliction_08.jpg",
        "description": "",
        "activation": {
          "cost": 1,
          "type": "standard"
        },
        "unchainedAction": {
          "activation": {
            "cost": 2,
            "type": "action"
          }
        },
        "duration": {
          "value": null,
          "units": ""
        },
        "target": {
          "value": "one creature"
        },
        "range": {
          "value": "30",
          "units": "ft",
          "maxIncrements": 1,
          "minValue": null,
          "minUnits": ""
        },
        "uses": {
          "autoDeductCharges": true,
          "autoDeductChargesCost": "1",
          "per": "",
          "value": 0,
          "maxFormula": ""
        },
        "measureTemplate": {
          "type": "",
          "size": "",
          "overrideColor": false,
          "customColor": "",
          "overrideTexture": false,
          "customTexture": ""
        },
        "attackName": "",
        "actionType": "",
        "attackBonus": "",
        "critConfirmBonus": "",
        "damage": {
          "parts": [],
          "critParts": [],
          "nonCritParts": []
        },
        "attackParts": [],
        "formulaicAttacks": {
          "count": {
            "formula": ""
          },
          "bonus": {
            "formula": ""
          },
          "label": null
        },
        "formula": "",
        "ability": {
          "attack": null,
          "damage": null,
          "damageMult": 1,
          "critRange": 20,
          "critMult": 2
        },
        "save": {
          "dc": 0,
          "type": "",
          "description": ""
        },
        "effectNotes": [],
        "attackNotes": [],
        "soundEffect": "",
        "powerAttack": {
          "multiplier": "",
          "damageBonus": 2,
          "critMultiplier": 1
        },
        "naturalAttack": {
          "secondary": {
            "attackBonus": "-5",
            "damageMult": 0.5
          }
        },
        "nonlethal": false,
        "usesAmmo": false,
        "spellEffect": "",
        "spellArea": "",
        "conditionals": [],
        "enh": {
          "override": false,
          "value": 0
        }
      }
    ],
    "uses": {
      "per": ""
    },
    "attackNotes": [],
    "effectNotes": [],
    "changes": [],
    "contextNotes": [],
    "links": {
      "children": [],
      "charges": []
    },
    "tag": "classFeat_psychicCurse",
    "useCustomTag": true,
    "armorProf": {
      "value": []
    },
    "weaponProf": {
      "value": []
    },
    "languages": {
      "value": []
    },
    "scriptCalls": [],
    "featType": "classFeat",
    "associations": {
      "classes": [["Occultist"]]
    },
    "abilityType": "sp"
  },
  "effects": [],
  "folder": null,
  "sort": 0,
  "permission": {
    "default": 0
  },
  "flags": {}
}
