{
  "_id": "ORDxnNKT8sfXUqjY",
  "name": "Pure of Mind",
  "type": "feat",
  "img": "systems/pf1/icons/skills/blue_09.jpg",
  "data": {
    "description": {
      "value": "<p>At 3rd level, you gain a +2 bonus on saving throws against&nbsp;<a href=\"https://www.d20pfsrd.com/magic#TOC-Enchantment-Charm\">charm</a>&nbsp;effects and a +4 bonus on saving throws against spells with the&nbsp;<a href=\"https://www.d20pfsrd.com/magic#TOC-Magic-Descriptor-Evil\">evil descriptor</a>. At 9th level, your bonus on saving throws against&nbsp;<a href=\"https://www.d20pfsrd.com/magic#TOC-Enchantment-Charm\">charm</a>&nbsp;effects increases to +4 and your bonus on saving throws against spells with the&nbsp;<a href=\"https://www.d20pfsrd.com/magic#TOC-Magic-Descriptor-Evil\">evil descriptor</a>&nbsp;increases to +6.</p>"
    },
    "tags": [],
    "actions": [],
    "attackNotes": [],
    "effectNotes": [],
    "changes": [],
    "contextNotes": [],
    "links": {
      "children": [],
      "charges": []
    },
    "tag": "classFeat_pureOfMind",
    "useCustomTag": true,
    "armorProf": {
      "value": []
    },
    "weaponProf": {
      "value": []
    },
    "languages": {
      "value": []
    },
    "scriptCalls": [],
    "featType": "classFeat",
    "associations": {
      "classes": [["Sorcerer"]]
    },
    "abilityType": "su"
  },
  "effects": [],
  "folder": null,
  "sort": 0,
  "permission": {
    "default": 0
  },
  "flags": {}
}
