{
  "_id": "2na2nqI5wxvd86kg",
  "name": "Purity Subdomain",
  "type": "feat",
  "img": "systems/pf1/icons/skills/affliction_10.jpg",
  "data": {
    "description": {
      "value": "<p><strong>Replacement Domain Spells: </strong></p>\n<ul>\n<li>1st—@Compendium[pf1.spells.md6ltvqh9paadsm4]{Protection From Chaos}/evil/good/law,</li>\n<li>3rd—@Compendium[pf1.spells.kundr7ekztiqml5t]{Remove Blindness/Deafness}</li>\n<li>5th—@Compendium[pf1.spells.qr6qcx8zqum6jhc4]{Atonement}</li>\n</ul>"
    },
    "tags": [],
    "actions": [],
    "attackNotes": [],
    "effectNotes": [],
    "changes": [],
    "contextNotes": [],
    "links": {
      "children": [],
      "charges": []
    },
    "tag": "classFeat_puritySubdomain",
    "useCustomTag": true,
    "armorProf": {
      "value": []
    },
    "weaponProf": {
      "value": []
    },
    "languages": {
      "value": []
    },
    "scriptCalls": [],
    "featType": "classFeat",
    "associations": {
      "classes": [["Cleric"]]
    }
  },
  "effects": [],
  "folder": null,
  "sort": 0,
  "permission": {
    "default": 0
  },
  "flags": {}
}
