{
  "_id": "I6viUEtXAH8fPtDe",
  "name": "Rake (UC) (2 pts)",
  "type": "feat",
  "img": "systems/pf1/icons/skills/blue_26.jpg",
  "data": {
    "description": {
      "value": "<p><strong>Requirements: </strong>Summoner level 4th, quadruped base form.</p>\n<p>The eidolon grows dangerous claws on its feet, allowing it to make two rake attacks against foes it is grappling. These attacks are primary attacks. The eidolon can make these additional attacks each time it succeeds at a grapple check against the target. These rake attacks deal 1d4 points of damage (1d6 if Large, 1d8 if Huge).</p>\n<p>This evolution counts as one natural attack toward the eidolon’s maximum.&nbsp;</p>"
    },
    "tags": [],
    "actions": [],
    "attackNotes": [],
    "effectNotes": [],
    "changes": [],
    "contextNotes": [],
    "links": {
      "children": [],
      "charges": []
    },
    "tag": "classFeat_rakeUc2Pts",
    "useCustomTag": true,
    "armorProf": {
      "value": []
    },
    "weaponProf": {
      "value": []
    },
    "languages": {
      "value": []
    },
    "scriptCalls": [],
    "featType": "classFeat",
    "associations": {
      "classes": [["Eidolon (Unchained)"]]
    },
    "abilityType": "ex"
  },
  "effects": [],
  "folder": null,
  "sort": 0,
  "permission": {
    "default": 0
  },
  "flags": {}
}
