{
  "_id": "Gy4qX2jO3xwGjMqc",
  "name": "Rapport Discipline",
  "type": "feat",
  "img": "systems/pf1/icons/spells/slice-spirit-3.jpg",
  "data": {
    "description": {
      "value": "<p>Forging a close bond with other people brings out the best in you, making it easier for you to link your mind with theirs. Through bonding your psyche with another person, you’re able to fill in your own mental gaps and develop new psychic powers.<br><br><strong>Phrenic Pool Ability:</strong> Charisma<br><br><strong>Bonus Spells:</strong>&nbsp;</p>\n<ul>\n<li>@Compendium[pf1.spells.tjog6bufg5b08lvq]{Charm Person} (1st),&nbsp;</li>\n<li>@Compendium[pf1.spells.v3d3lnjj7ks0ztii]{Enthrall} (4th),&nbsp;</li>\n<li>@Compendium[pf1.spells.lisojmynoblunlex]{Coordinated Effort} (6th),&nbsp;</li>\n<li>@Compendium[pf1.spells.ofw6gnp6r7t2wcba]{Geas, Lesser} (8th),&nbsp;</li>\n<li>@Compendium[pf1.spells.lovx4kiq18gbvg4e]{Telepathy} (10th),&nbsp;</li>\n<li>@Compendium[pf1.spells.eg3i21asvo69mbma]{Battlemind Link} (12th),&nbsp;</li>\n<li>@Compendium[pf1.spells.lf7xf41mmcdaaxzb]{Charm Person, Mass} (14th),&nbsp;</li>\n<li>@Compendium[pf1.spells.q2r6jrgsbwjgssdg]{Charm Monster, Mass} (16th),&nbsp;</li>\n<li>@Compendium[pf1.spells.xuuzj9lr2xbwaim4]{Overwhelming Presence}&nbsp;(18th).</li>\n</ul>"
    },
    "tags": [],
    "actions": [],
    "attackNotes": [],
    "effectNotes": [],
    "changes": [],
    "contextNotes": [],
    "links": {
      "children": [],
      "charges": []
    },
    "tag": "classFeat_rapportDiscipline",
    "useCustomTag": true,
    "armorProf": {
      "value": []
    },
    "weaponProf": {
      "value": []
    },
    "languages": {
      "value": []
    },
    "scriptCalls": [],
    "featType": "classFeat",
    "associations": {
      "classes": [["Psychic"]]
    }
  },
  "effects": [],
  "folder": null,
  "sort": 0,
  "permission": {
    "default": 0
  },
  "flags": {}
}
