{
  "_id": "MAGqhcrKU6dqAbK7",
  "name": "Rebirth Discipline",
  "type": "feat",
  "img": "systems/pf1/icons/spells/slice-spirit-3.jpg",
  "data": {
    "description": {
      "value": "<p>Your mind is forged from the most powerful memories of a multitude of lifetimes. You have fragmentary knowledge of your prior lives and can leverage the experience gained during these lifetimes into raw psychic power.<br><br><strong>Phrenic Pool Ability:</strong> Charisma<br><br><strong>Bonus Spells:</strong>&nbsp;</p>\n<ul>\n<li>@Compendium[pf1.spells.ndvks6ztnxhj6oxh]{Burst Of Insight} (1st),&nbsp;</li>\n<li>@Compendium[pf1.spells.3ze0kso9hxff5u2f]{False Life} (4th),&nbsp;</li>\n<li>@Compendium[pf1.spells.68ngvzmzvadhf6vs]{Contact Other Plane} (6th),&nbsp;</li>\n<li>@Compendium[pf1.spells.0dcr75sqs8wpdrhg]{Ancestral Memory} (8th),&nbsp;</li>\n<li>@Compendium[pf1.spells.3w1ozzzf8hk0gdzm]{Reincarnate} (10th),&nbsp;</li>\n<li>@Compendium[pf1.spells.9pbl3ktd5oqejl19]{Transformation} (12th),&nbsp;</li>\n<li>@Compendium[pf1.spells.btccs4sjo2nog1a0]{Ethereal Jaunt} (14th),&nbsp;</li>\n<li>@Compendium[pf1.spells.v39qnirlhgje2c0e]{Bilocation} (16th),&nbsp;</li>\n<li>@Compendium[pf1.spells.au6p72aztjhtokwr]{Akashic Form} (18th).</li>\n</ul>"
    },
    "tags": [],
    "actions": [],
    "attackNotes": [],
    "effectNotes": [],
    "changes": [],
    "contextNotes": [],
    "links": {
      "children": [],
      "charges": []
    },
    "tag": "classFeat_rebirthDiscipline",
    "useCustomTag": true,
    "armorProf": {
      "value": []
    },
    "weaponProf": {
      "value": []
    },
    "languages": {
      "value": []
    },
    "scriptCalls": [],
    "featType": "classFeat",
    "associations": {
      "classes": [["Psychic"]]
    }
  },
  "effects": [],
  "folder": null,
  "sort": 0,
  "permission": {
    "default": 0
  },
  "flags": {}
}
