{
  "_id": "bzNHSJJAe1CYCPzw",
  "name": "Recall Training",
  "type": "feat",
  "img": "systems/pf1/icons/items/weapons/rhoka.PNG",
  "data": {
    "description": {
      "value": "<p><a href=\"https://aonprd.com/RacesDisplay.aspx?ItemName=Samsaran\">Samsaran</a>&nbsp;only.</p>\n<p>By calling on the memories of previous incarnations, a samsaran slayer can use martial techniques that transcend his usual capabilities. Once per day, the slayer can take a move action to gain the benefit of a&nbsp;<a href=\"https://aonprd.com/Feats.aspx?Category=Combat\">combat feat</a>&nbsp;he doesn’t have. This effect lasts for 1 minute per slayer level he has.</p>\n<p>The slayer must meet all the feat’s prerequisites.</p>"
    },
    "tags": [],
    "actions": [],
    "attackNotes": [],
    "effectNotes": [],
    "changes": [],
    "contextNotes": [],
    "links": {
      "children": [],
      "charges": []
    },
    "tag": "classFeat_recallTraining",
    "useCustomTag": true,
    "armorProf": {
      "value": []
    },
    "weaponProf": {
      "value": []
    },
    "languages": {
      "value": []
    },
    "scriptCalls": [],
    "featType": "classFeat",
    "associations": {
      "classes": [["Slayer"]]
    },
    "abilityType": "ex"
  },
  "effects": [],
  "folder": null,
  "sort": 0,
  "permission": {
    "default": 0
  },
  "flags": {}
}
