{
  "_id": "JGWHQ5W3cdEBu5eF",
  "name": "Recovery Patron",
  "type": "feat",
  "img": "systems/pf1/icons/feats/improved-familiar.jpg",
  "data": {
    "description": {
      "value": "<ul>\n<li>2nd — @Compendium[pf1.spells.8jqq8kxdzx01ogl9]{Liberating Command}</li>\n<li>4th — @Compendium[pf1.spells.7xdn59ffjaqchhrz]{Remove Paralysis}</li>\n<li>6th — @Compendium[pf1.spells.75bgl52r3qmp1wh4]{Sacred Bond}</li>\n<li>8th — @Compendium[pf1.spells.lvzq2mwkqmozolpl]{Freedom of Movement}</li>\n<li>10th — @Compendium[pf1.spells.sbhij6pdo24wkm48]{Cleanse}</li>\n<li>12th — @Compendium[pf1.spells.op40qjf9oohlx5nu]{Heroes' Feast}</li>\n<li>14th — @Compendium[pf1.spells.2ip53auf03bqxkl1]{Joyful Rapture}</li>\n<li>16th — @Compendium[pf1.spells.0kppkhsencd6tzvh]{Protection from Spells}</li>\n<li>18th — @Compendium[pf1.spells.klcvk9ct1l7mhjwp]{Heal, Mass}</li>\n</ul>"
    },
    "tags": [],
    "actions": [],
    "attackNotes": [],
    "effectNotes": [],
    "changes": [],
    "contextNotes": [],
    "links": {
      "children": [],
      "charges": []
    },
    "tag": "classFeat_recoveryPatron",
    "useCustomTag": true,
    "armorProf": {
      "value": []
    },
    "weaponProf": {
      "value": []
    },
    "languages": {
      "value": []
    },
    "scriptCalls": [],
    "featType": "classFeat",
    "associations": {
      "classes": [["Witch"]]
    }
  },
  "effects": [],
  "folder": null,
  "sort": 0,
  "permission": {
    "default": 0
  },
  "flags": {}
}
