{
  "_id": "CMhvFSQvAKs0HEyQ",
  "name": "Scorpion Bloodline",
  "type": "feat",
  "img": "systems/pf1/icons/skills/green_07.jpg",
  "data": {
    "description": {
      "value": "<p><em>Whether your ancestors served a scorpion goddess or simply worked closely with more mundane members of the species, the venom from these arachnids has seeped down through generations into your blood.</em></p>\n<p><strong>Class Skill:</strong>&nbsp;<a href=\"https://www.d20pfsrd.com/skills/climb\">Climb</a>.</p>\n<p><strong>Bonus Spells:</strong></p>\n<ul>\n<li>@Compendium[pf1.spells.6vx3lvbhp6h220wq]{Thorn Javelin} (3rd),</li>\n<li>@Compendium[pf1.spells.3mfmhx8avu7h3iom]{Spider Climb} (5th),</li>\n<li>@Compendium[pf1.spells.vdh0yuzpjwhky6kr]{Poison} (7th),</li>\n<li>@Compendium[pf1.spells.pa6mgkl4caihdrhm]{Giant Vermin} (<a href=\"https://www.d20pfsrd.com/bestiary/monster-listings/vermin/scorpion\">scorpions</a> only) (9th),</li>\n<li>@Compendium[pf1.spells.j8fufy7sr3bty5du]{Vermin Shape II}&nbsp;(11th),</li>\n<li>@Compendium[pf1.spells.nk37t5em8q4v1djs]{Sirocco}&nbsp;(13th),</li>\n<li>@Compendium[pf1.spells.f828mjoo5afszqnk]{Creeping Doom}&nbsp;(15th),</li>\n<li>@Compendium[pf1.spells.e8zen5nzixnt7bde]{Horrid Wilting}&nbsp;(17th),</li>\n<li>@Compendium[pf1.spells.jg2n48yy9pk9mpdr]{Transmute Blood To Acid}&nbsp;(19th).</li>\n</ul>\n<p><strong>Bonus Feats:</strong></p>\n<ul>\n<li>@Compendium[pf1.feats.QvlxYVVsBDlykPKe]{Arcane Strike},</li>\n<li>@Compendium[pf1.feats.pmAO1Sni8xx71pLF]{Blind-Fight},</li>\n<li>@Compendium[pf1.feats.h9nHYLxXvIXBTmup]{Combat Reflexes},</li>\n<li>&nbsp;<a href=\"https://www.d20pfsrd.com/feats/metamagic-feats/disruptive-spell-metamagic\">Disruptive Spell</a>,</li>\n<li>@Compendium[pf1.feats.Uuiu3p982omhMEPj]{Improved Initiative},</li>\n<li>@Compendium[pf1.feats.VMVAqGze4cs3naya]{Nimble Moves},</li>\n<li>@Compendium[pf1.feats.7zJTztNW7hdaqjKc]{Skill Focus}&nbsp;(<a href=\"https://www.d20pfsrd.com/skills/climb\">Climb</a>),</li>\n<li>@Compendium[pf1.feats.f5FPqAYWlKj3zCIY]{Stealthy}.</li>\n</ul>\n<p><strong>Bloodline Arcana:</strong> You are trained in the use of poison and cannot accidentally poison yourself when applying poison to a weapon.</p>"
    },
    "tags": [],
    "actions": [],
    "attackNotes": [],
    "effectNotes": [],
    "changes": [],
    "contextNotes": [],
    "links": {
      "children": [],
      "charges": []
    },
    "tag": "classFeat_scorpionBloodline",
    "useCustomTag": true,
    "armorProf": {
      "value": []
    },
    "weaponProf": {
      "value": []
    },
    "languages": {
      "value": []
    },
    "scriptCalls": [],
    "featType": "classFeat",
    "associations": {
      "classes": [["Sorcerer"]]
    }
  },
  "effects": [],
  "folder": null,
  "sort": 0,
  "permission": {
    "default": 0
  },
  "flags": {}
}
