{
  "_id": "GwibxB2gQYnySYxk",
  "name": "Self-Resurrection",
  "type": "feat",
  "img": "systems/pf1/icons/skills/red_05.jpg",
  "data": {
    "description": {
      "value": "<p>From the ashes of your body springs forth new life. At 16th level, once per day when you are reduced below 0 hit points while you are bloodraging, you can call upon the power in your blood to pull yourself back from death. This functions as a @Compendium[pf1.spells.qiiis9ekgy3syu7j]{Breath Of Life}&nbsp;spell cast upon yourself.</p>\n<p>At 20th level, this instead functions as a @Compendium[pf1.spells.4re1j2w8wkvsvnsi]{Heal}&nbsp;spell, except that the healing can return you to life as per @Compendium[pf1.spells.qiiis9ekgy3syu7j]{Breath Of Life}, using your bloodrager level as your caster level. Using this ability does not take an action. This ability does not function if your body is completely destroyed by an effect such as @Compendium[pf1.spells.sxyiwj0z95piv96i]{Disintegrate}.</p>"
    },
    "tags": [],
    "actions": [],
    "attackNotes": [],
    "effectNotes": [],
    "changes": [],
    "contextNotes": [],
    "links": {
      "children": [],
      "charges": []
    },
    "tag": "classFeat_selfresurrection",
    "useCustomTag": true,
    "armorProf": {
      "value": []
    },
    "weaponProf": {
      "value": []
    },
    "languages": {
      "value": []
    },
    "scriptCalls": [],
    "featType": "classFeat",
    "associations": {
      "classes": [["Bloodrager"]]
    },
    "abilityType": "su"
  },
  "effects": [],
  "folder": null,
  "sort": 0,
  "permission": {
    "default": 0
  },
  "flags": {}
}
