{
  "_id": "QWQnJHwtoEoZotrS",
  "name": "Shield of the Liege",
  "type": "feat",
  "img": "systems/pf1/icons/items/inventory/banner-red.jpg",
  "data": {
    "description": {
      "value": "<p>At 15th level, an order of the lion cavalier can protect those around him. Allies that are adjacent to the cavalier receive a +2 shield bonus to their AC. In addition, as an immediate action, the cavalier can redirect an attack made at a creature adjacent to himself, as long as the creature making the attack is within the cavalier's reach. This ability must be declared before the attack roll is made. The attack is made against the cavalier's AC and defenses, even if the creature could not normally reach or attack the cavalier. The cavalier loses any cover or concealment bonuses when subject to the redirected attack.</p>"
    },
    "tags": [],
    "actions": [],
    "attackNotes": [],
    "effectNotes": [],
    "changes": [],
    "contextNotes": [],
    "links": {
      "children": [],
      "charges": []
    },
    "tag": "classFeat_shieldOfTheLiege",
    "useCustomTag": true,
    "armorProf": {
      "value": []
    },
    "weaponProf": {
      "value": []
    },
    "languages": {
      "value": []
    },
    "scriptCalls": [],
    "featType": "classFeat",
    "associations": {
      "classes": [["Cavalier"]]
    },
    "abilityType": "ex"
  },
  "effects": [],
  "folder": null,
  "sort": 0,
  "permission": {
    "default": 0
  },
  "flags": {}
}
