{
  "_id": "OxFf0dxqeyRdeWB3",
  "name": "Sidestep Secret",
  "type": "feat",
  "img": "systems/pf1/icons/spells/light-royal-1.jpg",
  "data": {
    "description": {
      "value": "<p>Your innate understanding of the universe has granted you preternatural reflexes and the uncanny ability to step out of danger at the very last second. Add your Charisma modifier (instead of your Dexterity modifier) to your Armor Class and all Reflex saving throws. Your armor's maximum Dexterity bonus applies to your Charisma instead of your Dexterity.</p>"
    },
    "tags": [],
    "actions": [],
    "attackNotes": [],
    "effectNotes": [],
    "changes": [
      {
        "_id": "b6rfhl23",
        "formula": "@abilities.cha.mod - @abilities.dex.mod",
        "operator": "+",
        "subTarget": "ac",
        "modifier": "untyped",
        "priority": 0,
        "value": 0,
        "target": "ac"
      },
      {
        "_id": "bure6l48",
        "formula": "@abilities.cha.mod - @abilities.dex.mod",
        "operator": "+",
        "subTarget": "ref",
        "modifier": "untyped",
        "priority": 0,
        "value": 0,
        "target": "savingThrows"
      }
    ],
    "contextNotes": [],
    "links": {
      "children": [],
      "charges": []
    },
    "tag": "classFeat_sidestepSecret",
    "useCustomTag": true,
    "armorProf": {
      "value": []
    },
    "weaponProf": {
      "value": []
    },
    "languages": {
      "value": []
    },
    "scriptCalls": [],
    "featType": "classFeat",
    "associations": {
      "classes": [["Oracle"]]
    },
    "abilityType": "su"
  },
  "effects": [],
  "folder": null,
  "sort": 0,
  "permission": {
    "default": 0
  },
  "flags": {}
}
