{
  "_id": "jsVrIqFnj01QjqAM",
  "name": "Solid Ground",
  "type": "feat",
  "img": "systems/pf1/icons/items/potions/unique-3.jpg",
  "data": {
    "description": {
      "value": "<p>The alchemist launches an explosive paste bomb that bonds with any earthen surface. Each application of this paste deals no damage and affects a 5-foot-cube of dirt, loose soil, or stone, transmuting the earth for a number of minutes equal to the alchemist’s level. Creatures cannot use burrow, earthmeld, or similar abilities (such as the&nbsp;meld into stone&nbsp;spell) while the ground remains transmuted in this way.</p>"
    },
    "tags": [],
    "actions": [],
    "attackNotes": [],
    "effectNotes": [],
    "changes": [],
    "contextNotes": [],
    "links": {
      "children": [],
      "charges": []
    },
    "tag": "classFeat_solidGround",
    "useCustomTag": true,
    "armorProf": {
      "value": []
    },
    "weaponProf": {
      "value": []
    },
    "languages": {
      "value": []
    },
    "scriptCalls": [],
    "featType": "classFeat",
    "associations": {
      "classes": [["Alchemist"]]
    },
    "abilityType": "su"
  },
  "effects": [],
  "folder": null,
  "sort": 0,
  "permission": {
    "default": 0
  },
  "flags": {}
}
