{
  "_id": "CYOk7sUXkGbfRKPi",
  "name": "Song of the Fallen",
  "type": "feat",
  "img": "systems/pf1/icons/skills/affliction_07.jpg",
  "data": {
    "description": {
      "value": "<p>At 14th level, a skald can temporarily revive dead allies to continue fighting, with the same limitations as&nbsp;raise dead. The skald selects a dead ally within 60 feet and expends 1 round of raging song to bring that ally back to life. The revived ally is alive but staggered. Each round, the skald may expend another 1 round of raging song to keep that ally alive for another round. The ally automatically dies if the skald ends this performance or is interrupted. The skald may revive multiple allies with this ability (either at the same time or over successive rounds) but must expend 1 round of raging song per revived ally per round to maintain the effect.</p>"
    },
    "tags": [],
    "actions": [
      {
        "_id": "oazyzoc8rlgjk8vk",
        "name": "Use",
        "img": "systems/pf1/icons/skills/affliction_07.jpg",
        "description": "",
        "activation": {
          "cost": 1,
          "type": "special"
        },
        "unchainedAction": {
          "activation": {
            "cost": 1,
            "type": "special"
          }
        },
        "duration": {
          "value": null,
          "units": ""
        },
        "target": {
          "value": ""
        },
        "range": {
          "value": null,
          "units": "",
          "maxIncrements": 1,
          "minValue": null,
          "minUnits": ""
        },
        "uses": {
          "autoDeductCharges": true,
          "autoDeductChargesCost": "1",
          "per": "",
          "value": 0,
          "maxFormula": ""
        },
        "measureTemplate": {
          "type": "",
          "size": "",
          "overrideColor": false,
          "customColor": "",
          "overrideTexture": false,
          "customTexture": ""
        },
        "attackName": "",
        "actionType": "",
        "attackBonus": "",
        "critConfirmBonus": "",
        "damage": {
          "parts": [],
          "critParts": [],
          "nonCritParts": []
        },
        "attackParts": [],
        "formulaicAttacks": {
          "count": {
            "formula": ""
          },
          "bonus": {
            "formula": ""
          },
          "label": null
        },
        "formula": "",
        "ability": {
          "attack": null,
          "damage": null,
          "damageMult": 1,
          "critRange": 20,
          "critMult": 2
        },
        "save": {
          "dc": 0,
          "type": "",
          "description": ""
        },
        "effectNotes": [],
        "attackNotes": [],
        "soundEffect": "",
        "powerAttack": {
          "multiplier": "",
          "damageBonus": 2,
          "critMultiplier": 1
        },
        "naturalAttack": {
          "secondary": {
            "attackBonus": "-5",
            "damageMult": 0.5
          }
        },
        "nonlethal": false,
        "usesAmmo": false,
        "spellEffect": "",
        "spellArea": "",
        "conditionals": [],
        "enh": {
          "override": false,
          "value": 0
        }
      }
    ],
    "uses": {
      "per": ""
    },
    "attackNotes": [],
    "effectNotes": [],
    "changes": [],
    "contextNotes": [],
    "links": {
      "children": [],
      "charges": []
    },
    "tag": "classFeat_songOfTheFallen",
    "useCustomTag": true,
    "armorProf": {
      "value": []
    },
    "weaponProf": {
      "value": []
    },
    "languages": {
      "value": []
    },
    "scriptCalls": [],
    "featType": "classFeat",
    "associations": {
      "classes": [["Skald"]]
    },
    "abilityType": "su"
  },
  "effects": [],
  "folder": null,
  "sort": 0,
  "permission": {
    "default": 0
  },
  "flags": {}
}
