{
  "_id": "qnL3oisZNJSCFy57",
  "name": "Spell Storing",
  "type": "feat",
  "img": "systems/pf1/icons/skills/violet_04.jpg",
  "data": {
    "description": {
      "value": "<p><strong>Source</strong>&nbsp;<em>Ultimate Equipment pg. 148</em>,&nbsp;<em>PRPG Core Rulebook pg. 469</em></p>\n<p><strong>Aura</strong>&nbsp;strong evocation and varies&nbsp;<strong>CL</strong>&nbsp;12th</p>\n<p><strong>Slot</strong>&nbsp;weapon quality;&nbsp;<strong>Price</strong>&nbsp;+1 bonus;&nbsp;<strong>Weight</strong>&nbsp;-</p>\n<h3 class=\"framing\"><img style=\"margin: 3px 3px 0px 3px;\" title=\"PFS Legal\" src=\"https://www.aonprd.com/images/PathfinderSocietySymbol.gif\" /><strong>Description</strong></h3>\n<p>A&nbsp;<em>spell storing&nbsp;</em>weapon allows a spellcaster to store a single targeted spell of up to 3rd level in the weapon. (The spell must have a casting time of 1 standard action.) Anytime the weapon strikes a creature and the creature takes damage from it, the weapon can immediately cast the spell on that creature as a free action if the wielder desires. (This special ability is an exception to the general rule that casting a spell from an item takes at least as long as casting that spell normally.) Once the spell has been cast from the weapon, a spellcaster can cast any other targeted spell of up to 3rd level into it. The weapon magically imparts to the wielder the name of the spell currently stored within it. A randomly rolled&nbsp;<em>spell storing&nbsp;</em>weapon has a 50% chance of having a spell stored in it already. This special ability can only be placed on melee weapons.</p>\n<p>&nbsp;</p>\n<p>A&nbsp;<em>spell storing&nbsp;</em>weapon emits a strong aura of the evocation school, plus the aura of the spell currently stored.</p>\n<h3 class=\"framing\"><strong>Construction</strong></h3>\n<p><strong>Requirements</strong>&nbsp;Craft Magic Arms and Armor, creator must be a caster of at least 12th level;&nbsp;<strong>Price</strong>&nbsp;-</p>"
    },
    "tags": [["Melee Qualities"]],
    "actions": [],
    "attackNotes": [],
    "effectNotes": [],
    "changes": [],
    "contextNotes": [],
    "links": {
      "children": [],
      "charges": []
    },
    "tag": "misc_spellStoring",
    "useCustomTag": true,
    "armorProf": {
      "value": []
    },
    "weaponProf": {
      "value": []
    },
    "languages": {
      "value": []
    },
    "scriptCalls": [],
    "featType": "misc",
    "associations": {
      "classes": []
    }
  },
  "effects": [],
  "folder": null,
  "sort": 0,
  "permission": {
    "default": 0
  },
  "flags": {}
}
