{
  "_id": "vLXlkFSPLeVpwGRY",
  "name": "Spontaneous Change",
  "type": "feat",
  "img": "systems/pf1/icons/skills/red_05.jpg",
  "data": {
    "description": {
      "value": "<p>At 4th level, when entering a bloodrage, you can cast a transmutation spell that affects only you as a swift action, provided that the spell’s normal casting time is 1 round or shorter. The spell lasts for as long as you continue bloodraging, regardless of the spell’s normal duration. You can use this ability only to cast bloodrager spells you know.</p>"
    },
    "tags": [],
    "actions": [],
    "attackNotes": [],
    "effectNotes": [],
    "changes": [],
    "contextNotes": [],
    "links": {
      "children": [],
      "charges": []
    },
    "tag": "classFeat_spontaneousChange",
    "useCustomTag": true,
    "armorProf": {
      "value": []
    },
    "weaponProf": {
      "value": []
    },
    "languages": {
      "value": []
    },
    "scriptCalls": [],
    "featType": "classFeat",
    "associations": {
      "classes": [["Bloodrager"]]
    },
    "abilityType": "sp"
  },
  "effects": [],
  "folder": null,
  "sort": 0,
  "permission": {
    "default": 0
  },
  "flags": {}
}
