{
  "_id": "4qWnssE455o6JZ7M",
  "name": "Sprint (UC)",
  "type": "feat",
  "img": "systems/pf1/icons/feats/deafening-critical.jpg",
  "data": {
    "description": {
      "value": "<p>The barbarian adds 1/2 her speed to the distance she can move when she runs or charges.</p>\n<p>A barbarian must have the swift foot rage power and be at least 4th level to select this rage power.</p>"
    },
    "tags": [],
    "actions": [],
    "attackNotes": [],
    "effectNotes": [],
    "changes": [],
    "contextNotes": [],
    "links": {
      "children": [],
      "charges": []
    },
    "tag": "classFeat_sprintUc",
    "useCustomTag": true,
    "armorProf": {
      "value": []
    },
    "weaponProf": {
      "value": []
    },
    "languages": {
      "value": []
    },
    "scriptCalls": [],
    "featType": "classFeat",
    "associations": {
      "classes": [["Barbarian (Unchained)"]]
    },
    "abilityType": "ex"
  },
  "effects": [],
  "folder": null,
  "sort": 0,
  "permission": {
    "default": 0
  },
  "flags": {}
}
