{
  "_id": "9spNUuBmtIdkYEQo",
  "name": "Sting (1 pt)",
  "type": "feat",
  "img": "systems/pf1/icons/skills/blue_26.jpg",
  "data": {
    "description": {
      "value": "<p>An eidolon possesses a long, barbed stinger at the end of its tail, granting it a sting attack. This attack is a primary attack. The sting deals 1d4 points of damage (1d6 if Large, 1d8 if Huge). The eidolon must possess the tail evolution to take this evolution.</p>\n<p>This evolution can be selected more than once, but the eidolon must possess an equal number of the tail evolution.</p>"
    },
    "tags": [],
    "actions": [],
    "attackNotes": [],
    "effectNotes": [],
    "changes": [],
    "contextNotes": [],
    "links": {
      "children": [],
      "charges": []
    },
    "tag": "classFeat_sting1Pt",
    "useCustomTag": true,
    "armorProf": {
      "value": []
    },
    "weaponProf": {
      "value": []
    },
    "languages": {
      "value": []
    },
    "scriptCalls": [],
    "featType": "classFeat",
    "associations": {
      "classes": [["Eidolon"]]
    },
    "abilityType": "ex"
  },
  "effects": [],
  "folder": null,
  "sort": 0,
  "permission": {
    "default": 0
  },
  "flags": {}
}
