{
  "_id": "JnXrphJlr1ULx1MK",
  "name": "Studied Target",
  "type": "feat",
  "img": "systems/pf1/icons/feats/tiring-critical.jpg",
  "data": {
    "description": {
      "value": "<p>A slayer can study an opponent he can see as a move action. The slayer then gains a +1 bonus on Bluff, Knowledge, Perception, Sense Motive, and Survival checks attempted against that opponent, and a +1 bonus on weapon attack and damage rolls against it. The DCs of slayer class abilities against that opponent increase by 1. A slayer can only maintain these bonuses against one opponent at a time; these bonuses remain in effect until either the opponent is dead or the slayer studies a new target.<br><br>If a slayer deals sneak attack damage to a target, he can study that target as an immediate action, allowing him to apply his studied target bonuses against that target (including to the normal weapon damage roll).<br><br>At 5th, 10th, 15th, and 20th levels, the bonuses on weapon attack, damage rolls, and skill checks and to slayer DCs against a studied target increase by 1. In addition, at each such interval, the slayer is able to maintain these bonuses against an additional studied target at the same time. The slayer may discard this connection to a studied target as a free action, allowing him to study another target in its place.<br><br>At 7th level, a slayer can study an opponent as a move or swift action.</p>"
    },
    "tags": [],
    "actions": [
      {
        "_id": "e8agb2i9fbvw7yfp",
        "name": "Use",
        "img": "systems/pf1/icons/feats/tiring-critical.jpg",
        "description": "",
        "activation": {
          "cost": 1,
          "type": "move"
        },
        "unchainedAction": {
          "activation": {
            "cost": 1,
            "type": ""
          }
        },
        "duration": {
          "value": null,
          "units": ""
        },
        "target": {
          "value": ""
        },
        "range": {
          "value": null,
          "units": "",
          "maxIncrements": 1,
          "minValue": null,
          "minUnits": ""
        },
        "uses": {
          "autoDeductCharges": true,
          "autoDeductChargesCost": "1",
          "per": "",
          "value": 0,
          "maxFormula": ""
        },
        "measureTemplate": {
          "type": "",
          "size": "",
          "overrideColor": false,
          "customColor": "",
          "overrideTexture": false,
          "customTexture": ""
        },
        "attackName": "",
        "actionType": "",
        "attackBonus": "",
        "critConfirmBonus": "",
        "damage": {
          "parts": [],
          "critParts": [],
          "nonCritParts": []
        },
        "attackParts": [],
        "formulaicAttacks": {
          "count": {
            "formula": ""
          },
          "bonus": {
            "formula": ""
          },
          "label": null
        },
        "formula": "",
        "ability": {
          "attack": null,
          "damage": null,
          "damageMult": 1,
          "critRange": 20,
          "critMult": 2
        },
        "save": {
          "dc": 0,
          "type": "",
          "description": ""
        },
        "effectNotes": [],
        "attackNotes": [],
        "soundEffect": "",
        "powerAttack": {
          "multiplier": "",
          "damageBonus": 2,
          "critMultiplier": 1
        },
        "naturalAttack": {
          "secondary": {
            "attackBonus": "-5",
            "damageMult": 0.5
          }
        },
        "nonlethal": false,
        "usesAmmo": false,
        "spellEffect": "",
        "spellArea": "",
        "conditionals": [],
        "enh": {
          "override": false,
          "value": 0
        }
      }
    ],
    "uses": {
      "per": ""
    },
    "attackNotes": [],
    "effectNotes": [],
    "changes": [],
    "contextNotes": [],
    "links": {
      "children": [],
      "charges": []
    },
    "tag": "classFeat_studiedTarget",
    "useCustomTag": true,
    "armorProf": {
      "value": []
    },
    "weaponProf": {
      "value": []
    },
    "languages": {
      "value": []
    },
    "scriptCalls": [],
    "featType": "classFeat",
    "associations": {
      "classes": [["Slayer"]]
    },
    "abilityType": "ex"
  },
  "effects": [],
  "folder": null,
  "sort": 0,
  "permission": {
    "default": 0
  },
  "flags": {}
}
