{
  "_id": "wdxsjPBwtuMHUJfi",
  "name": "Sure-Footed",
  "type": "feat",
  "img": "systems/pf1/icons/feats/deceitful.jpg",
  "data": {
    "description": {
      "value": "<p>The vigilante can move at full speed while using the Stealth and Acrobatics skills without penalty.</p>\n<p>At 8th level, he can move at full speed across difficult terrain.</p>"
    },
    "tags": [],
    "actions": [],
    "attackNotes": [],
    "effectNotes": [],
    "changes": [],
    "contextNotes": [],
    "links": {
      "children": [],
      "charges": []
    },
    "tag": "classFeat_surefooted",
    "useCustomTag": true,
    "armorProf": {
      "value": []
    },
    "weaponProf": {
      "value": []
    },
    "languages": {
      "value": []
    },
    "scriptCalls": [],
    "featType": "classFeat",
    "associations": {
      "classes": [["Vigilante"]]
    },
    "abilityType": "ex"
  },
  "effects": [],
  "folder": null,
  "sort": 0,
  "permission": {
    "default": 0
  },
  "flags": {}
}
