{
  "_id": "LJhWH80RSK2maHy9",
  "name": "Terrain Mastery, Greater (UC)",
  "type": "feat",
  "img": "systems/pf1/icons/items/weapons/razor-drow.PNG",
  "data": {
    "description": {
      "value": "<p>A rogue with this talent can select a single favored terrain. Her bonuses in that terrain increase to +4.</p>\n<p>At 13th level and 18th level, they increase by an additional +2 (to a maximum of +8).</p>\n<p>A rogue must have the terrain mastery talent to select this advanced talent.</p>"
    },
    "tags": [],
    "actions": [],
    "attackNotes": [],
    "effectNotes": [],
    "changes": [],
    "contextNotes": [],
    "links": {
      "children": [],
      "charges": []
    },
    "tag": "classFeat_terrainMasteryGreaterUc",
    "useCustomTag": true,
    "armorProf": {
      "value": []
    },
    "weaponProf": {
      "value": []
    },
    "languages": {
      "value": []
    },
    "scriptCalls": [],
    "featType": "classFeat",
    "associations": {
      "classes": [["Rogue (Unchained)"]]
    },
    "abilityType": "ex"
  },
  "effects": [],
  "folder": null,
  "sort": 0,
  "permission": {
    "default": 0
  },
  "flags": {}
}
