{
  "_id": "0UGqhpeJfJOxCSju",
  "name": "Thorns Patron",
  "type": "feat",
  "img": "systems/pf1/icons/feats/improved-familiar.jpg",
  "data": {
    "description": {
      "value": "<ul>\n<li>2nd — @Compendium[pf1.spells.6vx3lvbhp6h220wq]{Thorn Javelin}</li>\n<li>4th — @Compendium[pf1.spells.5zrqn8bj3jxm05pl]{Wrath}</li>\n<li>6th — @Compendium[pf1.spells.b433azw2m5ov8pkq]{Thorny Entanglement}</li>\n<li>8th — @Compendium[pf1.spells.818uuekrao87o57u]{Thorn Body}</li>\n<li>10th — @Compendium[pf1.spells.nqfoy30smshc3c6w]{Wall Of Thorns}</li>\n<li>12th — @Compendium[pf1.spells.z1j8oc2291czpinh]{Blade Barrier}</li>\n<li>14th — @Compendium[pf1.spells.5w1zrztwbvd6xkgj]{Repulsion}</li>\n<li>16th — @Compendium[pf1.spells.96wkex2umgqrjwr4]{Mage's Sword}</li>\n<li>18th — @Compendium[pf1.spells.9fd7mcoint902oyb]{Wooden Phalanx}</li>\n</ul>"
    },
    "tags": [],
    "actions": [],
    "attackNotes": [],
    "effectNotes": [],
    "changes": [],
    "contextNotes": [],
    "links": {
      "children": [],
      "charges": []
    },
    "tag": "classFeat_thornsPatron",
    "useCustomTag": true,
    "armorProf": {
      "value": []
    },
    "weaponProf": {
      "value": []
    },
    "languages": {
      "value": []
    },
    "scriptCalls": [],
    "featType": "classFeat",
    "associations": {
      "classes": [["Witch"]]
    }
  },
  "effects": [],
  "folder": null,
  "sort": 0,
  "permission": {
    "default": 0
  },
  "flags": {}
}
