{
  "_id": "TZPWrQ8XAgyZUzdb",
  "name": "Time Mystery",
  "type": "feat",
  "img": "systems/pf1/icons/spells/light-magenta-2.jpg",
  "data": {
    "description": {
      "value": "<p><strong>Class Skills:</strong> An oracle with the time mystery adds Fly, Knowledge (arcana), Perception, and Use Magic Device to her list of class skills.<br><br><strong>Bonus Spells:&nbsp;</strong></p>\n<ul>\n<li>@Compendium[pf1.spells.5eg2f7nek9cjmv0n]{Memory Lapse} (2nd),&nbsp;</li>\n<li>@Compendium[pf1.spells.vdmsaodgnbo8wjfx]{Gentle Repose} (4th),&nbsp;</li>\n<li>@Compendium[pf1.spells.l7tmsbg37zr1q382]{Sands of Time} (6th),&nbsp;</li>\n<li>@Compendium[pf1.spells.w2yf0ksu14e91uae]{Threefold Aspect} (8th),&nbsp;</li>\n<li>@Compendium[pf1.spells.nsxngq65mbrzgwnm]{Permanency} (10th),&nbsp;</li>\n<li>@Compendium[pf1.spells.4br9puuneexco5hx]{Contingency} (12th),&nbsp;</li>\n<li>@Compendium[pf1.spells.sxyiwj0z95piv96i]{Disintegrate} (14th),&nbsp;</li>\n<li>@Compendium[pf1.spells.qptzjtg2m9cqnuwh]{Temporal Stasis} (16th),&nbsp;</li>\n<li>@Compendium[pf1.spells.7mstq5c76h3e6zzx]{Time Stop}&nbsp;(18th).</li>\n</ul>"
    },
    "tags": [],
    "actions": [],
    "attackNotes": [],
    "effectNotes": [],
    "changes": [],
    "contextNotes": [],
    "links": {
      "children": [],
      "charges": []
    },
    "tag": "classFeat_timeMystery",
    "useCustomTag": true,
    "armorProf": {
      "value": []
    },
    "weaponProf": {
      "value": []
    },
    "languages": {
      "value": []
    },
    "scriptCalls": [],
    "featType": "classFeat",
    "associations": {
      "classes": [["Oracle"]]
    }
  },
  "effects": [],
  "folder": null,
  "sort": 0,
  "permission": {
    "default": 0
  },
  "flags": {}
}
