{
  "_id": "4Tls63kS3Gq9MH7X",
  "name": "Touch Treatment",
  "type": "feat",
  "img": "systems/pf1/icons/skills/ice_16.jpg",
  "data": {
    "description": {
      "value": "<p>At 3rd level, the mesmerist can help allies shake off harmful conditions—especially those that affect their minds—by channeling psychic energy through his healing hands. He can use touch treatment a number of times per day equal to 3 + his Charisma modifier. Using the ability is a standard action (or a swift action if the mesmerist uses it on himself ), and the mesmerist must be able to touch his target. He can remove one condition from one target each time he uses this ability.</p>\n<p>At 3rd level, he can remove any condition on the minor conditions list.</p>\n<p><em>Minor Conditions:</em>&nbsp;Fascinated, shaken.</p>\n<p>At 6th level, he can remove any condition on the minor or moderate conditions list.</p>\n<p><em>Moderate Conditions:</em>&nbsp;Confused, dazed, frightened, sickened.</p>\n<p>At 10th level, he can remove any condition on the minor, moderate, or greater conditions list.<br><br><em>Greater Conditions</em>: Cowering, nauseated, panicked, stunned.<br><br>A 14th level, the mesmerist can instead expend one use of touch treatment to replicate the effects of break enchantment. This targets only one creature the mesmerist is touching and follows all other restrictions of touch treatment.</p>"
    },
    "tags": [],
    "actions": [
      {
        "_id": "hx059qx3xcvh4jno",
        "name": "Use",
        "img": "systems/pf1/icons/skills/ice_16.jpg",
        "description": "",
        "activation": {
          "cost": 1,
          "type": "standard"
        },
        "unchainedAction": {
          "activation": {
            "cost": 2,
            "type": "action"
          }
        },
        "duration": {
          "value": null,
          "units": "inst"
        },
        "target": {
          "value": "creature touched"
        },
        "range": {
          "value": null,
          "units": "touch",
          "maxIncrements": 1,
          "minValue": null,
          "minUnits": ""
        },
        "uses": {
          "autoDeductCharges": true,
          "autoDeductChargesCost": "1",
          "per": "day",
          "value": 0,
          "maxFormula": "3 + @abilities.cha.mod"
        },
        "measureTemplate": {
          "type": "",
          "size": "",
          "overrideColor": false,
          "customColor": "",
          "overrideTexture": false,
          "customTexture": ""
        },
        "attackName": "",
        "actionType": "",
        "attackBonus": "",
        "critConfirmBonus": "",
        "damage": {
          "parts": [],
          "critParts": [],
          "nonCritParts": []
        },
        "attackParts": [],
        "formulaicAttacks": {
          "count": {
            "formula": ""
          },
          "bonus": {
            "formula": ""
          },
          "label": null
        },
        "formula": "",
        "ability": {
          "attack": null,
          "damage": null,
          "damageMult": 1,
          "critRange": 20,
          "critMult": 2
        },
        "save": {
          "dc": 0,
          "type": "",
          "description": ""
        },
        "effectNotes": [],
        "attackNotes": [],
        "soundEffect": "",
        "powerAttack": {
          "multiplier": "",
          "damageBonus": 2,
          "critMultiplier": 1
        },
        "naturalAttack": {
          "secondary": {
            "attackBonus": "-5",
            "damageMult": 0.5
          }
        },
        "nonlethal": false,
        "usesAmmo": false,
        "spellEffect": "",
        "spellArea": "",
        "conditionals": [],
        "enh": {
          "override": false,
          "value": 0
        }
      }
    ],
    "uses": {
      "per": "day",
      "maxFormula": "3 + @abilities.cha.mod"
    },
    "attackNotes": [],
    "effectNotes": [],
    "changes": [],
    "contextNotes": [],
    "links": {
      "children": [],
      "charges": []
    },
    "tag": "classFeat_touchTreatment",
    "useCustomTag": true,
    "armorProf": {
      "value": []
    },
    "weaponProf": {
      "value": []
    },
    "languages": {
      "value": []
    },
    "scriptCalls": [],
    "featType": "classFeat",
    "associations": {
      "classes": [["Mesmerist"]]
    },
    "abilityType": "su"
  },
  "effects": [],
  "folder": null,
  "sort": 0,
  "permission": {
    "default": 0
  },
  "flags": {}
}
