{
  "_id": "q059IbvYqYLncBTM",
  "name": "Trade Subdomain",
  "type": "feat",
  "img": "systems/pf1/icons/skills/gray_05.jpg",
  "data": {
    "description": {
      "value": "<p><strong>Replacement Domain Spells: </strong></p>\n<ul>\n<li>1st—@Compendium[pf1.spells.gdyto5az5aveibsb]{Floating Disk}</li>\n<li>5th—@Compendium[pf1.spells.wqvy12w1xgk6l9b0]{Overland Flight}</li>\n<li>9th—@Compendium[pf1.spells.ursm11405zobemi3]{Gate}</li>\n</ul>"
    },
    "tags": [],
    "actions": [],
    "attackNotes": [],
    "effectNotes": [],
    "changes": [],
    "contextNotes": [],
    "links": {
      "children": [],
      "charges": []
    },
    "tag": "classFeat_tradeSubdomain",
    "useCustomTag": true,
    "armorProf": {
      "value": []
    },
    "weaponProf": {
      "value": []
    },
    "languages": {
      "value": []
    },
    "scriptCalls": [],
    "featType": "classFeat",
    "associations": {
      "classes": [["Cleric"]]
    }
  },
  "effects": [],
  "folder": null,
  "sort": 0,
  "permission": {
    "default": 0
  },
  "flags": {}
}
