{
  "_id": "5E7DvA8sKnz3cy49",
  "name": "Trail of Flames",
  "type": "feat",
  "img": "systems/pf1/icons/spells/fireball-red-3.jpg",
  "data": {
    "description": {
      "value": "<p><strong>Element&nbsp;</strong>fire;&nbsp;<strong>Type&nbsp;</strong>utility (Sp);&nbsp;<strong>Level&nbsp;</strong>5; <strong>Burn&nbsp;</strong>0<br><strong>Saving Throw&nbsp;</strong>none;&nbsp;<strong>SR&nbsp;</strong>yes</p>\n<p>When you take the withdraw or run action, you can leave a&nbsp;wall of fire&nbsp;in all squares you exit that lasts for 1 round.</p>"
    },
    "tags": [],
    "actions": [],
    "attackNotes": [],
    "effectNotes": [],
    "changes": [],
    "contextNotes": [],
    "links": {
      "children": [],
      "charges": []
    },
    "tag": "classFeat_trailOfFlames",
    "useCustomTag": true,
    "armorProf": {
      "value": []
    },
    "weaponProf": {
      "value": []
    },
    "languages": {
      "value": []
    },
    "scriptCalls": [],
    "featType": "classFeat",
    "associations": {
      "classes": [["Kineticist"]]
    },
    "abilityType": "sp"
  },
  "effects": [],
  "folder": null,
  "sort": 0,
  "permission": {
    "default": 0
  },
  "flags": {}
}
