{
  "_id": "T1zx6IZMFgUOTKuC",
  "name": "Trickery Domain",
  "type": "feat",
  "img": "systems/pf1/icons/skills/light_07.jpg",
  "data": {
    "description": {
      "value": "<p><strong>Granted Powers:</strong> You are a master of illusions and deceptions. Bluff, Disguise, and Stealth are class skills.</p>\n<p><strong>Domain Spells:</strong></p>\n<ul>\n<li>1st—@Compendium[pf1.spells.oj36nfak6jc2s5ky]{Disguise Self}</li>\n<li>2nd—@Compendium[pf1.spells.oylikodnyku2zewu]{Invisibility}</li>\n<li>3rd—@Compendium[pf1.spells.awia42zci8nufpfl]{Nondetection}</li>\n<li>4th—@Compendium[pf1.spells.n0bsyxchnigkkuqo]{Confusion}</li>\n<li>5th—@Compendium[pf1.spells.gk8fqfvj99d46p2h]{False Vision}</li>\n<li>6th—@Compendium[pf1.spells.446vcsetq4ny904e]{Mislead}</li>\n<li>7th—@Compendium[pf1.spells.dsondqy4ngf1yzf3]{Screen}</li>\n<li>8th—@Compendium[pf1.spells.j2y1uga5fwg8deqq]{Invisibility, Mass}</li>\n<li>9th—@Compendium[pf1.spells.7mstq5c76h3e6zzx]{Time Stop}</li>\n</ul>"
    },
    "tags": [],
    "actions": [],
    "attackNotes": [],
    "effectNotes": [],
    "changes": [],
    "contextNotes": [],
    "links": {
      "children": [],
      "charges": []
    },
    "tag": "classFeat_trickeryDomain",
    "useCustomTag": true,
    "armorProf": {
      "value": []
    },
    "weaponProf": {
      "value": []
    },
    "languages": {
      "value": []
    },
    "scriptCalls": [],
    "featType": "classFeat",
    "associations": {
      "classes": [["Cleric"]]
    }
  },
  "effects": [],
  "folder": null,
  "sort": 0,
  "permission": {
    "default": 0
  },
  "flags": {}
}
