{
  "_id": "UkLnp0YUdhzTK50w",
  "name": "Tyrant Totem, Lesser",
  "type": "feat",
  "img": "systems/pf1/icons/feats/deafening-critical.jpg",
  "data": {
    "description": {
      "value": "<p>While raging, the barbarian’s bite attack deals damage as if the barbarian were one size larger than her actual size. The barbarian must have the animal fury rage power or a natural bite attack to choose this rage power.</p>"
    },
    "tags": [],
    "actions": [],
    "attackNotes": [],
    "effectNotes": [],
    "changes": [],
    "contextNotes": [],
    "links": {
      "children": [],
      "charges": []
    },
    "tag": "classFeat_tyrantTotemLesser",
    "useCustomTag": true,
    "armorProf": {
      "value": []
    },
    "weaponProf": {
      "value": []
    },
    "languages": {
      "value": []
    },
    "scriptCalls": [],
    "featType": "classFeat",
    "associations": {
      "classes": [["Barbarian"], ["Skald"]]
    },
    "abilityType": "su"
  },
  "effects": [],
  "folder": null,
  "sort": 0,
  "permission": {
    "default": 0
  },
  "flags": {}
}
