{
  "_id": "fURkYdl8P0gIblj8",
  "name": "Ultimate Clarity",
  "type": "feat",
  "img": "systems/pf1/icons/feats/deafening-critical.jpg",
  "data": {
    "description": {
      "value": "<p>Once per rage, the character can ref ine her senses, seeing through normal and magical darkness (including from magical effects such as blur and displacement), invisibility, and illusions; she can also discern the exact locations of creatures with concealment. This lasts for 1 round.</p>\n<p>A character must be at least 6th level and have the moment of clarity and perfect clarity rage powers to select this rage power.</p>\n<p>The character does not need to be using moment of clarity to use this rage power.</p>"
    },
    "tags": [],
    "actions": [],
    "attackNotes": [],
    "effectNotes": [],
    "changes": [],
    "contextNotes": [],
    "links": {
      "children": [],
      "charges": []
    },
    "tag": "classFeat_ultimateClarity",
    "useCustomTag": true,
    "armorProf": {
      "value": []
    },
    "weaponProf": {
      "value": []
    },
    "languages": {
      "value": []
    },
    "scriptCalls": [],
    "featType": "classFeat",
    "associations": {
      "classes": [["Barbarian"], ["Skald"]]
    },
    "abilityType": "su"
  },
  "effects": [],
  "folder": null,
  "sort": 0,
  "permission": {
    "default": 0
  },
  "flags": {}
}
