{
  "_id": "QqCwHV8d0wdqMj5a",
  "name": "Untwisting Infusion",
  "type": "feat",
  "img": "systems/pf1/icons/spells/rock-sky-3.jpg",
  "data": {
    "description": {
      "value": "<p><strong>Element&nbsp;</strong>earth;&nbsp;<strong>Type&nbsp;</strong>substance infusion;&nbsp;<strong>Level&nbsp;</strong>5;&nbsp;<strong>Burn&nbsp;</strong>3<br><strong>Prerequisite&nbsp;</strong>kinetic fist, member of the Monastery of Untwisting Iron<br><strong>Associated Blasts&nbsp;</strong>earth, metal<br><strong>Saving Throw&nbsp;</strong>none</p>\n<p>Each time you hit a foe with an unarmed strike with your infused blast, increase your DR/adamantine from flesh of stone by 1 until the start of your next turn.</p>\n<p>You can use this infusion only while also using the kinetic fist form infusion.</p>"
    },
    "tags": [],
    "actions": [],
    "attackNotes": [],
    "effectNotes": [],
    "changes": [],
    "contextNotes": [],
    "links": {
      "children": [],
      "charges": []
    },
    "tag": "classFeat_untwistingInfusion",
    "useCustomTag": true,
    "armorProf": {
      "value": []
    },
    "weaponProf": {
      "value": []
    },
    "languages": {
      "value": []
    },
    "scriptCalls": [],
    "featType": "classFeat",
    "associations": {
      "classes": [["Kineticist"]]
    }
  },
  "effects": [],
  "folder": null,
  "sort": 0,
  "permission": {
    "default": 0
  },
  "flags": {}
}
