{
  "_id": "DrBBxD60RS1ldNvf",
  "name": "Venomous Saliva",
  "type": "feat",
  "img": "systems/pf1/icons/skills/violet_23.jpg",
  "data": {
    "description": {
      "value": "<p>Just as certain serpents can spray poison from their fangs, as a swift action, you can spit a gout of life-stealing venom onto a weapon you are wielding. The poison lasts for 1 minute or until you make an attack with that weapon that injures a foe.&nbsp;Life-Stealing Venom: Injury;&nbsp;save&nbsp;Fort DC 10 + half your class level + your Wisdom modifier;&nbsp;frequency&nbsp;1/round for 3 rounds;&nbsp;effect&nbsp;1 Con damage;&nbsp;cure&nbsp;1 save. You can use the venomous saliva ability a number of times per day equal to 3 + your Wisdom modifier.</p>\n<p>This power replaces the Venomous Stare power of the Scalykind Domain.</p>"
    },
    "tags": [],
    "actions": [
      {
        "_id": "16ntadf1t99lhite",
        "name": "Use",
        "img": "systems/pf1/icons/skills/violet_23.jpg",
        "description": "",
        "activation": {
          "cost": 1,
          "type": "swift"
        },
        "unchainedAction": {
          "activation": {
            "cost": 1,
            "type": "action"
          }
        },
        "duration": {
          "value": "1",
          "units": "minute"
        },
        "target": {
          "value": "weapon held"
        },
        "range": {
          "value": null,
          "units": "touch",
          "maxIncrements": 1,
          "minValue": null,
          "minUnits": ""
        },
        "uses": {
          "autoDeductCharges": true,
          "autoDeductChargesCost": "1",
          "per": "day",
          "value": 0,
          "maxFormula": "3 + @abilities.wis.mod"
        },
        "measureTemplate": {
          "type": "",
          "size": "0",
          "overrideColor": false,
          "customColor": "",
          "overrideTexture": false,
          "customTexture": ""
        },
        "attackName": "",
        "actionType": "",
        "attackBonus": "",
        "critConfirmBonus": "",
        "damage": {
          "parts": [],
          "critParts": [],
          "nonCritParts": []
        },
        "attackParts": [],
        "formulaicAttacks": {
          "count": {
            "formula": ""
          },
          "bonus": {
            "formula": ""
          },
          "label": null
        },
        "formula": "",
        "ability": {
          "attack": null,
          "damage": null,
          "damageMult": 1,
          "critRange": 20,
          "critMult": 2
        },
        "save": {
          "dc": 0,
          "type": "",
          "description": ""
        },
        "effectNotes": [],
        "attackNotes": [],
        "soundEffect": "",
        "powerAttack": {
          "multiplier": "",
          "damageBonus": 2,
          "critMultiplier": 1
        },
        "naturalAttack": {
          "secondary": {
            "attackBonus": "-5",
            "damageMult": 0.5
          }
        },
        "nonlethal": false,
        "usesAmmo": false,
        "spellEffect": "",
        "spellArea": "",
        "conditionals": [],
        "enh": {
          "override": false,
          "value": 0
        }
      }
    ],
    "uses": {
      "per": "day",
      "maxFormula": "3 + @abilities.wis.mod"
    },
    "attackNotes": [],
    "effectNotes": [],
    "changes": [],
    "contextNotes": [],
    "links": {
      "children": [],
      "charges": []
    },
    "tag": "classFeat_venomousSaliva",
    "useCustomTag": true,
    "armorProf": {
      "value": []
    },
    "weaponProf": {
      "value": []
    },
    "languages": {
      "value": []
    },
    "scriptCalls": [],
    "featType": "classFeat",
    "associations": {
      "classes": [["Cleric"]]
    },
    "abilityType": "su"
  },
  "effects": [],
  "folder": null,
  "sort": 0,
  "permission": {
    "default": 0
  },
  "flags": {}
}
