{
  "_id": "nCay5vdoWUADCeoJ",
  "name": "Wall Climber",
  "type": "feat",
  "img": "systems/pf1/icons/items/weapons/kunai.png",
  "data": {
    "description": {
      "value": "<p>A ninja with this ability gains a climb speed of 20 feet, but only on vertical surfaces. This ability cannot be used to scale perfectly smooth surfaces or to climb on the underside of horizontal surfaces.</p>"
    },
    "tags": [],
    "actions": [],
    "attackNotes": [],
    "effectNotes": [],
    "changes": [
      {
        "_id": "t6iwoorx",
        "formula": "20",
        "operator": "+",
        "subTarget": "climbSpeed",
        "modifier": "base",
        "priority": 0,
        "value": 0,
        "target": "speed"
      }
    ],
    "contextNotes": [],
    "links": {
      "children": [],
      "charges": []
    },
    "tag": "classFeat_wallClimber",
    "useCustomTag": true,
    "armorProf": {
      "value": []
    },
    "weaponProf": {
      "value": []
    },
    "languages": {
      "value": []
    },
    "scriptCalls": [],
    "featType": "classFeat",
    "associations": {
      "classes": [["Ninja"]]
    },
    "abilityType": "su"
  },
  "effects": [],
  "folder": null,
  "sort": 0,
  "permission": {
    "default": 0
  },
  "flags": {}
}
