{
  "_id": "hTIPuaDnlQK9gCxv",
  "name": "Watchful Eye",
  "type": "feat",
  "img": "systems/pf1/icons/items/inventory/book-purple.jpg",
  "data": {
    "description": {
      "value": "<p>You can expend 1 point of mental focus as a standard action to create an invisible sensor within 30 feet that watches a 5-foot-square area. Whenever any creature enters that square, you receive a mental image of the creature as long as you are on the same plane as the sensor.</p>\n<p>The sensor remains active for 10 minutes per occultist level you possess. The image will not wake you from slumber, although you do receive all of the images the sensor collected once you wake up. The sensor can be deceived by&nbsp;invisibility&nbsp;and similar magic.</p>\n<p>You can expend additional points of mental focus when creating the eye to increase the size of the square by 5 feet per additional point spent (to 10 feet square, 15 feet square, and so on).</p>"
    },
    "tags": [],
    "actions": [
      {
        "_id": "dvgb9iwwcecbjcph",
        "name": "Use",
        "img": "systems/pf1/icons/items/inventory/book-purple.jpg",
        "description": "",
        "activation": {
          "cost": 1,
          "type": "standard"
        },
        "unchainedAction": {
          "activation": {
            "cost": 2,
            "type": "action"
          }
        },
        "duration": {
          "value": "10*@classes.occultist.level",
          "units": "minute"
        },
        "target": {
          "value": ""
        },
        "range": {
          "value": null,
          "units": "",
          "maxIncrements": 1,
          "minValue": null,
          "minUnits": ""
        },
        "uses": {
          "autoDeductCharges": true,
          "autoDeductChargesCost": "1",
          "per": "",
          "value": 0,
          "maxFormula": ""
        },
        "measureTemplate": {
          "type": "",
          "size": "",
          "overrideColor": false,
          "customColor": "",
          "overrideTexture": false,
          "customTexture": ""
        },
        "attackName": "",
        "actionType": "",
        "attackBonus": "",
        "critConfirmBonus": "",
        "damage": {
          "parts": [],
          "critParts": [],
          "nonCritParts": []
        },
        "attackParts": [],
        "formulaicAttacks": {
          "count": {
            "formula": ""
          },
          "bonus": {
            "formula": ""
          },
          "label": null
        },
        "formula": "",
        "ability": {
          "attack": null,
          "damage": null,
          "damageMult": 1,
          "critRange": 20,
          "critMult": 2
        },
        "save": {
          "dc": 0,
          "type": "",
          "description": ""
        },
        "effectNotes": [],
        "attackNotes": [],
        "soundEffect": "",
        "powerAttack": {
          "multiplier": "",
          "damageBonus": 2,
          "critMultiplier": 1
        },
        "naturalAttack": {
          "secondary": {
            "attackBonus": "-5",
            "damageMult": 0.5
          }
        },
        "nonlethal": false,
        "usesAmmo": false,
        "spellEffect": "",
        "spellArea": "",
        "conditionals": [],
        "enh": {
          "override": false,
          "value": 0
        }
      }
    ],
    "uses": {
      "per": ""
    },
    "attackNotes": [],
    "effectNotes": [],
    "changes": [],
    "contextNotes": [],
    "links": {
      "children": [],
      "charges": []
    },
    "tag": "classFeat_watchfulEye",
    "useCustomTag": true,
    "armorProf": {
      "value": []
    },
    "weaponProf": {
      "value": []
    },
    "languages": {
      "value": []
    },
    "scriptCalls": [],
    "featType": "classFeat",
    "associations": {
      "classes": [["Occultist"]]
    },
    "abilityType": "sp"
  },
  "effects": [],
  "folder": null,
  "sort": 0,
  "permission": {
    "default": 0
  },
  "flags": {}
}
