{
  "_id": "ed1QXxkkjJdxKosP",
  "name": "Waterdancer, Greater",
  "type": "feat",
  "img": "systems/pf1/icons/spells/ice-blue-2.jpg",
  "data": {
    "description": {
      "value": "<p><strong>Element&nbsp;</strong>water;&nbsp;<strong>Type&nbsp;</strong>utility (Su);&nbsp;<strong>Level&nbsp;</strong>5;&nbsp;<strong>Burn&nbsp;</strong>0<br><strong>Prerequisite&nbsp;</strong>waterdancer</p>\n<p>You can move across water (as @Compendium[pf1.spells.g2obld7y0lpyztes]{Water Walk}) at will and breathe underwater, and your slashing and bludgeoning attacks don’t take the usual penalties when you’re underwater.</p>"
    },
    "tags": [],
    "actions": [],
    "attackNotes": [],
    "effectNotes": [],
    "changes": [],
    "contextNotes": [],
    "links": {
      "children": [],
      "charges": []
    },
    "tag": "classFeat_waterdancerGreater",
    "useCustomTag": true,
    "armorProf": {
      "value": []
    },
    "weaponProf": {
      "value": []
    },
    "languages": {
      "value": []
    },
    "scriptCalls": [],
    "featType": "classFeat",
    "associations": {
      "classes": [["Kineticist"]]
    },
    "abilityType": "su"
  },
  "effects": [],
  "folder": null,
  "sort": 0,
  "permission": {
    "default": 0
  },
  "flags": {}
}
