{
  "_id": "LxCDplyzDGqEXm0V",
  "name": "Wood Final Revelation",
  "type": "feat",
  "img": "systems/pf1/icons/spells/light-royal-1.jpg",
  "data": {
    "description": {
      "value": "<p>Upon reaching 20th level, you become a living creature of wood. You are forevermore treated as the plant type rather than your original type for the purpose of spells and magical effects. Your skin takes on the appearance of polished wood grain, and you gain a +4 natural armor bonus to your Armor Class and damage reduction 10/— against wooden weapons or any natural attacks made by a wooden or woodlike creature. You gain immunity to paralysis, poison, polymorph, sleep, and stunning. At will, you can meld with any tree or single block of wood (as&nbsp;meld into stone, except wood only, and with no limit to how long you can remain in the wood).</p>"
    },
    "tags": [],
    "actions": [],
    "attackNotes": [],
    "effectNotes": [],
    "changes": [
      {
        "_id": "v8mhdg8m",
        "formula": "4",
        "operator": "+",
        "subTarget": "nac",
        "modifier": "untyped",
        "priority": 0,
        "value": 0,
        "target": "ac"
      }
    ],
    "contextNotes": [],
    "links": {
      "children": [],
      "charges": []
    },
    "tag": "classFeat_woodFinalRevelation",
    "useCustomTag": true,
    "armorProf": {
      "value": []
    },
    "weaponProf": {
      "value": []
    },
    "languages": {
      "value": []
    },
    "scriptCalls": [],
    "featType": "classFeat",
    "associations": {
      "classes": [["Oracle"]]
    }
  },
  "effects": [],
  "folder": null,
  "sort": 0,
  "permission": {
    "default": 0
  },
  "flags": {}
}
