{
  "_id": "QYVZS8MfOKzjpCm1",
  "name": "Bless",
  "type": "buff",
  "img": "systems/pf1/icons/skills/light_04.jpg",
  "data": {
    "description": {
      "value": "<p>You have a +1 morale bonus to attack rolls and saves against fear effects.</p>"
    },
    "tags": [],
    "changes": [
      {
        "_id": "e9subqu1",
        "formula": "1",
        "operator": "+",
        "subTarget": "attack",
        "modifier": "morale",
        "priority": 0,
        "value": 0,
        "target": "attack"
      }
    ],
    "contextNotes": [
      {
        "formula": "",
        "operator": "+",
        "target": "savingThrows",
        "subTarget": "allSavingThrows",
        "modifier": "",
        "priority": 0,
        "value": 0,
        "text": "+[[1]] Morale vs Fear effects"
      }
    ],
    "duration": {
      "units": "minute",
      "value": "@item.level"
    },
    "links": {
      "children": []
    },
    "flags": {
      "boolean": [],
      "dictionary": []
    },
    "scriptCalls": [],
    "level": "1"
  },
  "effects": [],
  "folder": null,
  "sort": 100001,
  "permission": {
    "default": 0
  },
  "flags": {}
}
