{
  "_id": "93aTFy7v8VUq8sNi",
  "name": "Bleed",
  "permission": {
    "default": 0
  },
  "folder": "",
  "flags": {},
  "content": "<p>A creature that is taking bleed damage takes the listed amount of damage at the beginning of its turn. Bleeding can be stopped by a DC 15&nbsp;<a href=\"https://www.d20pfsrd.com/skills/heal\">Heal</a>&nbsp;check or through the application of any spell that cures hit point damage (even if the bleed is ability damage). Some bleed effects cause ability damage or even ability drain. Bleed effects do not stack with each other unless they deal different kinds of damage. When two or more bleed effects deal the same kind of damage, take the worse effect. In this case, ability drain is worse than ability damage.</p>\n<h2>FAQ</h2>\n<p><strong>Q</strong>: Do you re-roll bleed damage each round, or continue bleeding the same amount each round based on the initial bleed damage roll?<br /><strong>A</strong>: If the bleed damage is expressed as a die roll you reroll the damage each round.</p>",
  "img": ""
}
