{
  "_id": "cPwNCkLiLxlTAQS7",
  "name": "Energy Drained",
  "permission": {
    "default": 0
  },
  "folder": "",
  "flags": {},
  "content": "<p>The character gains one or more negative levels, which might become permanent. If the subject has at least as many negative levels as Hit Dice, he dies.</p>\n<p>See&nbsp;<a href=\"https://www.d20pfsrd.com/gamemastering/special-abilities#TOC-Energy-Drain-and-Negative-Levels\">Energy Drain and Negative Levels</a>&nbsp;and the <strong>FAQ</strong>.</p>\n<h2>FAQ</h2>\n<p><strong>Q</strong>: Does energy drain count as a death effect?<br /><strong>A</strong>: &nbsp;Energy drain is not a death effect.</p>\n<p>The undead type calls out immunities to \"death effects\" and \"energy drain\" as separate things.</p>\n<p>The Death Attacks description in the Core Rulebook doesn't mention negative levels or energy drain.</p>\n<p>\"Energy Drain and Negative Levels\" is an entirely separate entry in the Core Rulebook and doesn't say energy drain is a type of death attack, not does it say that death ward protects against them.</p>\n<p>The death ward spell gives a bonus against death spells and magical death effects, and goes on to say that the target is immune to energy drain, and suspends penalties from negative levels while the spell is active.</p>\n<p>Therefore the rules treat energy drain and death effects as different things. For example, if you are immune to death effects, you aren't necessarily immune to energy drain.</p>"
}
