{
  "_id": "1fkE2juoZHXjU90M",
  "name": "Nauseated",
  "permission": {
    "default": 0
  },
  "folder": "",
  "flags": {},
  "content": "<p>Creatures with the nauseated condition experience stomach distress. Nauseated creatures are unable to attack, cast spells, concentrate on spells, or do anything else requiring attention. The only action such a character can take is a single move action per turn.</p>"
}
