{
  "_id": "xhQma4Gl4wLO0jnZ",
  "name": "Panicked",
  "permission": {
    "default": 0
  },
  "folder": "",
  "flags": {},
  "content": "<p>A panicked creature must drop anything it holds and flee at top speed from the source of its fear, as well as any other dangers it encounters, along a random path. It can&rsquo;t take any other actions. In addition, the creature takes a &ndash;2 penalty on all&nbsp;<a href=\"https://www.d20pfsrd.com/gamemastering/combat#TOC-Saving-Throws\">saving throws</a>, skill checks, and ability checks. If cornered, a panicked creature cowers and does not attack, typically using the&nbsp;<a href=\"https://www.d20pfsrd.com/gamemastering/combat#TOC-Total-Defense\">total defense</a>&nbsp;action in combat. A panicked creature can use special abilities, including spells, to flee; indeed, the creature must use such means if they are the only way to escape.</p>\n<p>Panicked is a more extreme state of fear than @Compendium[pf1.conditions.07JPXUqIPshVnTCL]{Shaken}&nbsp;or @Compendium[pf1.conditions.QdwliEzfA3ZK9YtS]{Frightened}.</p>"
}
