{
  "_id": "8zG4yDD2zGVSAJFH",
  "name": "Paralyzed",
  "permission": {
    "default": 0
  },
  "folder": "",
  "flags": {},
  "content": "<p>A paralyzed character is frozen in place and unable to move or act. A paralyzed character has effective&nbsp;<a href=\"https://www.d20pfsrd.com/basics-ability-scores/ability-scores#TOC-Dexterity-Dex-\">Dexterity</a>&nbsp;and&nbsp;<a href=\"https://www.d20pfsrd.com/basics-ability-scores/ability-scores#TOC-Strength-Str-\">Strength</a> scores of 0 and is @Compendium[pf1.conditions.g84rPrlfDnkUopAa]{Helpless}, but can take purely mental actions. A winged creature flying in the air at the time that it becomes paralyzed cannot flap its wings and falls. A paralyzed swimmer can&rsquo;t swim and may drown. A creature can move through a space occupied by a paralyzed creature&mdash;ally or not. Each square occupied by a paralyzed creature, however, counts as 2 squares to move through.</p>"
}
