{
  "_id": "8p6eshc9ef48anim",
  "name": "Besmara's Grasping Depths",
  "type": "spell",
  "img": "systems/pf1/icons/misc/magic-swirl.png",
  "data": {
    "tags": [],
    "actions": [
      {
        "_id": "qk3fliy365r9n83q",
        "name": "Use",
        "img": "systems/pf1/icons/misc/magic-swirl.png",
        "description": "",
        "activation": {
          "cost": 1,
          "type": "standard"
        },
        "unchainedAction": {
          "activation": {
            "cost": 2,
            "type": "action"
          }
        },
        "duration": {
          "value": "see text",
          "units": ""
        },
        "target": {
          "value": ""
        },
        "range": {
          "value": null,
          "units": "close",
          "maxIncrements": 1,
          "minValue": null,
          "minUnits": ""
        },
        "uses": {
          "autoDeductCharges": true,
          "autoDeductChargesCost": "1",
          "per": "",
          "value": 0,
          "maxFormula": ""
        },
        "measureTemplate": {
          "type": "",
          "size": "0",
          "overrideColor": false,
          "customColor": "",
          "overrideTexture": false,
          "customTexture": ""
        },
        "attackName": "",
        "actionType": "spellsave",
        "attackBonus": "",
        "critConfirmBonus": "",
        "damage": {
          "parts": [],
          "critParts": [],
          "nonCritParts": []
        },
        "attackParts": [],
        "formulaicAttacks": {
          "count": {
            "formula": ""
          },
          "bonus": {
            "formula": ""
          },
          "label": null
        },
        "formula": "",
        "ability": {
          "attack": "",
          "damage": "",
          "damageMult": 1,
          "critRange": 20,
          "critMult": 2
        },
        "save": {
          "dc": "0",
          "type": "will",
          "description": "Will partial; see text"
        },
        "effectNotes": [],
        "attackNotes": [],
        "soundEffect": "",
        "powerAttack": {
          "multiplier": "",
          "damageBonus": 2,
          "critMultiplier": 1
        },
        "naturalAttack": {
          "secondary": {
            "attackBonus": "-5",
            "damageMult": 0.5
          }
        },
        "nonlethal": false,
        "usesAmmo": false,
        "spellEffect": "",
        "spellArea": "one 5-ft. cube/level (S)",
        "conditionals": [],
        "enh": {
          "override": false,
          "value": 0
        }
      }
    ],
    "uses": {
      "per": ""
    },
    "attackNotes": [],
    "effectNotes": [],
    "links": {
      "children": []
    },
    "flags": {
      "boolean": [],
      "dictionary": []
    },
    "scriptCalls": [],
    "learnedAt": {
      "class": [
        ["cleric/oracle", 5],
        ["witch", 6],
        ["inquisitor", 6],
        ["shaman", 6],
        ["spiritualist", 5]
      ],
      "domain": [],
      "subDomain": [],
      "elementalSchool": [],
      "bloodline": []
    },
    "level": 5,
    "school": "nec",
    "subschool": "haunted",
    "types": "emotion, fear, mind-affecting",
    "components": {
      "verbal": true,
      "somatic": true,
      "material": true,
      "divineFocus": 2
    },
    "materials": {
      "value": "a vial of sea water"
    },
    "shortDescription": "<p>You call upon the restless souls of those who died at sea. This spell can be cast only on an area of deep water. When a creature enters the area, the haunt manifests, automatically grabbing the creature and dragging it under the water on initiative count 10. Each round, the haunt deals 1d6 points of nonlethal damage as it drags its victim down 10 feet; a successful DC 15 Swim check reduces the descent to 5 feet and negates the nonlethal damage. Each round in the haunt's clutches reduces the duration the victim can hold her breath by 2 rounds (<i>Pathfinder RPG Core Rulebook</i> 445). A victim can make a single move or standard action each round while in the haunt's grasp if she succeeds at a Will save; on a failed save, she can only struggle helplessly against the haunt. A victim cannot use her actions to swim toward the surface while the haunt is active. If the haunt reaches the bottom of its body of water, it pounds its victim against the bottom, dealing 2d6 points of nonlethal damage per round to the victim and reducing the  duration the victim can hold her breath by an additional round. This continues until either the haunt is neutralized (in which case the victim must still swim to the surface) or the victim drowns.  The haunt can grab and attempt to drown multiple creatures in its area on its initiative count. The magic holding the haunt together is unstable and deteriorates while the haunt is active. Each round at the end of its turn, the haunt automatically loses 1d6 hit points per creature it is currently affecting. Furthermore, the spell's haunt-like manifestation is active throughout the spell's duration, rendering it vulnerable to effects that damage haunts. When the haunt reaches 0 hit points, the spell ends.</p>"
  },
  "effects": [],
  "folder": null,
  "sort": 0,
  "permission": {
    "default": 0
  },
  "flags": {}
}
