{
  "_id": "eufgeqnwa6mcn7vc",
  "name": "Burn Corruption",
  "type": "spell",
  "img": "systems/pf1/icons/misc/magic-swirl.png",
  "data": {
    "tags": [],
    "actions": [
      {
        "_id": "jskxgssmldlhkz6y",
        "name": "Use",
        "img": "systems/pf1/icons/misc/magic-swirl.png",
        "description": "",
        "activation": {
          "cost": 1,
          "type": "standard"
        },
        "unchainedAction": {
          "activation": {
            "cost": 2,
            "type": "action"
          }
        },
        "duration": {
          "value": "instantaneous",
          "units": ""
        },
        "target": {
          "value": ""
        },
        "range": {
          "value": null,
          "units": "long",
          "maxIncrements": 1,
          "minValue": null,
          "minUnits": ""
        },
        "uses": {
          "autoDeductCharges": true,
          "autoDeductChargesCost": "1",
          "per": "",
          "value": 0,
          "maxFormula": ""
        },
        "measureTemplate": {
          "type": "",
          "size": "0",
          "overrideColor": false,
          "customColor": "",
          "overrideTexture": false,
          "customTexture": ""
        },
        "attackName": "",
        "actionType": "spellsave",
        "attackBonus": "",
        "critConfirmBonus": "",
        "damage": {
          "parts": [],
          "critParts": [],
          "nonCritParts": []
        },
        "attackParts": [],
        "formulaicAttacks": {
          "count": {
            "formula": ""
          },
          "bonus": {
            "formula": ""
          },
          "label": null
        },
        "formula": "",
        "ability": {
          "attack": "",
          "damage": "",
          "damageMult": 1,
          "critRange": 20,
          "critMult": 2
        },
        "save": {
          "dc": "0",
          "type": "ref",
          "description": "Reflex half"
        },
        "effectNotes": [],
        "attackNotes": [],
        "soundEffect": "",
        "powerAttack": {
          "multiplier": "",
          "damageBonus": 2,
          "critMultiplier": 1
        },
        "naturalAttack": {
          "secondary": {
            "attackBonus": "-5",
            "damageMult": 0.5
          }
        },
        "nonlethal": false,
        "usesAmmo": false,
        "spellEffect": "",
        "spellArea": "10-ft. cube/level (S)",
        "conditionals": [],
        "enh": {
          "override": false,
          "value": 0
        }
      }
    ],
    "uses": {
      "per": ""
    },
    "attackNotes": [],
    "effectNotes": [],
    "links": {
      "children": []
    },
    "flags": {
      "boolean": [],
      "dictionary": []
    },
    "scriptCalls": [],
    "learnedAt": {
      "class": [
        ["sorcerer/wizard", 5],
        ["magus", 5],
        ["bloodrager", 4]
      ],
      "domain": [],
      "subDomain": [],
      "elementalSchool": [],
      "bloodline": []
    },
    "level": 5,
    "school": "evo",
    "types": "fire, good",
    "components": {
      "verbal": true,
      "somatic": true
    },
    "shortDescription": "<p>This spell fills the area with violet flames that scour an area clean of life-especially of the corrupted life of the Abyss.  Creatures (and foliage) in the area take 1d8 points of fire damage per 2 caster levels you possess (maximum 7d8) unless they are outsiders with the chaotic and evil subtypes or are otherwise tainted by demons, in which case they instead take 1d6 points of fire damage per caster level (maximum 15d6). This fire damage ignores the fire resistance granted by the demon subtype, but it does not penetrate any other form of fire resistance or immunity.</p>"
  },
  "effects": [],
  "folder": null,
  "sort": 0,
  "permission": {
    "default": 0
  },
  "flags": {}
}
