{
  "_id": "jfxzpsys3jthd3x8",
  "name": "Corpse Hammer",
  "type": "spell",
  "img": "systems/pf1/icons/misc/magic-swirl.png",
  "data": {
    "tags": [],
    "actions": [
      {
        "_id": "7vq82qihgwvmd8xf",
        "name": "Use",
        "img": "systems/pf1/icons/misc/magic-swirl.png",
        "description": "",
        "activation": {
          "cost": 1,
          "type": "standard"
        },
        "unchainedAction": {
          "activation": {
            "cost": 2,
            "type": "action"
          }
        },
        "duration": {
          "value": "1 round/level",
          "units": ""
        },
        "target": {
          "value": ""
        },
        "range": {
          "value": null,
          "units": "close",
          "maxIncrements": 1,
          "minValue": null,
          "minUnits": ""
        },
        "uses": {
          "autoDeductCharges": true,
          "autoDeductChargesCost": "1",
          "per": "",
          "value": 0,
          "maxFormula": ""
        },
        "measureTemplate": {
          "type": "",
          "size": "0",
          "overrideColor": false,
          "customColor": "",
          "overrideTexture": false,
          "customTexture": ""
        },
        "attackName": "",
        "actionType": "other",
        "attackBonus": "",
        "critConfirmBonus": "",
        "damage": {
          "parts": [],
          "critParts": [],
          "nonCritParts": []
        },
        "attackParts": [],
        "formulaicAttacks": {
          "count": {
            "formula": ""
          },
          "bonus": {
            "formula": ""
          },
          "label": null
        },
        "formula": "",
        "ability": {
          "attack": "",
          "damage": "",
          "damageMult": 1,
          "critRange": 20,
          "critMult": 2
        },
        "save": {
          "dc": "0",
          "type": "",
          "description": ""
        },
        "effectNotes": [],
        "attackNotes": [],
        "soundEffect": "",
        "powerAttack": {
          "multiplier": "",
          "damageBonus": 2,
          "critMultiplier": 1
        },
        "naturalAttack": {
          "secondary": {
            "attackBonus": "-5",
            "damageMult": 0.5
          }
        },
        "nonlethal": false,
        "usesAmmo": false,
        "spellEffect": "sphere of undead remains composed of 3 or more destroyed undead",
        "spellArea": "",
        "conditionals": [],
        "enh": {
          "override": false,
          "value": 0
        }
      }
    ],
    "uses": {
      "per": ""
    },
    "attackNotes": [],
    "effectNotes": [],
    "links": {
      "children": []
    },
    "flags": {
      "boolean": [],
      "dictionary": []
    },
    "scriptCalls": [],
    "learnedAt": {
      "class": [
        ["sorcerer/wizard", 4],
        ["witch", 4]
      ],
      "domain": [],
      "subDomain": [],
      "elementalSchool": [],
      "bloodline": []
    },
    "level": 4,
    "school": "nec",
    "components": {
      "verbal": true,
      "somatic": true,
      "material": true
    },
    "materials": {
      "value": "a leather glove coated in dried embalming herbs"
    },
    "shortDescription": "<p>When you cast this spell, you draw the remains of nearby destroyed undead together and fuse them into a mass of flesh and bone you can then hurl at any foes within range.</p><p> Three corpses within range of the spell are required for the spell to function. The hammer can be directed to attack one foe within range per round as a move action. It uses your caster level as its base attack bonus, modified by your Intelligence, Wisdom, or Charisma modifier (whichever one is highest). On a hit, the <i>corpse hammer</i> deals 1d6 points of damage per three caster levels (to a maximum of 6d6 points of damage).</p><p> Corpse hammer also has secondary effects based on the nature of the three bodies you use to create it. If the majority used to create it (at least two) were skeletal, the jagged bits of bone cause the hammer to deal slashing damage and increase its critical threat range to 19-20. On the other hand, if the majority were fleshy (at least two), the increased mass causes the spell to deal bludgeoning damage and increase its critical hit damage to x3.</p><p> Undead that have been destroyed by positive energy or a similar effect that does not leave a corpse, like a <i>disintegrate</i> spell, cannot be used to form a <i>corpse hammer</i>.</p>"
  },
  "effects": [],
  "folder": null,
  "sort": 0,
  "permission": {
    "default": 0
  },
  "flags": {}
}
