{
  "_id": "9apji9yid0w314z7",
  "name": "Detect Demon",
  "type": "spell",
  "img": "systems/pf1/icons/misc/magic-swirl.png",
  "data": {
    "tags": [],
    "actions": [
      {
        "_id": "uhzsvfdieh8qxsih",
        "name": "Use",
        "img": "systems/pf1/icons/misc/magic-swirl.png",
        "description": "",
        "activation": {
          "cost": 1,
          "type": "standard"
        },
        "unchainedAction": {
          "activation": {
            "cost": 2,
            "type": "action"
          }
        },
        "duration": {
          "value": "concentration, up to 10 minutes/level (D)",
          "units": ""
        },
        "target": {
          "value": ""
        },
        "range": {
          "value": 60,
          "units": "ft",
          "maxIncrements": 1,
          "minValue": null,
          "minUnits": ""
        },
        "uses": {
          "autoDeductCharges": true,
          "autoDeductChargesCost": "1",
          "per": "",
          "value": 0,
          "maxFormula": ""
        },
        "measureTemplate": {
          "type": "",
          "size": "0",
          "overrideColor": false,
          "customColor": "",
          "overrideTexture": false,
          "customTexture": ""
        },
        "attackName": "",
        "actionType": "spellsave",
        "attackBonus": "",
        "critConfirmBonus": "",
        "damage": {
          "parts": [],
          "critParts": [],
          "nonCritParts": []
        },
        "attackParts": [],
        "formulaicAttacks": {
          "count": {
            "formula": ""
          },
          "bonus": {
            "formula": ""
          },
          "label": null
        },
        "formula": "",
        "ability": {
          "attack": "",
          "damage": "",
          "damageMult": 1,
          "critRange": 20,
          "critMult": 2
        },
        "save": {
          "dc": "0",
          "type": "",
          "description": "none (see text)"
        },
        "effectNotes": [],
        "attackNotes": [],
        "soundEffect": "",
        "powerAttack": {
          "multiplier": "",
          "damageBonus": 2,
          "critMultiplier": 1
        },
        "naturalAttack": {
          "secondary": {
            "attackBonus": "-5",
            "damageMult": 0.5
          }
        },
        "nonlethal": false,
        "usesAmmo": false,
        "spellEffect": "",
        "spellArea": "cone-shaped emanation",
        "conditionals": [],
        "enh": {
          "override": false,
          "value": 0
        }
      }
    ],
    "uses": {
      "per": ""
    },
    "attackNotes": [],
    "effectNotes": [],
    "links": {
      "children": []
    },
    "flags": {
      "boolean": [],
      "dictionary": []
    },
    "scriptCalls": [],
    "learnedAt": {
      "class": [
        ["cleric/oracle", 1],
        ["paladin", 1],
        ["inquisitor", 1]
      ],
      "domain": [],
      "subDomain": [],
      "elementalSchool": [],
      "bloodline": []
    },
    "school": "div",
    "components": {
      "verbal": true,
      "somatic": true,
      "divineFocus": 1
    },
    "sr": false,
    "shortDescription": "<p>You sense the presence of a specific kind of evil-that of demons, their servants, and the Abyss. The amount of information revealed depends on how long you study a particular area or subject.  <br><i>1st Round</i>: Presence or absence of creatures with the demon subtype, creatures possessed by demons, creatures under the effects of spells or spell-like abilities cast by demons, or creatures otherwise tainted by demons. Creatures tainted by demons include tieflings with demonic heritages, sorcerers with abyssal bloodlines, creatures affected by a succubus's profane gift, creatures with demonic implants (see page 44 of <i>Pathfinder Campaign Setting</i>: <i>Lords of Chaos</i>, <i>Book of the</i> <i>Damned</i>, <i>Vol</i>. 2), or creatures who have the Demonic Obedience feat (<i>Lords of Chaos</i> 8), and those under significant demonic influence as determined by the GM. This spell does not detect creatures of chaotic evil alignment who are not demons or significantly influenced by demons.  Additionally, this spell detects whether or not a portal or similar magical passage leads to the Abyss.  <br><i>2nd Round</i>: Number of evil auras shed by creatures with the demon subtype in the area, as well as the power of the most potent evil aura present. If you are of good alignment, and the strongest evil aura's strength is overwhelming; if the creature has HD equal to at least twice your character level, you are stunned for 1 round and the spell ends.  <br><i>3rd Round</i>: The power and location of each aura, and what demon lord, if any, a demon is most closely affiliated with. If an aura is outside your line of sight, you discern the direction but not its exact location. Affiliation to a demon lord is only revealed when the creature detected is a demon (not merely a creature tainted by a demon). Demons receive a Will saving throw to resist revealing what demon lord they are affiliated with. If the demon succeeds at this saving throw or is not forsworn to a demon lord, you know only that this aspect of the spell returned no information.  Aside from what is detailed above, this spell otherwise functions similarly to <i>detect evil</i> in terms of aura power, lingering auras, overwhelming auras, and so forth.</p>"
  },
  "effects": [],
  "folder": null,
  "sort": 0,
  "permission": {
    "default": 0
  },
  "flags": {}
}
