{
  "_id": "e5kw4dwf9qwty6tl",
  "name": "Dispel Magic, Greater",
  "type": "spell",
  "img": "systems/pf1/icons/misc/magic-swirl.png",
  "data": {
    "tags": [],
    "actions": [
      {
        "_id": "4u5mti9cxt8rhog1",
        "name": "Use",
        "img": "systems/pf1/icons/misc/magic-swirl.png",
        "description": "",
        "activation": {
          "cost": 1,
          "type": "standard"
        },
        "unchainedAction": {
          "activation": {
            "cost": 2,
            "type": "action"
          }
        },
        "duration": {
          "value": "instantaneous",
          "units": ""
        },
        "target": {
          "value": "one spellcaster, creature, or object"
        },
        "range": {
          "value": null,
          "units": "medium",
          "maxIncrements": 1,
          "minValue": null,
          "minUnits": ""
        },
        "uses": {
          "autoDeductCharges": true,
          "autoDeductChargesCost": "1",
          "per": "",
          "value": 0,
          "maxFormula": ""
        },
        "measureTemplate": {
          "type": "",
          "size": "0",
          "overrideColor": false,
          "customColor": "",
          "overrideTexture": false,
          "customTexture": ""
        },
        "attackName": "",
        "actionType": "",
        "attackBonus": "",
        "critConfirmBonus": "",
        "damage": {
          "parts": [],
          "critParts": [],
          "nonCritParts": []
        },
        "attackParts": [],
        "formulaicAttacks": {
          "count": {
            "formula": ""
          },
          "bonus": {
            "formula": ""
          },
          "label": null
        },
        "formula": "",
        "ability": {
          "attack": "",
          "damage": "",
          "damageMult": 1,
          "critRange": 20,
          "critMult": 2
        },
        "save": {
          "dc": "0",
          "type": "",
          "description": ""
        },
        "effectNotes": [],
        "attackNotes": [],
        "soundEffect": "",
        "powerAttack": {
          "multiplier": "",
          "damageBonus": 2,
          "critMultiplier": 1
        },
        "naturalAttack": {
          "secondary": {
            "attackBonus": "-5",
            "damageMult": 0.5
          }
        },
        "nonlethal": false,
        "usesAmmo": false,
        "spellEffect": "",
        "spellArea": "20-ft.-radius burst",
        "conditionals": [],
        "enh": {
          "override": false,
          "value": 0
        }
      }
    ],
    "uses": {
      "per": ""
    },
    "attackNotes": [],
    "effectNotes": [],
    "links": {
      "children": []
    },
    "flags": {
      "boolean": [],
      "dictionary": []
    },
    "scriptCalls": [],
    "learnedAt": {
      "class": [
        ["sorcerer/wizard", 6],
        ["cleric/oracle", 6],
        ["druid", 6],
        ["bard", 5],
        ["summoner", 5],
        ["witch", 6],
        ["inquisitor", 6],
        ["magus", 6],
        ["shaman", 6],
        ["psychic", 6],
        ["occultist", 5],
        ["spiritualist", 6],
        ["hunter", 6],
        ["unchained Summoner", 5]
      ],
      "domain": [["Liberation", 6]],
      "subDomain": [],
      "elementalSchool": [],
      "bloodline": [
        ["Celestial", 6],
        ["Oni", 6]
      ]
    },
    "level": 6,
    "school": "abj",
    "components": {
      "verbal": true,
      "somatic": true
    },
    "spellbook": "",
    "sr": false,
    "shortDescription": "<p>This spell functions like @Compendium[pf1.spells.gmgwyjfpeuuc4t4o]{dispel magic}, except that it can end more than one spell on a target and it can be used to target multiple creatures.</p>\n<p>You choose to use <em>greater dispel magic</em> in one of three ways: a targeted dispel, area dispel, or a counterspell: <em>Targeted Dispel</em>: This functions as a targeted <em>dispel magic</em>, but it can dispel one spell for every four caster levels you possess, starting with the highest level spells and proceeding to lower level spells.</p>\n<p>Additionally, <em>greater dispel magic</em> has a chance to dispel any effect that <em>remove curse</em> can remove, even if <em>dispel magic</em> can't dispel that effect. The DC of this check is equal to the curse's DC.</p>\n<p><em>Area Dispel</em>: When <em>greater dispel magic</em> is used in this way, the spell affects everything within a 20-foot-radius burst. Roll one dispel check and apply that check to each creature in the area, as if targeted by <em>dispel magic</em>. For each object within the area that is the target of one or more spells, apply the dispel check as with creatures. Magic items are not affected by an area dispel.</p>\n<p>For each ongoing area or effect spell whose point of origin is within the area of the <em>greater dispel magic</em> spell, apply the dispel check to dispel the spell. For each ongoing spell whose area overlaps that of the <em>greater dispel magic</em> spell, apply the dispel check to end the effect, but only within the overlapping area.</p>\n<p>If an object or creature that is the effect of an ongoing spell (such as a monster summoned by <em>summon monster</em>) is in the area, apply the dispel check to end the spell that conjured that object or creature (returning it whence it came) in addition to attempting to dispel one spell targeting the creature or object.</p>\n<p>You may choose to automatically succeed on dispel checks against any spell that you have cast.</p>\n<p><em>Counterspell</em>: This functions as <em>dispel magic</em>, but you receive a +4 bonus on your dispel check to counter the other spellcaster's spell.</p>"
  },
  "effects": [],
  "folder": null,
  "sort": 0,
  "permission": {
    "default": 0
  },
  "flags": {}
}
