{
  "_id": "vl7yer8k1leyuxld",
  "name": "Foresight",
  "type": "spell",
  "img": "systems/pf1/icons/misc/magic-swirl.png",
  "data": {
    "tags": [],
    "actions": [
      {
        "_id": "s5n4b2uh46muu460",
        "name": "Use",
        "img": "systems/pf1/icons/misc/magic-swirl.png",
        "description": "",
        "activation": {
          "cost": 1,
          "type": "standard"
        },
        "unchainedAction": {
          "activation": {
            "cost": 2,
            "type": "action"
          }
        },
        "duration": {
          "value": "10 min./level",
          "units": ""
        },
        "target": {
          "value": "see text"
        },
        "range": {
          "value": null,
          "units": "personal",
          "maxIncrements": 1,
          "minValue": null,
          "minUnits": ""
        },
        "uses": {
          "autoDeductCharges": true,
          "autoDeductChargesCost": "1",
          "per": "",
          "value": 0,
          "maxFormula": ""
        },
        "measureTemplate": {
          "type": "",
          "size": "0",
          "overrideColor": false,
          "customColor": "",
          "overrideTexture": false,
          "customTexture": ""
        },
        "attackName": "",
        "actionType": "spellsave",
        "attackBonus": "",
        "critConfirmBonus": "",
        "damage": {
          "parts": [],
          "critParts": [],
          "nonCritParts": []
        },
        "attackParts": [],
        "formulaicAttacks": {
          "count": {
            "formula": ""
          },
          "bonus": {
            "formula": ""
          },
          "label": null
        },
        "formula": "",
        "ability": {
          "attack": "",
          "damage": "",
          "damageMult": 1,
          "critRange": 20,
          "critMult": 2
        },
        "save": {
          "dc": "0",
          "type": "will",
          "description": "none or Will negates (harmless)"
        },
        "effectNotes": [],
        "attackNotes": [],
        "soundEffect": "",
        "powerAttack": {
          "multiplier": "",
          "damageBonus": 2,
          "critMultiplier": 1
        },
        "naturalAttack": {
          "secondary": {
            "attackBonus": "-5",
            "damageMult": 0.5
          }
        },
        "nonlethal": false,
        "usesAmmo": false,
        "spellEffect": "",
        "spellArea": "",
        "conditionals": [],
        "enh": {
          "override": false,
          "value": 0
        }
      }
    ],
    "uses": {
      "per": ""
    },
    "attackNotes": [],
    "effectNotes": [],
    "links": {
      "children": []
    },
    "flags": {
      "boolean": [],
      "dictionary": []
    },
    "scriptCalls": [],
    "learnedAt": {
      "class": [
        ["sorcerer/wizard", 9],
        ["druid", 9],
        ["witch", 9],
        ["shaman", 9],
        ["psychic", 9]
      ],
      "domain": [["Knowledge", 9]],
      "subDomain": [],
      "elementalSchool": [],
      "bloodline": [["Destined", 9]]
    },
    "level": 9,
    "school": "div",
    "components": {
      "verbal": true,
      "somatic": true,
      "material": true,
      "divineFocus": 2
    },
    "materials": {
      "value": "a hummingbird's feather"
    },
    "sr": false,
    "shortDescription": "<p>This spell grants you a powerful sixth sense in relation to yourself or another. Once <i>foresight</i> is cast, you receive instantaneous warnings of impending danger or harm to the subject of the spell. You are never surprised or flat-footed. In addition, the spell gives you a general idea of what action you might take to best protect yourself and gives you a +2 insight bonus to AC and on Reflex saves. This insight bonus is lost whenever you would lose a Dexterity bonus to AC.</p><p>When another creature is the subject of the spell, you receive warnings about that creature. You must communicate what you learn to the other creature for the warning to be useful, and the creature can be caught unprepared in the absence of such a warning. Shouting a warning, yanking a person back, and even telepathically communicating (via an appropriate spell) can all be accomplished before some danger befalls the subject, provided you act on the warning without delay. The subject, however, does not gain the insight bonus to AC and Reflex saves.</p>"
  },
  "effects": [],
  "folder": null,
  "sort": 0,
  "permission": {
    "default": 0
  },
  "flags": {}
}
