{
  "_id": "mrjpetdx2omh1i0v",
  "name": "Gift of the Deep",
  "type": "spell",
  "img": "systems/pf1/icons/misc/magic-swirl.png",
  "data": {
    "tags": [],
    "actions": [
      {
        "_id": "xqwg3rn5d9ndzc2m",
        "name": "Use",
        "img": "systems/pf1/icons/misc/magic-swirl.png",
        "description": "",
        "activation": {
          "cost": 1,
          "type": "standard"
        },
        "unchainedAction": {
          "activation": {
            "cost": 2,
            "type": "action"
          }
        },
        "duration": {
          "value": "1 minute/level (D)",
          "units": ""
        },
        "target": {
          "value": "one non-mutated sahuagin/level, no two of which can be more than 30 ft. apart"
        },
        "range": {
          "value": null,
          "units": "close",
          "maxIncrements": 1,
          "minValue": null,
          "minUnits": ""
        },
        "uses": {
          "autoDeductCharges": true,
          "autoDeductChargesCost": "1",
          "per": "",
          "value": 0,
          "maxFormula": ""
        },
        "measureTemplate": {
          "type": "",
          "size": "0",
          "overrideColor": false,
          "customColor": "",
          "overrideTexture": false,
          "customTexture": ""
        },
        "attackName": "",
        "actionType": "spellsave",
        "attackBonus": "",
        "critConfirmBonus": "",
        "damage": {
          "parts": [],
          "critParts": [],
          "nonCritParts": []
        },
        "attackParts": [],
        "formulaicAttacks": {
          "count": {
            "formula": ""
          },
          "bonus": {
            "formula": ""
          },
          "label": null
        },
        "formula": "",
        "ability": {
          "attack": "",
          "damage": "",
          "damageMult": 1,
          "critRange": 20,
          "critMult": 2
        },
        "save": {
          "dc": "0",
          "type": "fort",
          "description": "Fortitude negate (harmless)"
        },
        "effectNotes": [],
        "attackNotes": [],
        "soundEffect": "",
        "powerAttack": {
          "multiplier": "",
          "damageBonus": 2,
          "critMultiplier": 1
        },
        "naturalAttack": {
          "secondary": {
            "attackBonus": "-5",
            "damageMult": 0.5
          }
        },
        "nonlethal": false,
        "usesAmmo": false,
        "spellEffect": "",
        "spellArea": "",
        "conditionals": [],
        "enh": {
          "override": false,
          "value": 0
        }
      }
    ],
    "uses": {
      "per": ""
    },
    "attackNotes": [],
    "effectNotes": [],
    "links": {
      "children": []
    },
    "flags": {
      "boolean": [],
      "dictionary": []
    },
    "scriptCalls": [],
    "learnedAt": {
      "class": [
        ["sorcerer/wizard", 5],
        ["cleric/oracle", 4]
      ],
      "domain": [],
      "subDomain": [],
      "elementalSchool": [],
      "bloodline": []
    },
    "level": 5,
    "school": "trs",
    "subschool": "polymorph",
    "components": {
      "verbal": true,
      "somatic": true,
      "divineFocus": 1
    },
    "shortDescription": "<p>You give the targets the appearance and many of the abilities of sahuagin mutants, with effects as described below. Choose one benefit for all targets of this spell. This spell has no effect on sahuagin that are already mutants or already under the effects of <i>Gift of the Deep</i>.  <i>Four-Armed</i>: The sahuagin sprouts an extra pair of arms-which can be used to make claw attacks (dealing 1d4 points of damage), or to wield weapons or hold items. It gains the benefits of the Multiattack and Multiweapon Fighting feats.  <i>Malenti</i>: The sahuagin's features shift to resemble those of an aquatic elf. It loses its light blindness as well as its claw and bite attacks. The sahuagin gains a +4 enhancement bonus to Dexterity and Charisma, and a +10 circumstance bonus on Disguise checks to appear to be an aquatic elf.  <i>Prehistoric</i>: The sahuagin grows in size, as <i>enlarge person</i>. It also gains a +2 enhancement bonus to its natural armor.  <i>Shark-Blooded</i>: The sahuagin's tail elongates and melds with its legs. Its mouth enlarges, increasing its bite damage by one size category (to 1d6 for a typical sahuagin). Its swim speed increases by 20 feet, but its land speed is reduced to 5 feet. The sahuagin can't be tripped.  <i>Sightless</i>: The sahuagin is blinded, but gains the benefits of the Blind Fight feat and blindsense with a range of 90 feet.  <i>Spined</i>: Spines grow on the sahuagin's scales. Any creature that successfully grapples with it, is grappled by it, or hits it with an unarmed strike or natural weapon takes 1d4 points of piercing damage. The sahuagin also gains the benefits of the Improved Grapple feat.</p>"
  },
  "effects": [],
  "folder": null,
  "sort": 0,
  "permission": {
    "default": 0
  },
  "flags": {}
}
