{
  "_id": "GX0BBBs6HMCZxOWU",
  "name": "Hallucinatory Decor",
  "type": "spell",
  "img": "icons/magic/perception/orb-crystal-ball-scrying.webp",
  "data": {
    "tags": [],
    "actions": [
      {
        "_id": "u39zpdhepiwcxi7r",
        "name": "Use",
        "img": "systems/pf1/icons/misc/magic-swirl.png",
        "description": "",
        "activation": {
          "cost": 1,
          "type": "standard"
        },
        "unchainedAction": {
          "activation": {
            "cost": 2,
            "type": "action"
          }
        },
        "duration": {
          "value": "1 hour/level (D)",
          "units": ""
        },
        "target": {
          "value": ""
        },
        "range": {
          "value": null,
          "units": "medium",
          "maxIncrements": 1,
          "minValue": null,
          "minUnits": ""
        },
        "uses": {
          "autoDeductCharges": true,
          "autoDeductChargesCost": "1",
          "per": "",
          "value": 0,
          "maxFormula": ""
        },
        "measureTemplate": {
          "type": "",
          "size": "0",
          "overrideColor": false,
          "customColor": "",
          "overrideTexture": false,
          "customTexture": ""
        },
        "attackName": "",
        "actionType": "spellsave",
        "attackBonus": "",
        "critConfirmBonus": "",
        "damage": {
          "parts": [],
          "critParts": [],
          "nonCritParts": []
        },
        "attackParts": [],
        "formulaicAttacks": {
          "count": {
            "formula": ""
          },
          "bonus": {
            "formula": ""
          },
          "label": null
        },
        "formula": "",
        "ability": {
          "attack": "",
          "damage": "",
          "damageMult": 1,
          "critRange": 20,
          "critMult": 2
        },
        "save": {
          "dc": "0",
          "type": "will",
          "description": "Will negates (harmless, object)"
        },
        "effectNotes": [],
        "attackNotes": [],
        "soundEffect": "",
        "powerAttack": {
          "multiplier": "",
          "damageBonus": 2,
          "critMultiplier": 1
        },
        "naturalAttack": {
          "secondary": {
            "attackBonus": "-5",
            "damageMult": 0.5
          }
        },
        "attackType": "weapon",
        "nonlethal": false,
        "usesAmmo": false,
        "spellEffect": "",
        "spellArea": "one 10-ft. cube/level (S)",
        "conditionals": [],
        "enh": {
          "override": false,
          "value": 0
        }
      }
    ],
    "attackNotes": [],
    "effectNotes": [],
    "links": {
      "children": []
    },
    "scriptCalls": [],
    "learnedAt": {
      "class": [
        ["arcanist", 3],
        ["bard", 3],
        ["mesmerist", 3],
        ["psychic", 3],
        ["skald", 3],
        ["sorcerer/wizard", 3]
      ],
      "domain": [],
      "subDomain": [],
      "elementalSchool": [],
      "bloodline": []
    },
    "level": 3,
    "school": "ill",
    "subschool": "glamer",
    "components": {
      "verbal": true,
      "somatic": true
    },
    "spellbook": "",
    "sr": false,
    "shortDescription": "<p><span id=\"ctl00_MainContent_DataListTypes_ctl00_LabelName\">You transform the decor of a courtyard, structure, or other edifice to meet your highest standards and personal tastes. Objects and architectural elements remain in the same configuration&mdash;a chair remains a chair&mdash;but can look, sound, and smell like a different physical material and artistic style. You cannot change the appearance of natural terrain, but landscaped areas such as a garden or orchard can be affected. This spell functions in all other ways as @Compendium[pf1.spells.a2y1yf0a4jy3610w]{Hallucinatory Terrain}.</span></p>\n<p><span id=\"ctl00_MainContent_DataListTypes_ctl00_LabelName\">Members of the Prophet of Kalistrade prestige class can cast this spell, even though it is not a divination or enchantment.</span></p>"
  },
  "effects": [],
  "folder": null,
  "sort": 0,
  "permission": {
    "default": 0
  },
  "flags": {}
}
