{
  "_id": "319ubos76z392xah",
  "name": "Liquefy",
  "type": "spell",
  "img": "systems/pf1/icons/misc/magic-swirl.png",
  "data": {
    "tags": [],
    "actions": [
      {
        "_id": "3x2rcscckiqjfhvq",
        "name": "Use",
        "img": "systems/pf1/icons/misc/magic-swirl.png",
        "description": "",
        "activation": {
          "cost": 1,
          "type": "standard"
        },
        "unchainedAction": {
          "activation": {
            "cost": 2,
            "type": "action"
          }
        },
        "duration": {
          "value": "1 round/level (D)",
          "units": ""
        },
        "target": {
          "value": "1 object weighing up to 1 pound/level"
        },
        "range": {
          "value": null,
          "units": "close",
          "maxIncrements": 1,
          "minValue": null,
          "minUnits": ""
        },
        "uses": {
          "autoDeductCharges": true,
          "autoDeductChargesCost": "1",
          "per": "",
          "value": 0,
          "maxFormula": ""
        },
        "measureTemplate": {
          "type": "",
          "size": "0",
          "overrideColor": false,
          "customColor": "",
          "overrideTexture": false,
          "customTexture": ""
        },
        "attackName": "",
        "actionType": "spellsave",
        "attackBonus": "",
        "critConfirmBonus": "",
        "damage": {
          "parts": [],
          "critParts": [],
          "nonCritParts": []
        },
        "attackParts": [],
        "formulaicAttacks": {
          "count": {
            "formula": ""
          },
          "bonus": {
            "formula": ""
          },
          "label": null
        },
        "formula": "",
        "ability": {
          "attack": "",
          "damage": "",
          "damageMult": 1,
          "critRange": 20,
          "critMult": 2
        },
        "save": {
          "dc": "0",
          "type": "fort",
          "description": "Fortitude negates (object)"
        },
        "effectNotes": [],
        "attackNotes": [],
        "soundEffect": "",
        "powerAttack": {
          "multiplier": "",
          "damageBonus": 2,
          "critMultiplier": 1
        },
        "naturalAttack": {
          "secondary": {
            "attackBonus": "-5",
            "damageMult": 0.5
          }
        },
        "nonlethal": false,
        "usesAmmo": false,
        "spellEffect": "",
        "spellArea": "",
        "conditionals": [],
        "enh": {
          "override": false,
          "value": 0
        }
      }
    ],
    "uses": {
      "per": ""
    },
    "attackNotes": [],
    "effectNotes": [],
    "links": {
      "children": []
    },
    "flags": {
      "boolean": [],
      "dictionary": []
    },
    "scriptCalls": [],
    "learnedAt": {
      "class": [
        ["sorcerer/wizard", 4],
        ["druid", 4],
        ["bard", 3],
        ["alchemist", 3],
        ["hunter", 4]
      ],
      "domain": [],
      "subDomain": [],
      "elementalSchool": [],
      "bloodline": []
    },
    "level": 4,
    "school": "trs",
    "components": {
      "verbal": true,
      "somatic": true,
      "material": true
    },
    "materials": {
      "value": "a specially prepared glass bottle"
    },
    "sr": false,
    "shortDescription": "<p>The object you target becomes a liquid version of itself and drips or runs like a thin oil until it pools on any flat surface. If the item has magical or alchemical properties, they become inert for the duration of the spell. If you are holding the item when you cast this spell, you can drain it into the bottle used as focus for the spell. Items with hit point damage or the broken condition regain 5 hit points/caster level if drained into a bottle in this way. The duration of temporary effects (such as applied poison or <i>greater magic</i> weapon) passes normally and may expire while the object is in liquid form. The liquid is clearly unsafe to drink, but if, for some reason, a creature does drink the liquid and the spell ends, the creature takes 3d6 points of damage, and brings up the solid version of the item as a standard action in a coughing fit.  Any spell or effect that would disperse or dilute an object affected by <i>liquefy</i> forces the object to attempt a Fortitude save (using the effect's DC, or DC 15 for effects with no saving throws of their own, such as pouring a liquefied object into a stream). A failed save causes the object to gain the broken condition. If the item is already broken, it is instead destroyed on a failed save. <i>Liquefy</i> has no effect on artifacts, constructs, or intelligent magic items.</p>"
  },
  "effects": [],
  "folder": null,
  "sort": 0,
  "permission": {
    "default": 0
  },
  "flags": {}
}
