{
  "_id": "446vcsetq4ny904e",
  "name": "Mislead",
  "type": "spell",
  "img": "systems/pf1/icons/misc/magic-swirl.png",
  "data": {
    "tags": [],
    "actions": [
      {
        "_id": "0zoil7xr1es9hzny",
        "name": "Use",
        "img": "systems/pf1/icons/misc/magic-swirl.png",
        "description": "",
        "activation": {
          "cost": 1,
          "type": "standard"
        },
        "unchainedAction": {
          "activation": {
            "cost": 2,
            "type": "action"
          }
        },
        "duration": {
          "value": "1 round/level (D) and concentration + 3 rounds; see text",
          "units": ""
        },
        "target": {
          "value": "you"
        },
        "range": {
          "value": null,
          "units": "close",
          "maxIncrements": 1,
          "minValue": null,
          "minUnits": ""
        },
        "uses": {
          "autoDeductCharges": true,
          "autoDeductChargesCost": "1",
          "per": "",
          "value": 0,
          "maxFormula": ""
        },
        "measureTemplate": {
          "type": "",
          "size": "0",
          "overrideColor": false,
          "customColor": "",
          "overrideTexture": false,
          "customTexture": ""
        },
        "attackName": "",
        "actionType": "spellsave",
        "attackBonus": "",
        "critConfirmBonus": "",
        "damage": {
          "parts": [],
          "critParts": [],
          "nonCritParts": []
        },
        "attackParts": [],
        "formulaicAttacks": {
          "count": {
            "formula": ""
          },
          "bonus": {
            "formula": ""
          },
          "label": null
        },
        "formula": "",
        "ability": {
          "attack": "",
          "damage": "",
          "damageMult": 1,
          "critRange": 20,
          "critMult": 2
        },
        "save": {
          "dc": "0",
          "type": "will",
          "description": "none or Will disbelief (if interacted with); see text"
        },
        "effectNotes": [],
        "attackNotes": [],
        "soundEffect": "",
        "powerAttack": {
          "multiplier": "",
          "damageBonus": 2,
          "critMultiplier": 1
        },
        "naturalAttack": {
          "secondary": {
            "attackBonus": "-5",
            "damageMult": 0.5
          }
        },
        "nonlethal": false,
        "usesAmmo": false,
        "spellEffect": "one illusory double",
        "spellArea": "",
        "conditionals": [],
        "enh": {
          "override": false,
          "value": 0
        }
      }
    ],
    "uses": {
      "per": ""
    },
    "attackNotes": [],
    "effectNotes": [],
    "links": {
      "children": []
    },
    "flags": {
      "boolean": [],
      "dictionary": []
    },
    "scriptCalls": [],
    "learnedAt": {
      "class": [
        ["sorcerer/wizard", 6],
        ["bard", 5],
        ["alchemist", 6],
        ["magus", 6],
        ["psychic", 6],
        ["mesmerist", 5],
        ["occultist", 5],
        ["spiritualist", 6]
      ],
      "domain": [
        ["Luck", 6],
        ["Trickery", 6]
      ],
      "subDomain": [],
      "elementalSchool": [],
      "bloodline": [
        ["Destined", 6],
        ["Fey", 6]
      ]
    },
    "level": 6,
    "school": "ill",
    "subschool": "figment, glamer",
    "components": {
      "somatic": true
    },
    "sr": false,
    "shortDescription": "<p>You become invisible (as <i>greater invisibility</i>, a glamer), and at the same time, an illusory double of you (as <i>major image</i>, a figment) appears. You are then free to go elsewhere while your double moves away. The double appears within range but thereafter moves as you direct it (which requires concentration beginning on the first round after the casting). You can make the figment appear superimposed perfectly over your own body so that observers don't notice an image appearing and you turning invisible. You and the figment can then move in different directions. The double moves at your speed and can talk and gesture as if it were real, but it cannot attack or cast spells, though it can pretend to do so.</p><p>The illusory double lasts as long as you concentrate upon it, plus 3 additional rounds. After you cease concentration, the illusory double continues to carry out the same activity until the duration expires. The <i>greater invisibility</i> lasts for 1 round per level, regardless of concentration.</p>"
  },
  "effects": [],
  "folder": null,
  "sort": 0,
  "permission": {
    "default": 0
  },
  "flags": {}
}
