{
  "_id": "w0qned8wruhxzo8t",
  "name": "Salvage",
  "type": "spell",
  "img": "systems/pf1/icons/misc/magic-swirl.png",
  "data": {
    "tags": [],
    "actions": [
      {
        "_id": "tpu15tzl7x4d3v67",
        "name": "Use",
        "img": "systems/pf1/icons/misc/magic-swirl.png",
        "description": "",
        "activation": {
          "cost": 1,
          "type": "standard"
        },
        "unchainedAction": {
          "activation": {
            "cost": 2,
            "type": "action"
          }
        },
        "duration": {
          "value": "see text",
          "units": ""
        },
        "target": {
          "value": "one shipwreck"
        },
        "range": {
          "value": null,
          "units": "long",
          "maxIncrements": 1,
          "minValue": null,
          "minUnits": ""
        },
        "uses": {
          "autoDeductCharges": true,
          "autoDeductChargesCost": "1",
          "per": "",
          "value": 0,
          "maxFormula": ""
        },
        "measureTemplate": {
          "type": "",
          "size": "0",
          "overrideColor": false,
          "customColor": "",
          "overrideTexture": false,
          "customTexture": ""
        },
        "attackName": "",
        "actionType": "spellsave",
        "attackBonus": "",
        "critConfirmBonus": "",
        "damage": {
          "parts": [],
          "critParts": [],
          "nonCritParts": []
        },
        "attackParts": [],
        "formulaicAttacks": {
          "count": {
            "formula": ""
          },
          "bonus": {
            "formula": ""
          },
          "label": null
        },
        "formula": "",
        "ability": {
          "attack": "",
          "damage": "",
          "damageMult": 1,
          "critRange": 20,
          "critMult": 2
        },
        "save": {
          "dc": "0",
          "type": "fort",
          "description": "Fortitude negates (object)"
        },
        "effectNotes": [],
        "attackNotes": [],
        "soundEffect": "",
        "powerAttack": {
          "multiplier": "",
          "damageBonus": 2,
          "critMultiplier": 1
        },
        "naturalAttack": {
          "secondary": {
            "attackBonus": "-5",
            "damageMult": 0.5
          }
        },
        "nonlethal": false,
        "usesAmmo": false,
        "spellEffect": "",
        "spellArea": "",
        "conditionals": [],
        "enh": {
          "override": false,
          "value": 0
        }
      }
    ],
    "uses": {
      "per": ""
    },
    "attackNotes": [],
    "effectNotes": [],
    "links": {
      "children": []
    },
    "flags": {
      "boolean": [],
      "dictionary": []
    },
    "scriptCalls": [],
    "learnedAt": {
      "class": [
        ["sorcerer/wizard", 9],
        ["cleric/oracle", 9]
      ],
      "domain": [],
      "subDomain": [],
      "elementalSchool": [],
      "bloodline": []
    },
    "level": 9,
    "school": "trs",
    "components": {
      "verbal": true,
      "somatic": true
    },
    "shortDescription": "<p>An invisible force pulls together the remains of a shipwreck.</p><p>Bits of hull, tattered sails, broken masts, and smashed figureheads knit themselves back together. Rotten wood turns solid once more, and sails re-weave themselves as the rigging snakes across the masts.</p><p>It takes a variable amount of time for the ship to rebuild itself, depending on its size.</p><p> <table><tr><th>Size</th><th>Duration</th></tr><tr><td>Raft</td><td>1 minute</td></tr><tr><td>Rowboat</td><td>1 minute</td></tr><tr><td>Keelboat</td><td>10 minutes</td></tr><tr><td>Longship</td><td>1 hour</td></tr><tr><td>Sailing ship</td><td>2 hours</td></tr><tr><td>Warship</td><td>3 hours</td></tr><tr><td>Galleon</td><td>4 hours</td></tr></table>  At the end of the duration, an air bubble forms around the repaired ship. If submerged, the ship shoots to the surface, erupting with a great splash before settling on the water.</p><p>Though the spell requires time to repair the ship, its effects are instantaneous. A <i><i>salvage</i>d</i> ship cannot be dispelled to return it to a shipwreck. However, before the spell's duration ends and while the ship is still being repaired, <i>salvage</i> can be dispelled to interrupt the repair process. The ship remains in the condition it was in when the spell was interrupted until a new <i>salvage</i> spell is cast (but continues to age normally and suffers the effects of its environments). A new <i>salvage</i> spell's duration is modified by any repairs already begun.</p>"
  },
  "effects": [],
  "folder": null,
  "sort": 0,
  "permission": {
    "default": 0
  },
  "flags": {}
}
