{
  "_id": "gq9jm14btpluyn35",
  "name": "Skin Tag",
  "type": "spell",
  "img": "systems/pf1/icons/misc/magic-swirl.png",
  "data": {
    "tags": [],
    "actions": [
      {
        "_id": "cz2jqahneiekhoib",
        "name": "Use",
        "img": "systems/pf1/icons/misc/magic-swirl.png",
        "description": "",
        "activation": {
          "cost": 1,
          "type": "minute"
        },
        "unchainedAction": {
          "activation": {
            "cost": 1,
            "type": "minute"
          }
        },
        "duration": {
          "value": "1 day plus 1 day/level (D)",
          "units": ""
        },
        "target": {
          "value": "1 beverage or piece of food touched"
        },
        "range": {
          "value": null,
          "units": "touch",
          "maxIncrements": 1,
          "minValue": null,
          "minUnits": ""
        },
        "uses": {
          "autoDeductCharges": true,
          "autoDeductChargesCost": "1",
          "per": "",
          "value": 0,
          "maxFormula": ""
        },
        "measureTemplate": {
          "type": "",
          "size": "0",
          "overrideColor": false,
          "customColor": "",
          "overrideTexture": false,
          "customTexture": ""
        },
        "attackName": "",
        "actionType": "spellsave",
        "attackBonus": "",
        "critConfirmBonus": "",
        "damage": {
          "parts": [],
          "critParts": [],
          "nonCritParts": []
        },
        "attackParts": [],
        "formulaicAttacks": {
          "count": {
            "formula": ""
          },
          "bonus": {
            "formula": ""
          },
          "label": null
        },
        "formula": "",
        "ability": {
          "attack": "",
          "damage": "",
          "damageMult": 1,
          "critRange": 20,
          "critMult": 2
        },
        "save": {
          "dc": "0",
          "type": "fort",
          "description": "none (object), Fortitude negates; see text"
        },
        "effectNotes": [],
        "attackNotes": [],
        "soundEffect": "",
        "powerAttack": {
          "multiplier": "",
          "damageBonus": 2,
          "critMultiplier": 1
        },
        "naturalAttack": {
          "secondary": {
            "attackBonus": "-5",
            "damageMult": 0.5
          }
        },
        "nonlethal": false,
        "usesAmmo": false,
        "spellEffect": "",
        "spellArea": "",
        "conditionals": [],
        "enh": {
          "override": false,
          "value": 0
        }
      }
    ],
    "uses": {
      "per": ""
    },
    "attackNotes": [],
    "effectNotes": [],
    "links": {
      "children": []
    },
    "flags": {
      "boolean": [],
      "dictionary": []
    },
    "scriptCalls": [],
    "learnedAt": {
      "class": [
        ["sorcerer/wizard", 1],
        ["alchemist", 1],
        ["witch", 1],
        ["shaman", 1],
        ["medium", 1],
        ["occultist", 1]
      ],
      "domain": [],
      "subDomain": [],
      "elementalSchool": [],
      "bloodline": []
    },
    "school": "nec",
    "subschool": "haunted",
    "types": "emotion, fear, mind-affecting",
    "components": {
      "verbal": true,
      "somatic": true,
      "material": true
    },
    "materials": {
      "value": "beverage or food item, plus special reagents worth 25 gp",
      "gpValue": 25
    },
    "spellbook": "",
    "preparation": {
      "autoDeductCharges": false,
      "spontaneousPrepared": false
    },
    "sr": false,
    "shortDescription": "<p>You mix a malign spirit into a piece of food, a drink, or some other item to be consumed (including alchemical items, potions, elixirs, or similar items). The <i>skin tag</i> spell discharges when the item is consumed, affecting the creature that used the item unless it succeeds at a Fortitude save. The spirit embeds itself somewhere in the affected creature's skin, forming a painless set of wrinkles and tags of skin that looks vaguely like a face when the haunt activates. You are considered to have a body part from the affected creature for the purpose of <i>scrying</i> and similar divination spells. Once per day as a standard action, you can remotely cause the spirit to make the affected creature's skin crawl, causing the creature to become sickened for 1d4 rounds + 1 round per 2 caster levels you have (to a maximum of 5 extra rounds at 10th level) unless it succeeds at a Fortitude save. Alternatively, once per day you can remotely use a hex, a mind-affecting spell, or a necromancy spell that causes disease or possession on the affected creature. Each time you use the  remote sickening or spell or hex effect, the spell's haunt-like manifestation occurs during that round.</p>"
  },
  "effects": [],
  "folder": null,
  "sort": 0,
  "permission": {
    "default": 0
  },
  "flags": {}
}
