{
  "_id": "uyn64zazmaydnk7o",
  "name": "Spell Turning",
  "type": "spell",
  "img": "systems/pf1/icons/misc/magic-swirl.png",
  "data": {
    "tags": [],
    "actions": [
      {
        "_id": "tl4rnfr7oytkjt67",
        "name": "Use",
        "img": "systems/pf1/icons/misc/magic-swirl.png",
        "description": "",
        "activation": {
          "cost": 1,
          "type": "standard"
        },
        "unchainedAction": {
          "activation": {
            "cost": 2,
            "type": "action"
          }
        },
        "duration": {
          "value": "until expended or 10 min./level",
          "units": ""
        },
        "target": {
          "value": "you"
        },
        "range": {
          "value": null,
          "units": "personal",
          "maxIncrements": 1,
          "minValue": null,
          "minUnits": ""
        },
        "uses": {
          "autoDeductCharges": true,
          "autoDeductChargesCost": "1",
          "per": "",
          "value": 0,
          "maxFormula": ""
        },
        "measureTemplate": {
          "type": "",
          "size": "0",
          "overrideColor": false,
          "customColor": "",
          "overrideTexture": false,
          "customTexture": ""
        },
        "attackName": "",
        "actionType": "",
        "attackBonus": "",
        "critConfirmBonus": "",
        "damage": {
          "parts": [],
          "critParts": [],
          "nonCritParts": []
        },
        "attackParts": [],
        "formulaicAttacks": {
          "count": {
            "formula": ""
          },
          "bonus": {
            "formula": ""
          },
          "label": null
        },
        "formula": "",
        "ability": {
          "attack": "",
          "damage": "",
          "damageMult": 1,
          "critRange": 20,
          "critMult": 2
        },
        "save": {
          "dc": "0",
          "type": "",
          "description": ""
        },
        "effectNotes": [],
        "attackNotes": [],
        "soundEffect": "",
        "powerAttack": {
          "multiplier": "",
          "damageBonus": 2,
          "critMultiplier": 1
        },
        "naturalAttack": {
          "secondary": {
            "attackBonus": "-5",
            "damageMult": 0.5
          }
        },
        "nonlethal": false,
        "usesAmmo": false,
        "spellEffect": "",
        "spellArea": "",
        "conditionals": [],
        "enh": {
          "override": false,
          "value": 0
        }
      }
    ],
    "uses": {
      "per": ""
    },
    "attackNotes": [],
    "effectNotes": [],
    "links": {
      "children": []
    },
    "flags": {
      "boolean": [],
      "dictionary": []
    },
    "scriptCalls": [],
    "learnedAt": {
      "class": [
        ["sorcerer/wizard", 7],
        ["summoner", 5],
        ["psychic", 7],
        ["unchained Summoner", 6]
      ],
      "domain": [
        ["Luck", 7],
        ["Magic", 7]
      ],
      "subDomain": [],
      "elementalSchool": [],
      "bloodline": [["Destined", 7]]
    },
    "level": 7,
    "school": "abj",
    "components": {
      "verbal": true,
      "somatic": true,
      "material": true,
      "divineFocus": 2
    },
    "materials": {
      "value": "a small silver mirror"
    },
    "sr": false,
    "shortDescription": "<p>Spells and spell-like effects targeted on you are turned back upon the original caster. The abjuration turns only spells that have you as a target. Effect and area spells are not affected. <i>Spell turning</i> also fails to stop touch range spells. From seven to ten (1d4+6) spell levels are affected by the turning. The exact number is rolled secretly.</p><p>When you are targeted by a spell of higher level than the amount of <i>spell turning</i> you have left, that spell is partially turned. Subtract the amount of <i>spell turning</i> left from the spell level of the incoming spell, then divide the result by the spell level of the incoming spell to see what fraction of the effect gets through. For damaging spells, you and the caster each take a fraction of the damage. For nondamaging spells, each of you has a proportional chance to be the one who is affected. If you and a spellcasting attacker are both warded by <i>spell turning</i> effects in operation, a resonating field is created. Roll randomly to determine the result.</p><p> <table><tr><th>d%</th><th>Effect</th></tr><tr><td>01-70</td><td>Spell drains away without effect.</td></tr><tr><td>71-80</td><td>Spell affects both of you equally at full effect.</td></tr><tr><td>81-97</td><td>Both turning effects are rendered nonfunctional for 1d4 minutes.</td></tr><tr><td>98-100</td><td>Both of you go through a rift into another plane.</td></tr></table> </p>"
  },
  "effects": [],
  "folder": null,
  "sort": 0,
  "permission": {
    "default": 0
  },
  "flags": {}
}
