{
  "_id": "0lrux8tmaml5fkw6",
  "name": "Spiritual Ally",
  "type": "spell",
  "img": "systems/pf1/icons/misc/magic-swirl.png",
  "data": {
    "tags": [],
    "actions": [
      {
        "_id": "6n44f28dbrsr48hu",
        "name": "Use",
        "img": "systems/pf1/icons/misc/magic-swirl.png",
        "description": "",
        "activation": {
          "cost": 1,
          "type": "standard"
        },
        "unchainedAction": {
          "activation": {
            "cost": 2,
            "type": "action"
          }
        },
        "duration": {
          "value": "1 round/level (D)",
          "units": ""
        },
        "target": {
          "value": ""
        },
        "range": {
          "value": null,
          "units": "medium",
          "maxIncrements": 1,
          "minValue": null,
          "minUnits": ""
        },
        "uses": {
          "autoDeductCharges": true,
          "autoDeductChargesCost": "1",
          "per": "",
          "value": 0,
          "maxFormula": ""
        },
        "measureTemplate": {
          "type": "",
          "size": "0",
          "overrideColor": false,
          "customColor": "",
          "overrideTexture": false,
          "customTexture": ""
        },
        "attackName": "",
        "actionType": "other",
        "attackBonus": "",
        "critConfirmBonus": "",
        "damage": {
          "parts": [],
          "critParts": [],
          "nonCritParts": []
        },
        "attackParts": [],
        "formulaicAttacks": {
          "count": {
            "formula": ""
          },
          "bonus": {
            "formula": ""
          },
          "label": null
        },
        "formula": "",
        "ability": {
          "attack": "",
          "damage": "",
          "damageMult": 1,
          "critRange": 20,
          "critMult": 2
        },
        "save": {
          "dc": "0",
          "type": "",
          "description": ""
        },
        "effectNotes": [],
        "attackNotes": [],
        "soundEffect": "",
        "powerAttack": {
          "multiplier": "",
          "damageBonus": 2,
          "critMultiplier": 1
        },
        "naturalAttack": {
          "secondary": {
            "attackBonus": "-5",
            "damageMult": 0.5
          }
        },
        "nonlethal": false,
        "usesAmmo": false,
        "spellEffect": "spiritual ally of force",
        "spellArea": "",
        "conditionals": [],
        "enh": {
          "override": false,
          "value": 0
        }
      }
    ],
    "uses": {
      "per": ""
    },
    "attackNotes": [],
    "effectNotes": [],
    "links": {
      "children": []
    },
    "flags": {
      "boolean": [],
      "dictionary": []
    },
    "scriptCalls": [],
    "learnedAt": {
      "class": [
        ["cleric/oracle", 4],
        ["medium", 4],
        ["spiritualist", 4]
      ],
      "domain": [],
      "subDomain": [],
      "elementalSchool": [],
      "bloodline": []
    },
    "level": 4,
    "school": "evo",
    "types": "force",
    "components": {
      "verbal": true,
      "somatic": true,
      "divineFocus": 1
    },
    "shortDescription": "<p>An ally made of pure force appears in a single 5-foot square within range. The ally takes the form of a servant of your god.</p><p>The <i>spiritual ally</i> occupies its space, though you and your allies can move through it, since it is your ally. The <i>spiritual ally</i> carries a single weapon, one favored by your deity (as for <i>spiritual weapon</i>), which has the same threat range and critical modifiers as a real weapon of its form. Each round on your turn, starting with the turn that you cast this spell, your <i>spiritual ally</i> can make an attack against a foe within its reach that you designate. The <i>spiritual ally</i> threatens adjacent squares and can flank and make attacks of opportunity as if it were a normal creature. The <i>spiritual ally</i> uses your base attack bonus (gaining extra attacks if your base attack bonus is high enough) plus your Wisdom bonus when it makes a melee attack. When the <i>spiritual ally</i> hits, it deals 1d10 points of force damage + 1 point of damage per 3 caster levels (maximum +5 at 15th level). It strikes as a spell, not a weapon, so it bypasses DR and can affect incorporeal creatures.</p><p>Each round after the first, you can move the <i>spiritual ally</i> as a swift action. It has a speed of 30 feet, and a fly speed of 30 feet (perfect maneuverability). Being a construct of force, the <i>spiritual ally</i> cannot be harmed by any physical attacks, but <i>dispel magic</i>, <i>disintegrate</i>, <i>a sphere of annihilation</i>, or a <i>rod of cancellation</i> affects it. A <i>spiritual ally</i>'s AC against touch attacks is 10.</p><p>If an attacked creature has spell resistance, you make a caster level check (1d20 + caster level) against that spell resistance the first time the <i>spiritual ally</i> strikes it. If the ally is successfully resisted, the spell is dispelled. If not, the weapon has its normal full effect on that creature for the duration of the spell.</p>"
  },
  "effects": [],
  "folder": null,
  "sort": 0,
  "permission": {
    "default": 0
  },
  "flags": {}
}
