{
  "_id": "g0x2fnktg1553wv1",
  "name": "Symbol of Death",
  "type": "spell",
  "img": "systems/pf1/icons/misc/magic-swirl.png",
  "data": {
    "tags": [],
    "actions": [
      {
        "_id": "3ghytfcvn8jy223f",
        "name": "Use",
        "img": "systems/pf1/icons/misc/magic-swirl.png",
        "description": "",
        "activation": {
          "cost": 10,
          "type": "minute"
        },
        "unchainedAction": {
          "activation": {
            "cost": 10,
            "type": "minute"
          }
        },
        "duration": {
          "value": "see text",
          "units": ""
        },
        "target": {
          "value": ""
        },
        "range": {
          "value": "0",
          "units": "ft",
          "maxIncrements": 1,
          "minValue": null,
          "minUnits": ""
        },
        "uses": {
          "autoDeductCharges": true,
          "autoDeductChargesCost": "1",
          "per": "",
          "value": 0,
          "maxFormula": ""
        },
        "measureTemplate": {
          "type": "",
          "size": "0",
          "overrideColor": false,
          "customColor": "",
          "overrideTexture": false,
          "customTexture": ""
        },
        "attackName": "",
        "actionType": "spellsave",
        "attackBonus": "",
        "critConfirmBonus": "",
        "damage": {
          "parts": [],
          "critParts": [],
          "nonCritParts": []
        },
        "attackParts": [],
        "formulaicAttacks": {
          "count": {
            "formula": ""
          },
          "bonus": {
            "formula": ""
          },
          "label": null
        },
        "formula": "",
        "ability": {
          "attack": "",
          "damage": "",
          "damageMult": 1,
          "critRange": 20,
          "critMult": 2
        },
        "save": {
          "dc": "0",
          "type": "fort",
          "description": "Fortitude negates"
        },
        "effectNotes": [],
        "attackNotes": [],
        "soundEffect": "",
        "powerAttack": {
          "multiplier": "",
          "damageBonus": 2,
          "critMultiplier": 1
        },
        "naturalAttack": {
          "secondary": {
            "attackBonus": "-5",
            "damageMult": 0.5
          }
        },
        "nonlethal": false,
        "usesAmmo": false,
        "spellEffect": "one symbol",
        "spellArea": "",
        "conditionals": [],
        "enh": {
          "override": false,
          "value": 0
        }
      }
    ],
    "uses": {
      "per": ""
    },
    "attackNotes": [],
    "effectNotes": [],
    "links": {
      "children": []
    },
    "flags": {
      "boolean": [],
      "dictionary": []
    },
    "scriptCalls": [],
    "learnedAt": {
      "class": [
        ["sorcerer/wizard", 8],
        ["cleric/oracle", 8],
        ["witch", 8],
        ["occultist", 6]
      ],
      "domain": [["Rune", 8]],
      "subDomain": [],
      "elementalSchool": [],
      "bloodline": []
    },
    "level": 8,
    "school": "nec",
    "types": "death",
    "components": {
      "verbal": true,
      "somatic": true,
      "material": true
    },
    "materials": {
      "value": "mercury and phosphorus, plus powdered diamond and opal worth 5,000 gp each",
      "gpValue": 10000
    },
    "spellbook": "",
    "preparation": {
      "autoDeductCharges": false,
      "spontaneousPrepared": false
    },
    "shortDescription": "<p>This spell allows you to scribe a potent rune of power upon a surface.</p><p>When triggered, a <i><i>symbol</i> of <i>death</i></i> kills one or more creatures within 60 feet of the <i>symbol</i> (treat as a burst) whose combined total current hit points do not exceed 150. The <i><i>symbol</i> of <i>death</i></i> affects the closest creatures first, skipping creatures with too many hit points to affect.</p><p>Once triggered, the <i>symbol</i> becomes active and glows, lasting for 10 minutes per caster level or until it has affected 150 hit points' worth of creatures, whichever comes first. A creature that enters the area while the <i><i>symbol</i> of <i>death</i></i> is active is subject to its effect, whether or not that creature was in the area when it was triggered. A creature need save against the <i>symbol</i> only once as long as it remains within the area, though if it leaves the area and returns while the <i>symbol</i> is still active, it must save again.</p><p>Until it is triggered, the <i><i>symbol</i> of <i>death</i></i> is inactive (though visible and legible at a distance of 60 feet). To be effective, a <i><i>symbol</i> of <i>death</i></i> must always be placed in plain sight and in a prominent location. Covering or hiding the rune renders the <i><i>symbol</i> of <i>death</i></i> ineffective, unless a creature removes the covering, in which case the <i><i>symbol</i> of <i>death</i></i> works normally.</p><p>As a default, a <i><i>symbol</i> of <i>death</i></i> is triggered whenever a creature does one or more of the following, as you select: looks at the rune; reads the rune; touches the rune; passes over the rune; or passes through a portal bearing the rune. Regardless of the trigger method or methods chosen, a creature more than 60 feet from a <i><i>symbol</i> of <i>death</i></i> can't trigger it (even if it meets one or more of the triggering conditions, such as reading the rune). Once the spell is cast, a <i><i>symbol</i> of <i>death</i></i>'s triggering conditions cannot be changed.</p><p>In this case, \"reading\" the rune means any attempt to study it, identify it, or fathom its meaning. Throwing a cover over a <i><i>symbol</i> of <i>death</i></i> to render it inoperative triggers it if the <i>symbol</i> reacts to touch. You can't use a <i><i>symbol</i> of <i>death</i></i> offensively; for instance, a touch-triggered <i><i>symbol</i> of <i>death</i></i> remains untriggered if an item bearing the <i><i>symbol</i> of <i>death</i></i> is used to touch a creature. Likewise, a <i><i>symbol</i> of <i>death</i></i> cannot be placed on a weapon and set to activate when the weapon strikes a foe.</p><p>You can also set special triggering limitations of your own. These can be as simple or elaborate as you desire. Special conditions for triggering a <i><i>symbol</i> of <i>death</i></i> can be based on a creature's name, identity, or alignment, but otherwise must be based on observable actions or qualities. Intangibles such as level, class, HD, and hit points don't qualify.</p><p>When scribing a <i><i>symbol</i> of <i>death</i></i>, you can specify a password or phrase that prevents a creature using it from triggering the <i>symbol</i>'s effect. Anyone using the password remains immune to that particular rune's effects so long as the creature remains within 60 feet of the rune. If the creature leaves the radius and returns later, it must use the password again.</p><p>You also can attune any number of creatures to the <i><i>symbol</i> of <i>death</i></i>, but doing this can extend the casting time. Attuning one or two creatures takes negligible time, and attuning a small group (as many as 10 creatures) extends the casting time to 1 hour. Attuning a large group (as many as 25 creatures) takes 24 hours. Attuning larger groups takes an additional 24 hours per 25 creatures. Any creature attuned to a <i><i>symbol</i> of <i>death</i></i> cannot trigger it and is immune to its effects, even if within its radius when it is triggered. You are automatically considered attuned to your own <i>symbol</i>s of <i><i>death</i>,</i> and thus always ignore the effects and cannot inadvertently trigger them.</p><p><i>Read magic</i> allows you to identify a <i>symbol</i> with a Spellcraft check (DC 10 + the <i>symbol</i>'s spell level). Of course, if the <i>symbol</i> is set to be triggered by reading it, this will trigger the <i>symbol</i>.</p><p>A <i><i>symbol</i> of <i>death</i></i> can be removed by a successful <i>dispel magic</i> targeted solely on the rune. An <i>erase</i> spell has no effect on a <i><i>symbol</i> of <i>death</i></i>. Destruction of the surface where a <i><i>symbol</i> of <i>death</i></i> is inscribed destroys the <i>symbol</i> but also triggers it.</p><p><i>Symbol of <i>death</i></i> can be made permanent with a <i>permanency</i> spell.</p><p>A permanent <i><i>symbol</i> of <i>death</i></i> that is disabled or has affected its maximum number of hit points becomes inactive for 10 minutes, but then can be triggered again as normal.</p><p><i>Note:</i> Magic traps such as <i><i>symbol</i> of <i>death</i></i> are hard to detect and disable. A rogue (only) can use the Perception skill to find a <i><i>symbol</i> of <i>death</i></i> and Disable Device to thwart it. The DC in each case is 25 + spell level, or 33 for <i><i>symbol</i> of <i>death</i></i>.</p>"
  },
  "effects": [],
  "folder": null,
  "sort": 0,
  "permission": {
    "default": 0
  },
  "flags": {}
}
