{
  "_id": "iDlGMIezGuqqt8Us",
  "name": "Brawler",
  "type": "class",
  "img": "systems/pf1/icons/skills/blood_11.jpg",
  "data": {
    "description": {
      "value": "<p>Deadly even with nothing in her hands, a brawler eschews using the fighter’s heavy armor and the monk’s mysticism, focusing instead on perfecting many styles of brutal unarmed combat. Versatile, agile, and able to adapt to most enemy attacks, a brawler’s body is a powerful weapon.</p>\n<p><strong>Role</strong>: Brawlers are maneuverable and well suited for creating flanking situations or dealing with lightly armored enemies, as well as quickly adapting to a rapidly changing battlefield.</p>\n<p><strong>Alignment</strong>: Any.</p>\n<p><strong>Hit Die</strong>: d10.</p>\n<p><strong>Parent Classes</strong>:&nbsp;<a href=\"https://www.d20pfsrd.com/classes/core-classes/fighter\">Fighter</a>&nbsp;and&nbsp;<a href=\"https://www.d20pfsrd.com/classes/core-classes/monk\">monk</a>.</p>\n<p><strong>Starting Wealth</strong>: 3d6 × 10 gp (average 105 gp.) In addition, each character begins play with an outfit worth 10 gp or less.</p>\n<h2><span id=\"Class_Skills\">Class Skills</span></h2>\n<p>The brawler’s class skills are&nbsp;<a href=\"https://www.d20pfsrd.com/skills/acrobatics\">Acrobatics</a>&nbsp;(<a href=\"https://www.d20pfsrd.com/basics-ability-scores/ability-scores#TOC-Dexterity-Dex-\">Dex</a>),&nbsp;<a href=\"https://www.d20pfsrd.com/skills/climb\">Climb</a>&nbsp;(<a href=\"https://www.d20pfsrd.com/basics-ability-scores/ability-scores#TOC-Strength-Str-\">Str</a>),&nbsp;<a href=\"https://www.d20pfsrd.com/skills/craft\">Craft</a>&nbsp;(<a href=\"https://www.d20pfsrd.com/basics-ability-scores/ability-scores#TOC-Intelligence-Int-\">Int</a>),&nbsp;<a href=\"https://www.d20pfsrd.com/skills/escape-artist\">Escape Artist</a>&nbsp;(<a href=\"https://www.d20pfsrd.com/basics-ability-scores/ability-scores#TOC-Dexterity-Dex-\">Dex</a>),&nbsp;<a href=\"https://www.d20pfsrd.com/skills/handle-animal\">Handle Animal</a>&nbsp;(<a href=\"https://www.d20pfsrd.com/basics-ability-scores/ability-scores#TOC-Charisma-Cha-\">Cha</a>),&nbsp;<a href=\"https://www.d20pfsrd.com/skills/intimidate\">Intimidate</a>&nbsp;(<a href=\"https://www.d20pfsrd.com/basics-ability-scores/ability-scores#TOC-Charisma-Cha-\">Cha</a>),&nbsp;<a href=\"https://www.d20pfsrd.com/skills/knowledge\">Knowledge</a>&nbsp;(dungeoneering) (<a href=\"https://www.d20pfsrd.com/basics-ability-scores/ability-scores#TOC-Intelligence-Int-\">Int</a>),&nbsp;<a href=\"https://www.d20pfsrd.com/skills/knowledge\">Knowledge</a>&nbsp;(local) (<a href=\"https://www.d20pfsrd.com/basics-ability-scores/ability-scores#TOC-Intelligence-Int-\">Int</a>),&nbsp;<a href=\"https://www.d20pfsrd.com/skills/perception\">Perception</a>&nbsp;(<a href=\"https://www.d20pfsrd.com/basics-ability-scores/ability-scores#TOC-Wisdom-Wis-\">Wis</a>),&nbsp;<a href=\"https://www.d20pfsrd.com/skills/profession\">Profession</a>&nbsp;(<a href=\"https://www.d20pfsrd.com/basics-ability-scores/ability-scores#TOC-Wisdom-Wis-\">Wis</a>),&nbsp;<a href=\"https://www.d20pfsrd.com/skills/ride\">Ride</a>&nbsp;(<a href=\"https://www.d20pfsrd.com/basics-ability-scores/ability-scores#TOC-Dexterity-Dex-\">Dex</a>),&nbsp;<a href=\"https://www.d20pfsrd.com/skills/sense-motive\">Sense Motive</a>&nbsp;(<a href=\"https://www.d20pfsrd.com/basics-ability-scores/ability-scores#TOC-Wisdom-Wis-\">Wis</a>), and&nbsp;<a href=\"https://www.d20pfsrd.com/skills/swim\">Swim</a>&nbsp;(<a href=\"https://www.d20pfsrd.com/basics-ability-scores/ability-scores#TOC-Strength-Str-\">Str</a>).</p>\n<p><strong>Skill Ranks per Level</strong>: 4 +&nbsp;<a href=\"https://www.d20pfsrd.com/basics-ability-scores/ability-scores#TOC-Intelligence-Int-\">Int</a> modifier.</p>"
    },
    "tags": [],
    "changes": [],
    "links": {
      "children": [],
      "classAssociations": [
        {
          "id": "pf1.class-abilities.W6lurGAdeDsAch3G",
          "dataType": "compendium",
          "name": "Improved Awesome Blow",
          "img": "systems/pf1/icons/skills/yellow_10.jpg",
          "hiddenLinks": {},
          "level": 20,
          "_index": 0
        },
        {
          "id": "pf1.class-abilities.EnMgClQRxY1GXg4e",
          "dataType": "compendium",
          "name": "Awesome Blow",
          "img": "systems/pf1/icons/skills/violet_28.jpg",
          "hiddenLinks": {},
          "level": 16,
          "_index": 1
        },
        {
          "id": "pf1.class-abilities.o8AEIzEXMjEZ2EX1",
          "dataType": "compendium",
          "name": "Bonus Combat Feats (BRA)",
          "img": "systems/pf1/icons/skills/gray_08.jpg",
          "hiddenLinks": {},
          "level": 2,
          "_index": 2
        },
        {
          "id": "pf1.class-abilities.6wtTc1PRWBKZuF9D",
          "dataType": "compendium",
          "name": "Brawler's Cunning",
          "img": "systems/pf1/icons/skills/yellow_08.jpg",
          "hiddenLinks": {},
          "level": 1,
          "_index": 3
        },
        {
          "id": "pf1.class-abilities.sOwXPOtI5IlEBKwr",
          "dataType": "compendium",
          "name": "Martial Flexibility",
          "img": "systems/pf1/icons/skills/yellow_27.jpg",
          "hiddenLinks": {},
          "level": 1,
          "_index": 4
        },
        {
          "id": "pf1.class-abilities.agVFqf3mfxf0l8oT",
          "dataType": "compendium",
          "name": "Martial Training",
          "img": "systems/pf1/icons/skills/blue_23.jpg",
          "hiddenLinks": {},
          "level": 1,
          "_index": 5
        },
        {
          "id": "pf1.class-abilities.dlrAyDyBF8ldtpH8",
          "dataType": "compendium",
          "name": "Unarmed Strike (BRA)",
          "img": "systems/pf1/icons/skills/blood_11.jpg",
          "hiddenLinks": {},
          "level": 1,
          "_index": 6
        },
        {
          "id": "pf1.class-abilities.UwcsrKHgN6mEo8Bd",
          "dataType": "compendium",
          "name": "Brawler's Flurry",
          "img": "systems/pf1/icons/skills/fire_07.jpg",
          "hiddenLinks": {},
          "level": 2,
          "_index": 7
        },
        {
          "id": "pf1.class-abilities.n1PlbzPfZGklyUVV",
          "dataType": "compendium",
          "name": "Maneuver Training (BRA)",
          "img": "systems/pf1/icons/feats/greater-sunder.jpg",
          "hiddenLinks": {},
          "level": 3,
          "_index": 8
        },
        {
          "id": "pf1.class-abilities.Z53orCz6KeTS5LOb",
          "dataType": "compendium",
          "name": "AC Bonus (BRA)",
          "img": "systems/pf1/icons/feats/dodge.jpg",
          "hiddenLinks": {},
          "level": 4,
          "_index": 9
        },
        {
          "id": "pf1.class-abilities.SQXP7EIAIH22DM39",
          "dataType": "compendium",
          "name": "Knockout",
          "img": "systems/pf1/icons/feats/extra-rage.jpg",
          "hiddenLinks": {},
          "level": 4,
          "_index": 10
        },
        {
          "id": "pf1.class-abilities.7ORiNdGyLzGddgNK",
          "dataType": "compendium",
          "name": "Brawler's Strike",
          "img": "systems/pf1/icons/feats/stunning-fist.jpg",
          "hiddenLinks": {},
          "level": 5,
          "_index": 11
        }
      ]
    },
    "tag": "brawler",
    "useCustomTag": true,
    "armorProf": {
      "value": ["lgt", "shl"]
    },
    "weaponProf": {
      "value": ["sim"],
      "custom": "Handaxe;Short sword;Close Weapon Group"
    },
    "languages": {
      "value": []
    },
    "flags": {
      "boolean": [],
      "dictionary": []
    },
    "scriptCalls": [],
    "hd": 10,
    "hp": 10,
    "bab": "high",
    "skillsPerLevel": 4,
    "savingThrows": {
      "fort": {
        "value": "high"
      },
      "ref": {
        "value": "high"
      }
    },
    "classSkills": {
      "acr": true,
      "apr": false,
      "art": false,
      "blf": false,
      "clm": true,
      "crf": true,
      "dip": false,
      "dev": false,
      "dis": false,
      "esc": true,
      "fly": false,
      "han": true,
      "hea": false,
      "int": true,
      "kar": false,
      "kdu": true,
      "ken": false,
      "kge": false,
      "khi": false,
      "klo": true,
      "kna": false,
      "kno": false,
      "kpl": false,
      "kre": false,
      "lin": false,
      "lor": false,
      "per": true,
      "prf": false,
      "pro": true,
      "rid": true,
      "sen": true,
      "slt": false,
      "spl": false,
      "ste": false,
      "sur": false,
      "swm": true,
      "umd": false
    }
  },
  "effects": [],
  "folder": null,
  "sort": 0,
  "permission": {
    "default": 0
  },
  "flags": {}
}
