{
  "_id": "u1ed3H9xtYQXTP5v",
  "name": "Cavalier",
  "type": "class",
  "img": "systems/pf1/icons/items/inventory/horseshoe.jpg",
  "data": {
    "description": {
      "value": "<p>While many warriors strive to perfect their art, spending all of their time honing their skill at martial arms, others spend as much effort dedicating themselves to a cause. These warriors, known as cavaliers, swear themselves to a purpose, serving it above all else. Cavaliers are skilled at fighting from horseback, and are often found charging across a battlefield, with the symbol of their order trailing on a long, fluttering banner. The cavalier’s true power comes from the conviction of his ideals, the oaths that he swears, and the challenges he makes.</p>\n<p><strong>Role</strong>: Cavaliers tend to marshal forces on the battlefield, using their mounted talents and challenges to control the flow of the fight. Outside of battle, cavaliers can be found advancing their cause through diplomacy and, if needed, subterfuge. The cavalier is no stranger to courtly intrigue and can hold his own in even the most delicate of social situations.</p>\n<p><strong>Alignment</strong>: Any.</p>\n<p><strong>Hit Dice</strong>: d10.</p>\n<p><strong>Starting Wealth</strong>: 5d6 × 10 gp (average 175gp.) In addition, each character begins play with an outfit worth 10 gp or less.</p>\n<h2><span id=\"Class_Skills\">Class Skills</span></h2>\n<p>The cavalier’s class skills are&nbsp;<a href=\"https://www.d20pfsrd.com/skills/bluff\">Bluff</a>&nbsp;(<a href=\"https://www.d20pfsrd.com/basics-ability-scores/ability-scores#TOC-Charisma-Cha-\">Cha</a>),&nbsp;<a href=\"https://www.d20pfsrd.com/skills/climb\">Climb</a>&nbsp;(<a href=\"https://www.d20pfsrd.com/basics-ability-scores/ability-scores#TOC-Strength-Str-\">Str</a>),&nbsp;<a href=\"https://www.d20pfsrd.com/skills/craft\">Craft</a>&nbsp;(<a href=\"https://www.d20pfsrd.com/basics-ability-scores/ability-scores#TOC-Intelligence-Int-\">Int</a>),&nbsp;<a href=\"https://www.d20pfsrd.com/skills/diplomacy\">Diplomacy</a>&nbsp;(<a href=\"https://www.d20pfsrd.com/basics-ability-scores/ability-scores#TOC-Charisma-Cha-\">Cha</a>),&nbsp;<a href=\"https://www.d20pfsrd.com/skills/handle-animal\">Handle Animal</a>&nbsp;(<a href=\"https://www.d20pfsrd.com/basics-ability-scores/ability-scores#TOC-Charisma-Cha-\">Cha</a>),&nbsp;<a href=\"https://www.d20pfsrd.com/skills/intimidate\">Intimidate</a>&nbsp;(<a href=\"https://www.d20pfsrd.com/basics-ability-scores/ability-scores#TOC-Charisma-Cha-\">Cha</a>),&nbsp;<a href=\"https://www.d20pfsrd.com/skills/profession\">Profession</a>&nbsp;(<a href=\"https://www.d20pfsrd.com/basics-ability-scores/ability-scores#TOC-Wisdom-Wis-\">Wis</a>),&nbsp;<a href=\"https://www.d20pfsrd.com/skills/ride\">Ride</a>&nbsp;(<a href=\"https://www.d20pfsrd.com/basics-ability-scores/ability-scores#TOC-Dexterity-Dex-\">Dex</a>),&nbsp;<a href=\"https://www.d20pfsrd.com/skills/sense-motive\">Sense Motive</a>&nbsp;(<a href=\"https://www.d20pfsrd.com/basics-ability-scores/ability-scores#TOC-Wisdom-Wis-\">Wis</a>), and&nbsp;<a href=\"https://www.d20pfsrd.com/skills/swim\">Swim</a>&nbsp;(<a href=\"https://www.d20pfsrd.com/basics-ability-scores/ability-scores#TOC-Strength-Str-\">Str</a>).</p>\n<p><strong>Skill Ranks per Level</strong>: 4 +&nbsp;<a href=\"https://www.d20pfsrd.com/basics-ability-scores/ability-scores#TOC-Intelligence-Int-\">Int</a> modifier</p>"
    },
    "tags": [],
    "changes": [],
    "links": {
      "children": [],
      "classAssociations": [
        {
          "id": "pf1.class-abilities.WNi2SBF6Z2zhBMCl",
          "dataType": "compendium",
          "name": "Challenge (CAV)",
          "img": "systems/pf1/icons/skills/light_05.jpg",
          "hiddenLinks": {},
          "level": 1,
          "_index": 0
        },
        {
          "id": "pf1.class-abilities.P2XyBCDEUGOFwRAF",
          "dataType": "compendium",
          "name": "Mount",
          "img": "systems/pf1/icons/feats/animal-affinity.jpg",
          "hiddenLinks": {},
          "level": 1,
          "_index": 1
        },
        {
          "id": "pf1.class-abilities.c3MSLdplxdRZrSxL",
          "dataType": "compendium",
          "name": "Order",
          "img": "systems/pf1/icons/feats/dazzling-display.jpg",
          "hiddenLinks": {},
          "level": 1,
          "_index": 2
        },
        {
          "id": "pf1.class-abilities.YKyAQ2o5Yzox79B8",
          "dataType": "compendium",
          "name": "Tactician",
          "img": "systems/pf1/icons/feats/strike-back.jpg",
          "hiddenLinks": {},
          "level": 1,
          "_index": 3
        },
        {
          "id": "pf1.class-abilities.QGv2YjclwgkruFE6",
          "dataType": "compendium",
          "name": "Cavalier's Charge",
          "img": "systems/pf1/icons/feats/trample.jpg",
          "hiddenLinks": {},
          "level": 3,
          "_index": 4
        },
        {
          "id": "pf1.class-abilities.nBpz562qzAntafUI",
          "dataType": "compendium",
          "name": "Expert Trainer",
          "img": "systems/pf1/icons/feats/stand-still.jpg",
          "hiddenLinks": {},
          "level": 4,
          "_index": 5
        },
        {
          "id": "pf1.class-abilities.pqu1Mvo46iRpVH3I",
          "dataType": "compendium",
          "name": "Banner",
          "img": "systems/pf1/icons/items/inventory/badge-banner.jpg",
          "hiddenLinks": {},
          "level": 5,
          "_index": 6
        },
        {
          "id": "pf1.class-abilities.vfu0FW2XYF7cBUQp",
          "dataType": "compendium",
          "name": "Bonus Feat (CAV)",
          "img": "systems/pf1/icons/items/inventory/map-treasure.jpg",
          "hiddenLinks": {},
          "level": 6,
          "_index": 7
        },
        {
          "id": "pf1.class-abilities.ikVwT8b9zfj701k1",
          "dataType": "compendium",
          "name": "Greater Tactician",
          "img": "systems/pf1/icons/items/inventory/scroll-druid.jpg",
          "hiddenLinks": {},
          "level": 9,
          "_index": 8
        },
        {
          "id": "pf1.class-abilities.fo3SQLOjFcQSmVMJ",
          "dataType": "compendium",
          "name": "Mighty Charge",
          "img": "systems/pf1/icons/feats/spirited-charge.jpg",
          "hiddenLinks": {},
          "level": 11,
          "_index": 9
        },
        {
          "id": "pf1.class-abilities.jqXRcfZYvBL50z0q",
          "dataType": "compendium",
          "name": "Demanding Challenge",
          "img": "systems/pf1/icons/feats/stunning-critical.jpg",
          "hiddenLinks": {},
          "level": 12,
          "_index": 10
        },
        {
          "id": "pf1.class-abilities.1Yy6Fn3UD82uviFg",
          "dataType": "compendium",
          "name": "Greater Banner",
          "img": "systems/pf1/icons/items/inventory/tabard-green.jpg",
          "hiddenLinks": {},
          "level": 14,
          "_index": 11
        },
        {
          "id": "pf1.class-abilities.mrJ61WiA6PuZgPTJ",
          "dataType": "compendium",
          "name": "Master Tacitician",
          "img": "systems/pf1/icons/items/inventory/note-scroll.jpg",
          "hiddenLinks": {},
          "level": 17,
          "_index": 12
        },
        {
          "id": "pf1.class-abilities.pZaZcT8gMPQGX9Ur",
          "dataType": "compendium",
          "name": "Supreme Charge",
          "img": "systems/pf1/icons/feats/spirited-charge.jpg",
          "hiddenLinks": {},
          "level": 20,
          "_index": 13
        }
      ]
    },
    "tag": "cavalier",
    "useCustomTag": true,
    "armorProf": {
      "value": ["lgt", "med", "hvy", "shl"]
    },
    "weaponProf": {
      "value": ["sim", "mar"]
    },
    "languages": {
      "value": []
    },
    "flags": {
      "boolean": [],
      "dictionary": []
    },
    "scriptCalls": [],
    "hd": 10,
    "hp": 10,
    "bab": "high",
    "skillsPerLevel": 4,
    "savingThrows": {
      "fort": {
        "value": "high"
      }
    },
    "classSkills": {
      "blf": true,
      "acr": false,
      "apr": false,
      "art": false,
      "clm": true,
      "crf": true,
      "dip": true,
      "dev": false,
      "dis": false,
      "esc": false,
      "fly": false,
      "han": true,
      "hea": false,
      "int": true,
      "kar": false,
      "kdu": false,
      "ken": false,
      "kge": false,
      "khi": false,
      "klo": false,
      "kna": false,
      "kno": false,
      "kpl": false,
      "kre": false,
      "lin": false,
      "lor": false,
      "per": false,
      "prf": false,
      "pro": true,
      "rid": true,
      "sen": true,
      "slt": false,
      "spl": false,
      "ste": false,
      "sur": false,
      "swm": true,
      "umd": false
    }
  },
  "effects": [],
  "folder": null,
  "sort": 0,
  "permission": {
    "default": 0
  },
  "flags": {}
}
