{
  "_id": "W8dxwZ1CZiwLKsqr",
  "name": "Monk",
  "type": "class",
  "img": "systems/pf1/icons/items/equipment/gloves.jpg",
  "data": {
    "description": {
      "value": "<p>For the truly exemplary, martial skill transcends the battlefield—it is a lifestyle, a doctrine, a state of mind. These warrior-artists search out methods of battle beyond swords and shields, finding weapons within themselves just as capable of crippling or killing as any blade. These monks (so called since they adhere to ancient philosophies and strict martial disciplines) elevate their bodies to become weapons of war, from battle-minded ascetics to self-taught brawlers. Monks tread the path of discipline, and those with the will to endure that path discover within themselves not what they are, but what they are meant to be.</p>\n<p><strong>Role</strong>: Monks excel at overcoming even the most daunting perils, striking where it’s least expected, and taking advantage of enemy vulnerabilities. Fleet of foot and skilled in combat, monks can navigate any battlefield with ease, aiding allies wherever they are needed most.</p>\n<p><strong>Alignment</strong>: Any lawful</p>\n<p><strong>Hit Die</strong>: d8</p>\n<p><strong>Starting Wealth</strong>: 1d6 × 10 gp (average 35 gp.) In addition, each character begins play with an outfit worth 10 gp or less.</p>\n<h2><span id=\"Class_Skills\">Class Skills</span></h2>\n<p>The monk’s class skills are&nbsp;<a href=\"https://www.d20pfsrd.com/skills/acrobatics\">Acrobatics</a>&nbsp;(<a href=\"https://www.d20pfsrd.com/basics-ability-scores/ability-scores#TOC-Dexterity-Dex-\">Dex</a>),&nbsp;<a href=\"https://www.d20pfsrd.com/skills/climb\">Climb</a>&nbsp;(<a href=\"https://www.d20pfsrd.com/basics-ability-scores/ability-scores#TOC-Strength-Str-\">Str</a>),&nbsp;<a href=\"https://www.d20pfsrd.com/skills/craft\">Craft</a>&nbsp;(<a href=\"https://www.d20pfsrd.com/basics-ability-scores/ability-scores#TOC-Intelligence-Int-\">Int</a>),&nbsp;<a href=\"https://www.d20pfsrd.com/skills/escape-artist\">Escape Artist</a>&nbsp;(<a href=\"https://www.d20pfsrd.com/basics-ability-scores/ability-scores#TOC-Dexterity-Dex-\">Dex</a>),&nbsp;<a href=\"https://www.d20pfsrd.com/skills/intimidate\">Intimidate</a>&nbsp;(<a href=\"https://www.d20pfsrd.com/basics-ability-scores/ability-scores#TOC-Charisma-Cha-\">Cha</a>),&nbsp;<a href=\"https://www.d20pfsrd.com/skills/knowledge\">Knowledge</a>&nbsp;(history) (<a href=\"https://www.d20pfsrd.com/basics-ability-scores/ability-scores#TOC-Intelligence-Int-\">Int</a>),&nbsp;<a href=\"https://www.d20pfsrd.com/skills/knowledge\">Knowledge</a>&nbsp;(religion) (<a href=\"https://www.d20pfsrd.com/basics-ability-scores/ability-scores#TOC-Intelligence-Int-\">Int</a>),&nbsp;<a href=\"https://www.d20pfsrd.com/skills/perception\">Perception</a>&nbsp;(<a href=\"https://www.d20pfsrd.com/basics-ability-scores/ability-scores#TOC-Wisdom-Wis-\">Wis</a>),&nbsp;<a href=\"https://www.d20pfsrd.com/skills/perform\">Perform</a>&nbsp;(<a href=\"https://www.d20pfsrd.com/basics-ability-scores/ability-scores#TOC-Charisma-Cha-\">Cha</a>),&nbsp;<a href=\"https://www.d20pfsrd.com/skills/profession\">Profession</a>&nbsp;(<a href=\"https://www.d20pfsrd.com/basics-ability-scores/ability-scores#TOC-Wisdom-Wis-\">Wis</a>),&nbsp;<a href=\"https://www.d20pfsrd.com/skills/ride\">Ride</a>&nbsp;(<a href=\"https://www.d20pfsrd.com/basics-ability-scores/ability-scores#TOC-Dexterity-Dex-\">Dex</a>),&nbsp;<a href=\"https://www.d20pfsrd.com/skills/sense-motive\">Sense Motive</a>&nbsp;(<a href=\"https://www.d20pfsrd.com/basics-ability-scores/ability-scores#TOC-Wisdom-Wis-\">Wis</a>),&nbsp;<a href=\"https://www.d20pfsrd.com/skills/stealth\">Stealth</a>&nbsp;(<a href=\"https://www.d20pfsrd.com/basics-ability-scores/ability-scores#TOC-Dexterity-Dex-\">Dex</a>), and&nbsp;<a href=\"https://www.d20pfsrd.com/skills/swim\">Swim</a>&nbsp;(<a href=\"https://www.d20pfsrd.com/basics-ability-scores/ability-scores#TOC-Strength-Str-\">Str</a>).</p>\n<p><strong>Skill Ranks per Level</strong>: 4 +&nbsp;<a href=\"https://www.d20pfsrd.com/basics-ability-scores/ability-scores#TOC-Intelligence-Int-\">Int</a> modifier.</p>"
    },
    "tags": [],
    "changes": [],
    "links": {
      "children": [],
      "classAssociations": [
        {
          "id": "pf1.class-abilities.VjHjPja5QABBgRvR",
          "dataType": "compendium",
          "name": "Bonus Feat (MNK)",
          "img": "systems/pf1/icons/skills/blue_10.jpg",
          "hiddenLinks": {},
          "level": 1,
          "_index": 0
        },
        {
          "id": "pf1.class-abilities.JKJoHy5NveXGaZqv",
          "dataType": "compendium",
          "name": "Flurry of Blows",
          "img": "systems/pf1/icons/items/weapons/claw-blades.PNG",
          "hiddenLinks": {},
          "level": 1,
          "_index": 1
        },
        {
          "id": "pf1.class-abilities.2ausI8g6SsmbOpgF",
          "dataType": "compendium",
          "name": "Stunning Fist",
          "img": "systems/pf1/icons/skills/yellow_08.jpg",
          "hiddenLinks": {},
          "level": 1,
          "_index": 2
        },
        {
          "id": "pf1.class-abilities.a4SPdPuOFdmfJdHN",
          "dataType": "compendium",
          "name": "Unarmed Strike",
          "img": "systems/pf1/icons/skills/blood_11.jpg",
          "hiddenLinks": {},
          "level": 1,
          "_index": 3
        },
        {
          "id": "pf1.class-abilities.KQYCRLEdD4bGA5ak",
          "dataType": "compendium",
          "name": "Evasion",
          "img": "systems/pf1/icons/skills/blue_06.jpg",
          "hiddenLinks": {},
          "level": 2,
          "_index": 4
        },
        {
          "id": "pf1.class-abilities.Cc2eFfhJYlClCGEH",
          "dataType": "compendium",
          "name": "Improved Evasion",
          "img": "systems/pf1/icons/skills/blue_06.jpg",
          "hiddenLinks": {},
          "level": 9,
          "_index": 5
        },
        {
          "id": "pf1.class-abilities.CK5L0YJDENqBxLqv",
          "dataType": "compendium",
          "name": "Fast Movement (MNK)",
          "img": "systems/pf1/icons/feats/dodge.jpg",
          "hiddenLinks": {},
          "level": 3,
          "_index": 6
        },
        {
          "id": "pf1.class-abilities.E7enBZN7FCsoyIof",
          "dataType": "compendium",
          "name": "Maneuver Training",
          "img": "systems/pf1/icons/feats/athletic.jpg",
          "hiddenLinks": {},
          "level": 3,
          "_index": 7
        },
        {
          "id": "pf1.class-abilities.8VUae7CIgCidvSfg",
          "dataType": "compendium",
          "name": "Still Mind",
          "img": "systems/pf1/icons/feats/blind-fight.jpg",
          "hiddenLinks": {},
          "level": 3,
          "_index": 8
        },
        {
          "id": "pf1.class-abilities.2Og23i3rRXu5QQlg",
          "dataType": "compendium",
          "name": "ki Pool",
          "img": "systems/pf1/icons/skills/red_09.jpg",
          "hiddenLinks": {},
          "level": 4,
          "_index": 9
        },
        {
          "id": "pf1.class-abilities.M4bXVPXouXroIt90",
          "dataType": "compendium",
          "name": "Slow Fall",
          "img": "systems/pf1/icons/skills/red_05.jpg",
          "hiddenLinks": {},
          "level": 4,
          "_index": 10
        },
        {
          "id": "pf1.class-abilities.WJEF9WHs27kaFYJL",
          "dataType": "compendium",
          "name": "High Jump",
          "img": "systems/pf1/icons/skills/yellow_13.jpg",
          "hiddenLinks": {},
          "level": 5,
          "_index": 11
        },
        {
          "id": "pf1.class-abilities.82G7gl4C1AvtSHI4",
          "dataType": "compendium",
          "name": "Purity of Body",
          "img": "systems/pf1/icons/skills/blue_35.jpg",
          "hiddenLinks": {},
          "level": 5,
          "_index": 12
        },
        {
          "id": "pf1.class-abilities.nRffrQSKTqjeBAO5",
          "dataType": "compendium",
          "name": "Diamond Body",
          "img": "systems/pf1/icons/skills/blue_28.jpg",
          "hiddenLinks": {},
          "level": 11,
          "_index": 13
        },
        {
          "id": "pf1.class-abilities.XJtvco1XWggmr5LU",
          "dataType": "compendium",
          "name": "Abundant Step",
          "img": "systems/pf1/icons/spells/protect-blue-2.jpg",
          "hiddenLinks": {},
          "level": 12,
          "_index": 14
        },
        {
          "id": "pf1.class-abilities.bCdFkzKiVg52ufhu",
          "dataType": "compendium",
          "name": "Diamond Soul",
          "img": "systems/pf1/icons/spells/ice-blue-1.jpg",
          "hiddenLinks": {},
          "level": 13,
          "_index": 15
        },
        {
          "id": "pf1.class-abilities.n4SWyKVcdmZK4t7d",
          "dataType": "compendium",
          "name": "Quivering Palm",
          "img": "systems/pf1/icons/feats/combat-casting.jpg",
          "hiddenLinks": {},
          "level": 15,
          "_index": 16
        },
        {
          "id": "pf1.class-abilities.5JlthJkVGEHPZypG",
          "dataType": "compendium",
          "name": "Timeless Body",
          "img": "systems/pf1/icons/skills/green_15.jpg",
          "hiddenLinks": {},
          "level": 17,
          "_index": 17
        },
        {
          "id": "pf1.class-abilities.NKzRm45051DUHkd5",
          "dataType": "compendium",
          "name": "Tongue of the Sun and Moon",
          "img": "systems/pf1/icons/feats/natural-spell.jpg",
          "hiddenLinks": {},
          "level": 17,
          "_index": 18
        },
        {
          "id": "pf1.class-abilities.dtnkUkinLVIl1b2T",
          "dataType": "compendium",
          "name": "Empty Body",
          "img": "systems/pf1/icons/feats/blinding-critical.jpg",
          "hiddenLinks": {},
          "level": 19,
          "_index": 19
        },
        {
          "id": "pf1.class-abilities.NNEU7hzPSu2LTyZv",
          "dataType": "compendium",
          "name": "Perfect Self",
          "img": "systems/pf1/icons/feats/exhausting-critical.jpg",
          "hiddenLinks": {},
          "level": 20,
          "_index": 20
        },
        {
          "id": "pf1.class-abilities.4zVndIJ8NMWWzl1T",
          "dataType": "compendium",
          "name": "AC Bonus (MNK)",
          "img": "systems/pf1/icons/spells/fog-air-1.jpg",
          "hiddenLinks": {},
          "level": 1,
          "_index": 21
        }
      ]
    },
    "tag": "monk",
    "useCustomTag": true,
    "armorProf": {
      "value": []
    },
    "weaponProf": {
      "value": [],
      "custom": "Brass Knuckles;Cestus;Club;Crossbow (light or heavy);Dagger;Handaxe;Javelin;Kama;Nunchaku;Quarterstaff;Sai;Shortspear;Short Sword;Shuriken;Siangham;Sling;Spear;Temple Sword"
    },
    "languages": {
      "value": []
    },
    "flags": {
      "boolean": [],
      "dictionary": []
    },
    "scriptCalls": [],
    "bab": "med",
    "skillsPerLevel": 4,
    "savingThrows": {
      "fort": {
        "value": "high"
      },
      "ref": {
        "value": "high"
      },
      "will": {
        "value": "high"
      }
    },
    "classSkills": {
      "acr": true,
      "apr": false,
      "art": false,
      "blf": false,
      "clm": true,
      "crf": true,
      "dip": false,
      "dev": false,
      "dis": false,
      "esc": true,
      "fly": false,
      "han": false,
      "hea": false,
      "int": true,
      "kar": false,
      "kdu": false,
      "ken": false,
      "kge": false,
      "khi": true,
      "klo": false,
      "kna": false,
      "kno": false,
      "kpl": false,
      "kre": true,
      "lin": false,
      "lor": false,
      "per": true,
      "prf": true,
      "pro": true,
      "rid": true,
      "sen": true,
      "slt": false,
      "spl": false,
      "ste": true,
      "sur": false,
      "swm": true,
      "umd": false
    }
  },
  "effects": [],
  "folder": null,
  "sort": 0,
  "permission": {
    "default": 0
  },
  "flags": {}
}
