{
  "name": "Climb",
  "permission": {
    "default": 0
  },
  "flags": {},
  "content": "<p>Source&nbsp;<a href=\"http://paizo.com/pathfinderRPG/v5748btpy88yj\" target=\"_blank\" rel=\"noopener\">PRPG Core Rulebook pg. 90</a><br>You are skilled at scaling vertical surfaces, from smooth city walls to rocky cliffs.</p>\n<p><strong>Check:</strong> With a successful Climb check, you can advance up, down, or across a slope, wall, or other steep incline (or even across a ceiling, provided it has handholds) at one-quarter your normal speed. A slope is considered to be any incline at an angle measuring less than 60 degrees; a wall is any incline at an angle measuring 60 degrees or more.</p>\n<p>A Climb check that fails by 4 or less means that you make no progress, and one that fails by 5 or more means that you fall from whatever height you have already attained.</p>\n<p>The DC of the check depends on the conditions of the climb. Compare the task with those on the following table to determine an appropriate DC.</p>\n<table>\n<thead>\n<tr>\n<td scope=\"col\">Climb DC</td>\n<td scope=\"col\">Example Surface or Activity</td>\n</tr>\n</thead>\n<tbody>\n<tr>\n<td>0</td>\n<td>A slope too steep to walk up, or a knotted rope with a wall to brace against.</td>\n</tr>\n<tr>\n<td>5</td>\n<td>A rope with a wall to brace against, or a knotted rope, or a rope affected by the rope trick spell.</td>\n</tr>\n<tr>\n<td>10</td>\n<td>A surface with ledges to hold on to and stand on, such as a very rough wall or a ship’s rigging.</td>\n</tr>\n<tr>\n<td>15</td>\n<td>Any surface with adequate handholds and footholds (natural or artificial), such as a very rough natural rock surface or a tree, or an unknotted rope, or pulling yourself up when dangling by your hands.</td>\n</tr>\n<tr>\n<td>20</td>\n<td>An uneven surface with narrow handholds and footholds, such as a typical wall in a dungeon.</td>\n</tr>\n<tr>\n<td>25</td>\n<td>A rough surface, such as a natural rock wall or a brick wall.</td>\n</tr>\n<tr>\n<td>30</td>\n<td>An overhang or ceiling with handholds only.</td>\n</tr>\n<tr>\n<td>—</td>\n<td>A perfectly smooth, flat vertical (or inverted) surface cannot be climbed.</td>\n</tr>\n</tbody>\n</table>\n<p>&nbsp;</p>\n<table>\n<thead>\n<tr>\n<td scope=\"col\">Climb DC Modifier*</td>\n<td scope=\"col\">Example Surface or Activity</td>\n</tr>\n</thead>\n<tbody>\n<tr>\n<td>–10</td>\n<td>Climbing a chimney (artificial or natural) or other location where you can brace against two opposite walls.</td>\n</tr>\n<tr>\n<td>–5</td>\n<td>Climbing a corner where you can brace against perpendicular walls.</td>\n</tr>\n<tr>\n<td>+5</td>\n<td>Surface is slippery.</td>\n</tr>\n</tbody>\n</table>\n<p><sup>* These modifiers are cumulative; use all that apply.</sup><br>You need both hands free to climb, but you may cling to a wall with one hand while you cast a spell or take some other action that requires only one hand. While climbing, you can’t move to avoid a blow, so you lose your Dexterity bonus to AC (if any). You also can’t use a shield while climbing. Anytime you take damage while climbing, make a Climb check against the DC of the slope or wall. Failure means you fall from your current height and sustain the appropriate falling damage.</p>\n<p><strong>Accelerated Climbing:</strong> You try to climb more quickly than normal. By accepting a –5 penalty, you can move half your speed (instead of one-quarter your speed).</p>\n<p><strong>Make Your Own Handholds and Footholds:</strong> You can make your own handholds and footholds by pounding pitons into a wall. Doing so takes 1 minute per piton, and one piton is needed per 5 feet of distance. As with any surface that offers handholds and footholds, a wall with pitons in it has a DC of 15. In the same way, a climber with a handaxe or similar implement can cut handholds in an ice wall.</p>\n<p><strong>Catch Yourself When Falling:</strong> It’s practically impossible to catch yourself on a wall while falling, yet if you wish to attempt such a difficult task, you can make a Climb check (DC = wall’s DC + 20) to do so. It’s much easier to catch yourself on a slope (DC = slope’s DC + 10).</p>\n<p><strong>Catch a Falling Character While Climbing:</strong> If someone climbing above you or adjacent to you falls, you can attempt to catch the falling character if he or she is within your reach. Doing so requires a successful melee touch attack against the falling character (though he or she can voluntarily forego any Dexterity bonus to AC if desired). If you hit, you must immediately attempt a Climb check (DC = wall’s DC + 10). Success indicates that you catch the falling character, but his total weight, including equipment, cannot exceed your heavy load limit or you automatically fall. If you fail your Climb check by 4 or less, you fail to stop the character’s fall but don’t lose your grip on the wall. If you fail by 5 or more, you fail to stop the character’s fall and begin falling as well.</p>\n<p><strong>Action:</strong> Climbing is part of movement, so it’s generally part of a move action (and may be combined with other types of movement in a move action). Each move action that includes any climbing requires a separate Climb check. Catching yourself or another falling character doesn’t take an action.</p>\n<p><strong>Special:</strong> You can use a rope to haul a character upward (or lower a character) through sheer strength. You can lift double your maximum load in this manner.</p>\n<p>A creature with a climb speed has a +8 racial bonus on all Climb checks. The creature must make a Climb check to climb any wall or slope with a DC higher than 0, but it can always choose to take 10, even if rushed or threatened while climbing. If a creature with a climb speed chooses an accelerated climb (see above), it moves at double its climb speed (or at its land speed, whichever is slower) and makes a single Climb check at a –5 penalty. Such a creature retains its Dexterity bonus to Armor Class (if any) while climbing, and opponents get no special bonus to their attacks against it. It cannot, however, use the run action while climbing.</p>\n<p>If you have the@Compendium[pf1.feats.rMR6ahXEfYqASE7D]{Athletic}&nbsp; feat, you get a bonus on Climb checks (see Feats).</p>\n<h1>Unchained - Skill Unlock</h1>\n<p><strong>Source</strong>&nbsp;<a href=\"http://paizo.com/products/btpy9c25?Pathfinder-Roleplaying-Game-Pathfinder-Unchained\" target=\"_blank\" rel=\"noopener\">Pathfinder Unchained pg. 82</a><br>With sufficient ranks in Climb, you earn the following.</p>\n<p><strong>5 Ranks:</strong> You are no longer denied your Dexterity bonus when climbing.</p>\n<p><strong>10 Ranks:</strong> You gain a natural climb speed (but not the +8 racial bonus on Climb checks) of 10 feet, but only on surfaces with a Climb DC of 20 or lower.</p>\n<p><strong>15 Ranks:</strong> You gain a natural climb speed (but not the +8 racial bonus on Climb checks) equal to your base speed on surfaces with a Climb DC of 20 or lower, and of 10 feet on all other surfaces.</p>\n<p><strong>20 Ranks:</strong> You gain a natural climb speed equal to your base speed on all surfaces. If you have both hands free, you gain a +8 racial bonus on Climb checks.</p>",
  "_id": "xvua9V5Zggkc77Gt"
}
