{
  "name": "Ride",
  "permission": {
    "default": 0
  },
  "flags": {},
  "content": "<p><strong>Source</strong>&nbsp;<a href=\"http://paizo.com/pathfinderRPG/v5748btpy88yj\" target=\"_blank\" rel=\"noopener\">PRPG Core Rulebook pg. 103</a><br>You are skilled at riding mounts, usually a horse, but possibly something more exotic, like a griffon or pegasus. If you attempt to ride a creature that is ill suited as a mount, you take a –5 penalty on your Ride checks.</p>\n<p><strong>Check:</strong> Typical riding actions don’t require checks. You can saddle, mount, ride, and dismount from a mount without a problem. The following tasks do require checks.</p>\n<table>\n<thead>\n<tr>\n<td scope=\"col\">Task</td>\n<td scope=\"col\">Ride DC</td>\n</tr>\n</thead>\n<tbody>\n<tr>\n<td>Guide with knees</td>\n<td>5</td>\n</tr>\n<tr>\n<td>Stay in saddle</td>\n<td>5</td>\n</tr>\n<tr>\n<td>Fight with a combat-trained mount</td>\n<td>10</td>\n</tr>\n<tr>\n<td>Cover</td>\n<td>15</td>\n</tr>\n<tr>\n<td>Soft fall</td>\n<td>15</td>\n</tr>\n<tr>\n<td>Leap</td>\n<td>15</td>\n</tr>\n<tr>\n<td>Spur mount</td>\n<td>15</td>\n</tr>\n<tr>\n<td>Control mount in battle</td>\n<td>20</td>\n</tr>\n<tr>\n<td>Fast mount or dismount</td>\n<td>20</td>\n</tr>\n</tbody>\n</table>\n<p><strong>Guide with Knees:</strong> You can guide your mount with your knees so you can use both hands in combat. Make your Ride check at the start of your turn. If you fail, you can use only one hand this round because you need to use the other to control your mount. This does not take an action.</p>\n<p><strong>Stay in Saddle:</strong> You can react instantly to try to avoid falling when your mount rears or bolts unexpectedly or when you take damage. This usage does not take an action.</p>\n<p><strong>Fight with a Combat-Trained Mount:</strong> If you direct your war-trained mount to attack in battle, you can still make your own attack or attacks normally. This usage is a free action.</p>\n<p><strong>Cover:</strong> You can react instantly to drop down and hang alongside your mount, using it as cover. You can’t attack or cast spells while using your mount as cover. If you fail your Ride check, you don’t get the cover benefit. Using this option is an immediate action, but recovering from this position is a move action (no check required).</p>\n<p><strong>Soft Fall:</strong> You negate damage when you fall off a mount. If you fail the Ride check, you take 1d6 points of damage and are @Compendium[pf1.conditions.Av5KcblR1Wd68uWY]{prone}. This usage does not take an action.</p>\n<p><strong>Leap:</strong> You can get your mount to leap obstacles as part of its movement. If the Ride check to make the leap succeeds, make a check using your Ride modifier or the mount’s jump modifier, which is lower, to see how far the creature can jump. If you fail your Ride check, you fall off the mount when it leaps and take the appropriate falling damage (at least 1d6 points). This usage does not take an action but is part of the mount’s movement.</p>\n<p><strong>Spur Mount:</strong> You can spur your mount to greater speed with a move action. A successful Ride check increases the mount’s speed by 10 feet for 1 round but deals 1d3 points of damage to the creature. You can use this ability every round, but the mount becomes fatigued after a number of rounds equal to its Constitution score. This ability cannot be used on a fatigued mount.</p>\n<p><strong>Control Mount in Battle:</strong> As a move action, you can attempt to control a light horse, pony, heavy horse, or other mount not trained for combat riding while in battle. If you fail the Ride check, you can do nothing else in that round. You do not need to roll for horses or ponies trained for combat.</p>\n<p><strong>Fast Mount or Dismount:</strong> You can attempt to mount or dismount from a mount of up to one size category larger than yourself as a free action, provided that you still have a move action available that round. If you fail the Ride check, mounting or dismounting is a move action. You can’t use fast mount or dismount on a mount more than one size category larger than yourself.</p>\n<p><strong>Action:</strong> Varies. Mounting or dismounting normally is a move action. Other checks are a move action, a free action, or no action at all, as noted above.</p>\n<p><strong>Special:</strong> If you are riding bareback, you take a –5 penalty on Ride checks.</p>\n<p>If you have the @Compendium[pf1.feats.bqoIfsrF8BF1GC28]{Animal Affinity} feat, you get a bonus on Ride checks.</p>\n<p>If you use a military saddle you get a +2 circumstance bonus on Ride checks related to staying in the saddle.</p>\n<p>Ride is a prerequisite for @Compendium[pf1.feats.rp9HV7wYcMb333si]{Mounted Archery}, @Compendium[pf1.feats.0spsP9ylE3goD3jc]{Mounted Combat}, @Compendium[pf1.feats.liPAO5urMI9chctT]{Ride-By Attack}, @Compendium[pf1.feats.jKVhOxHu6VmUgFdp]{Spirited Charge}, and @Compendium[pf1.feats.8mS9B8Uc8odklIpl]{Trample}.</p>\n<h1>Unchained - Skill Unlock</h1>\n<p><strong>Source</strong>&nbsp;<a href=\"http://paizo.com/products/btpy9c25?Pathfinder-Roleplaying-Game-Pathfinder-Unchained\" target=\"_blank\" rel=\"noopener\">Pathfinder Unchained pg. 86</a><br>With sufficient ranks in Ride, you earn the following.</p>\n<p><strong>5 Ranks:</strong> Your mount gains a +2 bonus on Fortitude saves or Constitution checks to avoid becoming @Compendium[pf1.conditions.nku8mgRBNt0iXqzB]{fatigued} or @Compendium[pf1.conditions.I1cKXhfBaFIrL9Ix]{exhausted}. This bonus increases by 1 for every 5 ranks beyond 5 you possess in Ride.</p>\n<p><strong>10 Ranks:</strong> When you spur your mount, its speed is increased by 20 feet, and it gains a +2 bonus on Reflex saves and a +2 dodge bonus to AC.</p>\n<p><strong>15 Ranks:</strong> When an opponent targets you or your mount with a bull rush, drag, overrun, reposition, or trip combat maneuver while you are mounted, you can substitute the result of a Ride check in place of your (or your mount’s) CMD.</p>\n<p><strong>20 Ranks:</strong> When you spur your mount, its speed is increased by 30 feet, and it gains a +4 bonus on Reflex saves and a +4 dodge bonus to AC.</p>",
  "_id": "mKO8Q4uMiqpMySOZ"
}
