{
  "name": "Use Magic Device",
  "permission": {
    "default": 0
  },
  "flags": {},
  "content": "<p><strong>Source</strong>&nbsp;<a href=\"http://paizo.com/pathfinderRPG/v5748btpy88yj\" target=\"_blank\" rel=\"noopener\">PRPG Core Rulebook pg. 108</a><br>You are skilled at activating magic items, even if you are not otherwise trained in their use.</p>\n<p><strong>Check:</strong> You can use this skill to read a spell or to activate a magic item. Use Magic Device lets you use a magic item as if you had the spell ability or class features of another class, as if you were a different race, or as if you were of a different alignment.</p>\n<p>You make a Use Magic Device check each time you activate a device such as a wand. If you are using the check to emulate an alignment or some other quality in an ongoing manner, you need to make the relevant Use Magic Device check once per hour.</p>\n<p>You must consciously choose which requirement to emulate. That is, you must know what you are trying to emulate when you make a Use Magic Device check for that purpose. The DCs for various tasks involving Use Magic Device checks are summarized on the table below.</p>\n<table>\n<thead>\n<tr>\n<td scope=\"col\">Task</td>\n<td scope=\"col\">Use Magic Device DC</td>\n</tr>\n</thead>\n<tbody>\n<tr>\n<td>Activate blindly</td>\n<td>25</td>\n</tr>\n<tr>\n<td>Decipher a written spell</td>\n<td>25 + spell level</td>\n</tr>\n<tr>\n<td>Use a scroll</td>\n<td>20 + caster level</td>\n</tr>\n<tr>\n<td>Use a wand</td>\n<td>20</td>\n</tr>\n<tr>\n<td>Emulate a class feature</td>\n<td>20</td>\n</tr>\n<tr>\n<td>Emulate an ability score</td>\n<td>See text</td>\n</tr>\n<tr>\n<td>Emulate a race</td>\n<td>25</td>\n</tr>\n<tr>\n<td>Emulate an alignment</td>\n<td>30</td>\n</tr>\n</tbody>\n</table>\n<p><strong>Activate Blindly:</strong> Some magic items are activated by special words, thoughts, or actions. You can activate such an item as if you were using the activation word, thought, or action, even when you’re not and even if you don’t know it. You do have to perform some equivalent activity in order to make the check. That is, you must speak, wave the item around, or otherwise attempt to get it to activate. You get a +2 bonus on your Use Magic Device check if you’ve activated the item in question at least once before. If you fail by 9 or less, you can’t activate the device. If you fail by 10 or more, you suffer a mishap. A mishap means that magical energy gets released but doesn’t do what you wanted it to do. The default mishaps are that the item affects the wrong target or that uncontrolled magical energy is released, dealing 2d6 points of damage to you. This mishap is in addition to the chance for a mishap that you normally risk when you cast a spell from a scroll that you could not otherwise cast yourself.</p>\n<p><strong>Decipher a Written Spell:</strong> This usage works just like deciphering a written spell with the Spellcraft skill, except that the DC is 5 points higher. Deciphering a written spell requires 1 minute of concentration.</p>\n<p><strong>Emulate an Ability Score:</strong> To cast a spell from a scroll, you need a high score in the appropriate ability (Intelligence for @Compendium[pf1.classes.0c4lYDywj6bQ0i8r]{wizard} spells, Wisdom for divine spells, or Charisma for @Compendium[pf1.classes.AoWSbnuTSGIxmv61]{sorcerer} or @Compendium[pf1.classes.6GjOjO6r3R06fLwE]{bard} spells). Your effective ability score (appropriate to the class you’re emulating when you try to cast the spell from the scroll) is your Use Magic Device check result minus 15. If you already have a high enough score in the appropriate ability, you don’t need to make this check.</p>\n<p><strong>Emulate an Alignment:</strong> Some magic items have positive or negative effects based on the user’s alignment. Use Magic Device lets you use these items as if you were of an alignment of your choice. You can emulate only one alignment at a time.</p>\n<p><strong>Emulate a Class Feature:</strong> Sometimes you need to use a class feature to activate a magic item. In this case, your effective level in the emulated class equals your Use Magic Device check result minus 20. This skill does not let you actually use the class feature of another class. It just lets you activate items as if you had that class feature. If the class whose feature you are emulating has an alignment requirement, you must meet it, either honestly or by emulating an appropriate alignment with a separate Use Magic Device check (see above).</p>\n<p><strong>Emulate a Race:</strong> Some magic items work only for members of certain races, or work better for members of those races. You can use such an item as if you were a member of a race of your choice. You can emulate only one race at a time.</p>\n<p><strong>Use a Scroll:</strong> Normally, to cast a spell from a scroll, you must have the scroll’s spell on your class spell list. Use Magic Device allows you to use a scroll as if you had a particular spell on your class spell list. The DC is equal to 20 + the caster level of the spell you are trying to cast from the scroll. In addition, casting a spell from a scroll requires a minimum score (10 + spell level) in the appropriate ability. If you don’t have a sufficient score in that ability, you must emulate the ability score with a separate Use Magic Device check.</p>\n<p>This use of the skill also applies to other spell completion magic items.</p>\n<p><strong>Use a Wand, Staff, or Other Spell Trigger Item:</strong> Normally, to use a wand, you must have the wand’s spell on your class spell list. This use of the skill allows you to use a wand as if you had a particular spell on your class spell list. Failing the roll does not expend a charge.</p>\n<p><strong>Action:</strong> None. The Use Magic Device check is made as part of the action (if any) required to activate the magic item.</p>\n<p><strong>Try Again:</strong> Yes, but if you ever roll a natural 1 while attempting to activate an item and you fail, then you can’t try to activate that item again for 24 hours.</p>\n<p><strong>Special:</strong> You cannot take 10 with this skill. You can’t aid another on Use Magic Device checks. Only the user of the item may attempt such a check.</p>\n<p>If you have the @Compendium[pf1.feats.CLSsMyNmdcNAOUKC]{Magical Aptitude} feat, you gain a bonus on Use Magic Device checks (see Feats).</p>\n<h1>Intentional Mishap</h1>\n<p><strong>Source</strong>&nbsp;<a href=\"http://paizo.com/products/btpy9l2w?Pathfinder-Player-Companion-Spymasters-Handbook\" target=\"_blank\" rel=\"noopener\">Spymaster's Handbook pg. 8</a><br>You can intentionally cause a magic item to produce a mishap.</p>\n<p><strong>Check:</strong> You can cause a magic item to have an intentional magic mishap, as if you had attempted to activate it blindly and failed by 10 or more. The DC to produce an intentional mishap is 30. If you succeed, you have some control over the mishap. The item deals 2d6 points of damage to any one creature or object that the item could have targeted if activated normally. You can attempt to aim it, but if you select an invalid target, you take the damage instead. If you fail the check by 9 or less, you create a normal mishap you do not control. If you fail by 10 or more, nothing happens.</p>\n<p><strong>Action:</strong> Attempting to create a mishap is like activating an item blindly, and requires a standard action during which you try out magic words or other appropriate actions.</p>\n<h1>Unchained - Skill Unlock</h1>\n<p><strong>Source</strong>&nbsp;<a href=\"http://paizo.com/products/btpy9c25?Pathfinder-Roleplaying-Game-Pathfinder-Unchained\" target=\"_blank\" rel=\"noopener\">Pathfinder Unchained pg. 87</a><br>With sufficient ranks in Use Magic Device, you earn the following.</p>\n<p><strong>5 Ranks:</strong> You can use the aid another action to assist another creature’s Use Magic Device check by attempting a check against the item’s Use Magic Device DC.</p>\n<p><strong>10 Ranks:</strong> If you roll a natural 1 when activating an item, you take a –10 penalty on Use Magic Device checks with that item for 24 hours instead of being unable to activate it. This penalty stacks with itself.</p>\n<p><strong>15 Ranks:</strong> You can use this skill to emulate two races or two alignments simultaneously.</p>\n<p><strong>20 Ranks:</strong> If you roll a natural 1 when activating an item, you can reroll the check at a –10 penalty to activate the item. You must take the result of the second check, even if it is worse, and you can’t reroll it again.</p>",
  "_id": "WR5lekzyLT6T2CFH"
}
